(export (version D)
  (design
    (source C:\Users\aleja\Documents\Zembia\Zenergy\PCB_Nodo\NodoZenergy\NodoZenergy.sch)
    (date "26-11-2019 16:51:15")
    (tool "Eeschema (5.1.4)-1")
    (sheet (number 1) (name /) (tstamps /)
      (title_block
        (title)
        (company)
        (rev)
        (date)
        (source NodoZenergy.sch)
        (comment (number 1) (value ""))
        (comment (number 2) (value ""))
        (comment (number 3) (value ""))
        (comment (number 4) (value ""))))
    (sheet (number 2) (name /Sheet5DDBFABF/) (tstamps /5DDBFAC0/)
      (title_block
        (title)
        (company)
        (rev)
        (date)
        (source SingleSupplyOpAmp.sch)
        (comment (number 1) (value ""))
        (comment (number 2) (value ""))
        (comment (number 3) (value ""))
        (comment (number 4) (value ""))))
    (sheet (number 3) (name /Sheet5DD7FC8E/) (tstamps /5DD7FC8F/)
      (title_block
        (title)
        (company)
        (rev)
        (date)
        (source PIC32MM.sch)
        (comment (number 1) (value ""))
        (comment (number 2) (value ""))
        (comment (number 3) (value ""))
        (comment (number 4) (value ""))))
    (sheet (number 4) (name /Sheet5DE37546/) (tstamps /5DE37547/)
      (title_block
        (title)
        (company)
        (rev)
        (date)
        (source 3V3_Regulator.sch)
        (comment (number 1) (value ""))
        (comment (number 2) (value ""))
        (comment (number 3) (value ""))
        (comment (number 4) (value "")))))
  (components
    (comp (ref PS1)
      (value RAC05-05SK)
      (footprint Converter_ACDC:Converter_ACDC_RECOM_RAC05-xxSK_THT)
      (datasheet https://www.recom-power.com/pdf/Powerline-AC-DC/RAC05-K.pdf)
      (fields
        (field (name MPN) RAC05-05SK))
      (libsource (lib Converter_ACDC) (part RAC05-05SK) (description "5W Single Output EMC Class B 5V 1000mA"))
      (sheetpath (names /) (tstamps /))
      (tstamp 5DD8193E))
    (comp (ref J1)
      (value Conn_01x02)
      (footprint Connector_Molex:Molex_Micro-Fit_3.0_43045-0210_2x01-1MP_P3.00mm_Horizontal)
      (datasheet ~)
      (libsource (lib Connector_Generic) (part Conn_01x02) (description "Generic connector, single row, 01x02, script generated (kicad-library-utils/schlib/autogen/connector/)"))
      (sheetpath (names /) (tstamps /))
      (tstamp 5DD8378C))
    (comp (ref U1)
      (value Xbee3_SMT)
      (footprint zembia-footprints:XB3-24Z8CM-J)
      (fields
        (field (name MPN) XB3-24Z8CM))
      (libsource (lib zembia) (part Xbee3_SMT) (description ""))
      (sheetpath (names /) (tstamps /))
      (tstamp 5DD8C44F))
    (comp (ref J3)
      (value Conn_01x06)
      (footprint Connector_JST:JST_PH_B6B-PH-SM4-TB_1x06-1MP_P2.00mm_Vertical)
      (datasheet ~)
      (fields
        (field (name MPN) 1775470-6))
      (libsource (lib Connector_Generic) (part Conn_01x06) (description "Generic connector, single row, 01x06, script generated (kicad-library-utils/schlib/autogen/connector/)"))
      (sheetpath (names /) (tstamps /))
      (tstamp 5DD8F912))
    (comp (ref C1)
      (value 1uF)
      (footprint Capacitor_SMD:C_0603_1608Metric)
      (datasheet ~)
      (fields
        (field (name MPN) LMK107B7105KA-T))
      (libsource (lib Device) (part C) (description "Unpolarized capacitor"))
      (sheetpath (names /) (tstamps /))
      (tstamp 5DD91ABC))
    (comp (ref J2)
      (value Conn_01x06)
      (footprint Connector_Molex:Molex_Micro-Fit_3.0_43045-0610_2x03-1MP_P3.00mm_Horizontal)
      (datasheet ~)
      (libsource (lib Connector_Generic) (part Conn_01x06) (description "Generic connector, single row, 01x06, script generated (kicad-library-utils/schlib/autogen/connector/)"))
      (sheetpath (names /) (tstamps /))
      (tstamp 5DE17EFB))
    (comp (ref D1)
      (value LED)
      (footprint LED_SMD:LED_0805_2012Metric)
      (datasheet ~)
      (fields
        (field (name MPN) 749-SM0805UYC))
      (libsource (lib Device) (part LED) (description "Light emitting diode"))
      (sheetpath (names /) (tstamps /))
      (tstamp 5DE43607))
    (comp (ref R1)
      (value 120)
      (footprint Resistor_SMD:R_0603_1608Metric)
      (datasheet ~)
      (fields
        (field (name MPN) CR0603-JW-121ELF))
      (libsource (lib Device) (part R) (description Resistor))
      (sheetpath (names /) (tstamps /))
      (tstamp 5DE43BE4))
    (comp (ref R2)
      (value 120)
      (footprint Resistor_SMD:R_0603_1608Metric)
      (datasheet ~)
      (fields
        (field (name MPN) CR0603-JW-121ELF))
      (libsource (lib Device) (part R) (description Resistor))
      (sheetpath (names /) (tstamps /))
      (tstamp 5DE46F45))
    (comp (ref D3)
      (value LED)
      (footprint LED_SMD:LED_0805_2012Metric)
      (datasheet ~)
      (fields
        (field (name MPN) 749-SM0805UYC))
      (libsource (lib Device) (part LED) (description "Light emitting diode"))
      (sheetpath (names /) (tstamps /))
      (tstamp 5DE48FB5))
    (comp (ref R3)
      (value 120)
      (footprint Resistor_SMD:R_0603_1608Metric)
      (datasheet ~)
      (fields
        (field (name MPN) CR0603-JW-121ELF))
      (libsource (lib Device) (part R) (description Resistor))
      (sheetpath (names /) (tstamps /))
      (tstamp 5DE48FC0))
    (comp (ref D4)
      (value LED)
      (footprint LED_SMD:LED_0805_2012Metric)
      (datasheet ~)
      (fields
        (field (name MPN) 749-SM0805UYC))
      (libsource (lib Device) (part LED) (description "Light emitting diode"))
      (sheetpath (names /) (tstamps /))
      (tstamp 5DE48FCC))
    (comp (ref R8)
      (value 120)
      (footprint Resistor_SMD:R_0603_1608Metric)
      (datasheet ~)
      (fields
        (field (name MPN) CR0603-JW-121ELF))
      (libsource (lib Device) (part R) (description Resistor))
      (sheetpath (names /) (tstamps /))
      (tstamp 5DE48FD7))
    (comp (ref D5)
      (value LED)
      (footprint LED_SMD:LED_0805_2012Metric)
      (datasheet ~)
      (fields
        (field (name MPN) 749-SM0805UYC))
      (libsource (lib Device) (part LED) (description "Light emitting diode"))
      (sheetpath (names /) (tstamps /))
      (tstamp 5DE4CAD5))
    (comp (ref R9)
      (value 120)
      (footprint Resistor_SMD:R_0603_1608Metric)
      (datasheet ~)
      (fields
        (field (name MPN) CR0603-JW-121ELF))
      (libsource (lib Device) (part R) (description Resistor))
      (sheetpath (names /) (tstamps /))
      (tstamp 5DE4CAE0))
    (comp (ref D6)
      (value LED)
      (footprint LED_SMD:LED_0805_2012Metric)
      (datasheet ~)
      (fields
        (field (name MPN) 749-SM0805UYC))
      (libsource (lib Device) (part LED) (description "Light emitting diode"))
      (sheetpath (names /) (tstamps /))
      (tstamp 5DE4CAEC))
    (comp (ref R10)
      (value 120)
      (footprint Resistor_SMD:R_0603_1608Metric)
      (datasheet ~)
      (fields
        (field (name MPN) CR0603-JW-121ELF))
      (libsource (lib Device) (part R) (description Resistor))
      (sheetpath (names /) (tstamps /))
      (tstamp 5DE4CAF7))
    (comp (ref D7)
      (value LED)
      (footprint LED_SMD:LED_0805_2012Metric)
      (datasheet ~)
      (fields
        (field (name MPN) 749-SM0805UYC))
      (libsource (lib Device) (part LED) (description "Light emitting diode"))
      (sheetpath (names /) (tstamps /))
      (tstamp 5DE4CB03))
    (comp (ref R11)
      (value 120)
      (footprint Resistor_SMD:R_0603_1608Metric)
      (datasheet ~)
      (fields
        (field (name MPN) CR0603-JW-121ELF))
      (libsource (lib Device) (part R) (description Resistor))
      (sheetpath (names /) (tstamps /))
      (tstamp 5DE4CB0E))
    (comp (ref D2)
      (value LED)
      (footprint LED_SMD:LED_0805_2012Metric)
      (datasheet ~)
      (fields
        (field (name MPN) 749-SM0805UYC))
      (libsource (lib Device) (part LED) (description "Light emitting diode"))
      (sheetpath (names /) (tstamps /))
      (tstamp 5DE46F3A))
    (comp (ref SW1)
      (value SW_SPDT)
      (footprint zembia-footprints:1825232-1)
      (datasheet ~)
      (fields
        (field (name MPN) 1825232-1))
      (libsource (lib Switch) (part SW_SPDT) (description "Switch, single pole double throw"))
      (sheetpath (names /) (tstamps /))
      (tstamp 5DDD89EB))
    (comp (ref TP1)
      (value TestPoint)
      (footprint TestPoint:TestPoint_Pad_D1.0mm)
      (datasheet ~)
      (libsource (lib Connector) (part TestPoint) (description "test point"))
      (sheetpath (names /) (tstamps /))
      (tstamp 5DDEDB03))
    (comp (ref TP2)
      (value TestPoint)
      (footprint TestPoint:TestPoint_Pad_D1.0mm)
      (datasheet ~)
      (libsource (lib Connector) (part TestPoint) (description "test point"))
      (sheetpath (names /) (tstamps /))
      (tstamp 5DDEE1BD))
    (comp (ref TP3)
      (value TestPoint)
      (footprint TestPoint:TestPoint_Pad_D1.0mm)
      (datasheet ~)
      (libsource (lib Connector) (part TestPoint) (description "test point"))
      (sheetpath (names /) (tstamps /))
      (tstamp 5DDF02AF))
    (comp (ref TP4)
      (value TestPoint)
      (footprint TestPoint:TestPoint_Pad_D1.0mm)
      (datasheet ~)
      (libsource (lib Connector) (part TestPoint) (description "test point"))
      (sheetpath (names /) (tstamps /))
      (tstamp 5DDF05D4))
    (comp (ref TP5)
      (value TestPoint)
      (footprint TestPoint:TestPoint_Pad_D1.0mm)
      (datasheet ~)
      (libsource (lib Connector) (part TestPoint) (description "test point"))
      (sheetpath (names /) (tstamps /))
      (tstamp 5DDFAAD3))
    (comp (ref U6)
      (value TLV9001IDCKR)
      (footprint Package_TO_SOT_SMD:SOT-353_SC-70-5)
      (fields
        (field (name MPN) TLV9001IDCKR))
      (libsource (lib Amplifier_Operational) (part OPA330xxDCK) (description "50μV V OS, 0.25μV/°C, 35μA CMOS OPERATIONAL AMPLIFIERS, Zerø-Drift Series, SC70"))
      (sheetpath (names /Sheet5DDBFABF/) (tstamps /5DDBFAC0/))
      (tstamp 5DDBFD75))
    (comp (ref R4)
      (value 470k)
      (footprint Resistor_SMD:R_0603_1608Metric)
      (datasheet ~)
      (fields
        (field (name MPN) CR0603-FX-4703ELF))
      (libsource (lib Device) (part R) (description Resistor))
      (sheetpath (names /Sheet5DDBFABF/) (tstamps /5DDBFAC0/))
      (tstamp 5DDC1A4E))
    (comp (ref U3)
      (value TLV9001IDCKR)
      (footprint Package_TO_SOT_SMD:SOT-353_SC-70-5)
      (fields
        (field (name MPN) TLV9001IDCKR))
      (libsource (lib Amplifier_Operational) (part OPA330xxDCK) (description "50μV V OS, 0.25μV/°C, 35μA CMOS OPERATIONAL AMPLIFIERS, Zerø-Drift Series, SC70"))
      (sheetpath (names /Sheet5DDBFABF/) (tstamps /5DDBFAC0/))
      (tstamp 5DDC5384))
    (comp (ref U5)
      (value TLV9001IDCKR)
      (footprint Package_TO_SOT_SMD:SOT-353_SC-70-5)
      (fields
        (field (name MPN) TLV9001IDCKR))
      (libsource (lib Amplifier_Operational) (part OPA330xxDCK) (description "50μV V OS, 0.25μV/°C, 35μA CMOS OPERATIONAL AMPLIFIERS, Zerø-Drift Series, SC70"))
      (sheetpath (names /Sheet5DDBFABF/) (tstamps /5DDBFAC0/))
      (tstamp 5DDE97CF))
    (comp (ref U4)
      (value TLV9001IDCKR)
      (footprint Package_TO_SOT_SMD:SOT-353_SC-70-5)
      (fields
        (field (name MPN) TLV9001IDCKR))
      (libsource (lib Amplifier_Operational) (part OPA330xxDCK) (description "50μV V OS, 0.25μV/°C, 35μA CMOS OPERATIONAL AMPLIFIERS, Zerø-Drift Series, SC70"))
      (sheetpath (names /Sheet5DDBFABF/) (tstamps /5DDBFAC0/))
      (tstamp 5DDEBBC0))
    (comp (ref C4)
      (value 10uF)
      (footprint Capacitor_SMD:C_0603_1608Metric)
      (datasheet ~)
      (fields
        (field (name MPN) ZRB18AR61E106ME01L))
      (libsource (lib Device) (part C) (description "Unpolarized capacitor"))
      (sheetpath (names /Sheet5DDBFABF/) (tstamps /5DDBFAC0/))
      (tstamp 5DDF4A44))
    (comp (ref C5)
      (value 10uF)
      (footprint Capacitor_SMD:C_0603_1608Metric)
      (datasheet ~)
      (fields
        (field (name MPN) ZRB18AR61E106ME01L))
      (libsource (lib Device) (part C) (description "Unpolarized capacitor"))
      (sheetpath (names /Sheet5DDBFABF/) (tstamps /5DDBFAC0/))
      (tstamp 5DDF6909))
    (comp (ref C6)
      (value 10uF)
      (footprint Capacitor_SMD:C_0603_1608Metric)
      (datasheet ~)
      (fields
        (field (name MPN) ZRB18AR61E106ME01L))
      (libsource (lib Device) (part C) (description "Unpolarized capacitor"))
      (sheetpath (names /Sheet5DDBFABF/) (tstamps /5DDBFAC0/))
      (tstamp 5DDF7AF6))
    (comp (ref R5)
      (value 470k)
      (footprint Resistor_SMD:R_0603_1608Metric)
      (datasheet ~)
      (fields
        (field (name MPN) CR0603-FX-4703ELF))
      (libsource (lib Device) (part R) (description Resistor))
      (sheetpath (names /Sheet5DDBFABF/) (tstamps /5DDBFAC0/))
      (tstamp 5DE04D79))
    (comp (ref U7)
      (value PIC32MM0256GPM064-IPT)
      (footprint Package_QFP:TQFP-64_10x10mm_P0.5mm)
      (fields
        (field (name MPN) PIC32MM0256GPM064-I/PT))
      (libsource (lib zembia) (part PIC32MM0256GPM064-IPT) (description ""))
      (sheetpath (names /Sheet5DD7FC8E/) (tstamps /5DD7FC8F/))
      (tstamp 5DBE27CC))
    (comp (ref J4)
      (value Conn_01x05)
      (footprint Connector_JST:JST_PH_B5B-PH-SM4-TB_1x05-1MP_P2.00mm_Vertical)
      (datasheet ~)
      (fields
        (field (name MPN) 620305124022))
      (libsource (lib Connector_Generic) (part Conn_01x05) (description "Generic connector, single row, 01x05, script generated (kicad-library-utils/schlib/autogen/connector/)"))
      (sheetpath (names /Sheet5DD7FC8E/) (tstamps /5DD7FC8F/))
      (tstamp 5DBE27D3))
    (comp (ref R7)
      (value 1k)
      (footprint Resistor_SMD:R_0603_1608Metric)
      (datasheet ~)
      (fields
        (field (name MPN) CR0603-JW-102ELF))
      (libsource (lib Device) (part R) (description Resistor))
      (sheetpath (names /Sheet5DD7FC8E/) (tstamps /5DD7FC8F/))
      (tstamp 5DBE27E5))
    (comp (ref C7)
      (value 0.1uF)
      (footprint Capacitor_SMD:C_0603_1608Metric)
      (datasheet ~)
      (fields
        (field (name MPN) C0603C104M4RAC7411))
      (libsource (lib Device) (part C) (description "Unpolarized capacitor"))
      (sheetpath (names /Sheet5DD7FC8E/) (tstamps /5DD7FC8F/))
      (tstamp 5DBE27F9))
    (comp (ref C10)
      (value 0.1uF)
      (footprint Capacitor_SMD:C_0603_1608Metric)
      (datasheet ~)
      (fields
        (field (name MPN) C0603C104M4RAC7411))
      (libsource (lib Device) (part C) (description "Unpolarized capacitor"))
      (sheetpath (names /Sheet5DD7FC8E/) (tstamps /5DD7FC8F/))
      (tstamp 5DBE2807))
    (comp (ref C11)
      (value 0.1uF)
      (footprint Capacitor_SMD:C_0603_1608Metric)
      (datasheet ~)
      (fields
        (field (name MPN) C0603C104M4RAC7411))
      (libsource (lib Device) (part C) (description "Unpolarized capacitor"))
      (sheetpath (names /Sheet5DD7FC8E/) (tstamps /5DD7FC8F/))
      (tstamp 5DBE2816))
    (comp (ref C12)
      (value 0.1uF)
      (footprint Capacitor_SMD:C_0603_1608Metric)
      (datasheet ~)
      (fields
        (field (name MPN) C0603C104M4RAC7411))
      (libsource (lib Device) (part C) (description "Unpolarized capacitor"))
      (sheetpath (names /Sheet5DD7FC8E/) (tstamps /5DD7FC8F/))
      (tstamp 5DBE2823))
    (comp (ref C15)
      (value 0.1uF)
      (footprint Capacitor_SMD:C_0603_1608Metric)
      (datasheet ~)
      (fields
        (field (name MPN) C0603C104M4RAC7411))
      (libsource (lib Device) (part C) (description "Unpolarized capacitor"))
      (sheetpath (names /Sheet5DD7FC8E/) (tstamps /5DD7FC8F/))
      (tstamp 5DBE2847))
    (comp (ref C17)
      (value 0.1uF)
      (footprint Capacitor_SMD:C_0603_1608Metric)
      (datasheet ~)
      (fields
        (field (name MPN) C0603C104M4RAC7411))
      (libsource (lib Device) (part C) (description "Unpolarized capacitor"))
      (sheetpath (names /Sheet5DD7FC8E/) (tstamps /5DD7FC8F/))
      (tstamp 5DBE2850))
    (comp (ref Y1)
      (value "32.768 kHz")
      (footprint Crystal:Crystal_SMD_3215-2Pin_3.2x1.5mm)
      (datasheet ~)
      (fields
        (field (name MPN) ABS07AIG-32.768KHZ-6-1-T))
      (libsource (lib Device) (part Crystal_Small) (description "Two pin crystal, small symbol"))
      (sheetpath (names /Sheet5DD7FC8E/) (tstamps /5DD7FC8F/))
      (tstamp 5DBE285C))
    (comp (ref C8)
      (value 22pF)
      (footprint Capacitor_SMD:C_0603_1608Metric)
      (datasheet ~)
      (fields
        (field (name MPN) CC0603JRNPO9BN220))
      (libsource (lib Device) (part C) (description "Unpolarized capacitor"))
      (sheetpath (names /Sheet5DD7FC8E/) (tstamps /5DD7FC8F/))
      (tstamp 5DBE2867))
    (comp (ref C9)
      (value 22pF)
      (footprint Capacitor_SMD:C_0603_1608Metric)
      (datasheet ~)
      (fields
        (field (name MPN) CC0603JRNPO9BN220))
      (libsource (lib Device) (part C) (description "Unpolarized capacitor"))
      (sheetpath (names /Sheet5DD7FC8E/) (tstamps /5DD7FC8F/))
      (tstamp 5DBE2870))
    (comp (ref C13)
      (value 0.1uF)
      (footprint Capacitor_SMD:C_0603_1608Metric)
      (datasheet ~)
      (fields
        (field (name MPN) C0603C104M4RAC7411))
      (libsource (lib Device) (part C) (description "Unpolarized capacitor"))
      (sheetpath (names /Sheet5DD7FC8E/) (tstamps /5DD7FC8F/))
      (tstamp 5DBE2830))
    (comp (ref R6)
      (value 10k)
      (footprint Resistor_SMD:R_0603_1608Metric)
      (datasheet ~)
      (fields
        (field (name MPN) CR0603-JW-103ELF))
      (libsource (lib Device) (part R) (description Resistor))
      (sheetpath (names /Sheet5DD7FC8E/) (tstamps /5DD7FC8F/))
      (tstamp 5DBE27EF))
    (comp (ref C14)
      (value 10uF)
      (footprint Capacitor_SMD:C_0603_1608Metric)
      (datasheet ~)
      (fields
        (field (name MPN) ZRB18AR61E106ME01L))
      (libsource (lib Device) (part C) (description "Unpolarized capacitor"))
      (sheetpath (names /Sheet5DD7FC8E/) (tstamps /5DD7FC8F/))
      (tstamp 5DD22999))
    (comp (ref C16)
      (value 10uF)
      (footprint Capacitor_SMD:C_0603_1608Metric)
      (datasheet ~)
      (fields
        (field (name MPN) ZRB18AR61E106ME01L))
      (libsource (lib Device) (part C) (description "Unpolarized capacitor"))
      (sheetpath (names /Sheet5DD7FC8E/) (tstamps /5DD7FC8F/))
      (tstamp 5DD23535))
    (comp (ref U2)
      (value LMR23610AQDDARQ1)
      (footprint zembia-footprints:LMR23610AQDDARQ1)
      (fields
        (field (name MPN) LMR23610AQDDARQ1))
      (libsource (lib zembia) (part LMR23610AQDDARQ1) (description ""))
      (sheetpath (names /Sheet5DE37546/) (tstamps /5DE37547/))
      (tstamp 5D1ED78C))
    (comp (ref C18)
      (value 2.2uF)
      (footprint Capacitor_SMD:C_0603_1608Metric)
      (fields
        (field (name MPN) GRM188R61E225MA12D))
      (libsource (lib Device) (part C) (description "Unpolarized capacitor"))
      (sheetpath (names /Sheet5DE37546/) (tstamps /5DE37547/))
      (tstamp 5D1ED8AE))
    (comp (ref C3)
      (value 4.7uF)
      (footprint Capacitor_SMD:C_0603_1608Metric)
      (fields
        (field (name MPN) C1608JB1E475M080AC))
      (libsource (lib Device) (part C) (description "Unpolarized capacitor"))
      (sheetpath (names /Sheet5DE37546/) (tstamps /5DE37547/))
      (tstamp 5D1EDC24))
    (comp (ref C2)
      (value 4.7uF)
      (footprint Capacitor_SMD:C_0603_1608Metric)
      (fields
        (field (name MPN) C1608JB1E475M080AC))
      (libsource (lib Device) (part C) (description "Unpolarized capacitor"))
      (sheetpath (names /Sheet5DE37546/) (tstamps /5DE37547/))
      (tstamp 5D1FE00C))
    (comp (ref C19)
      (value 0.1uF)
      (footprint Capacitor_SMD:C_0603_1608Metric)
      (fields
        (field (name MPN) C0603C104Z3VACTU))
      (libsource (lib Device) (part C) (description "Unpolarized capacitor"))
      (sheetpath (names /Sheet5DE37546/) (tstamps /5DE37547/))
      (tstamp 5D1FE00D))
    (comp (ref L1)
      (value 22uH)
      (footprint zembia-footprints:SRN6045-220M)
      (fields
        (field (name MPN) SRN6045-220M))
      (libsource (lib Device) (part L) (description Inductor))
      (sheetpath (names /Sheet5DE37546/) (tstamps /5DE37547/))
      (tstamp 5D1EE651))
    (comp (ref R12)
      (value 49.9)
      (footprint Resistor_SMD:R_0603_1608Metric)
      (fields
        (field (name MPN) CR0603-FX-4992ELF))
      (libsource (lib Device) (part R) (description Resistor))
      (sheetpath (names /Sheet5DE37546/) (tstamps /5DE37547/))
      (tstamp 5D1EE999))
    (comp (ref R13)
      (value 22k)
      (footprint Resistor_SMD:R_0603_1608Metric)
      (fields
        (field (name MPN) CR0603-FX-2202ELF))
      (libsource (lib Device) (part R) (description Resistor))
      (sheetpath (names /Sheet5DE37546/) (tstamps /5DE37547/))
      (tstamp 5D1EEC1D))
    (comp (ref C20)
      (value 100uF)
      (footprint Capacitor_Tantalum_SMD:CP_EIA-3528-21_Kemet-B)
      (fields
        (field (name MPN) 8TPE100MAZB))
      (libsource (lib Device) (part CP) (description "Polarized capacitor"))
      (sheetpath (names /Sheet5DE37546/) (tstamps /5DE37547/))
      (tstamp 5D1FE011)))
  (libparts
    (libpart (lib Amplifier_Operational) (part LMV321)
      (aliases
        (alias MCP6561U)
        (alias MCP6001U)
        (alias OPA333xxDCK)
        (alias OPA376xxDCK)
        (alias OPA330xxDCK))
      (description "Low-Voltage Rail-to-Rail Output Operational Amplifiers, SOT-23-5/SC-70-5")
      (docs http://www.ti.com/lit/ds/symlink/lmv324.pdf)
      (footprints
        (fp SOT?23*)
        (fp *SC*70*))
      (fields
        (field (name Reference) U)
        (field (name Value) LMV321))
      (pins
        (pin (num 1) (name +) (type input))
        (pin (num 2) (name V-) (type power_in))
        (pin (num 3) (name -) (type input))
        (pin (num 4) (name ~) (type output))
        (pin (num 5) (name V+) (type power_in))))
    (libpart (lib Connector) (part TestPoint)
      (description "test point")
      (docs ~)
      (footprints
        (fp Pin*)
        (fp Test*))
      (fields
        (field (name Reference) TP)
        (field (name Value) TestPoint))
      (pins
        (pin (num 1) (name 1) (type passive))))
    (libpart (lib Connector_Generic) (part Conn_01x02)
      (description "Generic connector, single row, 01x02, script generated (kicad-library-utils/schlib/autogen/connector/)")
      (docs ~)
      (footprints
        (fp Connector*:*_1x??_*))
      (fields
        (field (name Reference) J)
        (field (name Value) Conn_01x02))
      (pins
        (pin (num 1) (name Pin_1) (type passive))
        (pin (num 2) (name Pin_2) (type passive))))
    (libpart (lib Connector_Generic) (part Conn_01x05)
      (description "Generic connector, single row, 01x05, script generated (kicad-library-utils/schlib/autogen/connector/)")
      (docs ~)
      (footprints
        (fp Connector*:*_1x??_*))
      (fields
        (field (name Reference) J)
        (field (name Value) Conn_01x05))
      (pins
        (pin (num 1) (name Pin_1) (type passive))
        (pin (num 2) (name Pin_2) (type passive))
        (pin (num 3) (name Pin_3) (type passive))
        (pin (num 4) (name Pin_4) (type passive))
        (pin (num 5) (name Pin_5) (type passive))))
    (libpart (lib Connector_Generic) (part Conn_01x06)
      (description "Generic connector, single row, 01x06, script generated (kicad-library-utils/schlib/autogen/connector/)")
      (docs ~)
      (footprints
        (fp Connector*:*_1x??_*))
      (fields
        (field (name Reference) J)
        (field (name Value) Conn_01x06))
      (pins
        (pin (num 1) (name Pin_1) (type passive))
        (pin (num 2) (name Pin_2) (type passive))
        (pin (num 3) (name Pin_3) (type passive))
        (pin (num 4) (name Pin_4) (type passive))
        (pin (num 5) (name Pin_5) (type passive))
        (pin (num 6) (name Pin_6) (type passive))))
    (libpart (lib Converter_ACDC) (part RAC05-3.3SK)
      (aliases
        (alias RAC05-05SK)
        (alias RAC05-12SK)
        (alias RAC05-15SK)
        (alias RAC05-24SK))
      (description "5W Single Output EMC Class B 3.3V 1515mA")
      (docs https://www.recom-power.com/pdf/Powerline-AC-DC/RAC05-K.pdf)
      (footprints
        (fp Converter*ACDC*RECOM*RAC05*SK*))
      (fields
        (field (name Reference) PS)
        (field (name Value) RAC05-3.3SK)
        (field (name Footprint) Converter_ACDC:Converter_ACDC_RECOM_RAC05-xxSK_THT))
      (pins
        (pin (num 1) (name "AC(L)") (type power_in))
        (pin (num 2) (name "AC(N)") (type power_in))
        (pin (num 3) (name NC) (type NotConnected))
        (pin (num 4) (name Vout-) (type power_out))
        (pin (num 5) (name Vout+) (type power_out))))
    (libpart (lib Device) (part C)
      (description "Unpolarized capacitor")
      (docs ~)
      (footprints
        (fp C_*))
      (fields
        (field (name Reference) C)
        (field (name Value) C))
      (pins
        (pin (num 1) (name ~) (type passive))
        (pin (num 2) (name ~) (type passive))))
    (libpart (lib Device) (part CP)
      (description "Polarized capacitor")
      (docs ~)
      (footprints
        (fp CP_*))
      (fields
        (field (name Reference) C)
        (field (name Value) CP))
      (pins
        (pin (num 1) (name ~) (type passive))
        (pin (num 2) (name ~) (type passive))))
    (libpart (lib Device) (part Crystal_Small)
      (description "Two pin crystal, small symbol")
      (docs ~)
      (footprints
        (fp Crystal*))
      (fields
        (field (name Reference) Y)
        (field (name Value) Crystal_Small))
      (pins
        (pin (num 1) (name 1) (type passive))
        (pin (num 2) (name 2) (type passive))))
    (libpart (lib Device) (part L)
      (description Inductor)
      (docs ~)
      (footprints
        (fp Choke_*)
        (fp *Coil*)
        (fp Inductor_*)
        (fp L_*))
      (fields
        (field (name Reference) L)
        (field (name Value) L))
      (pins
        (pin (num 1) (name 1) (type passive))
        (pin (num 2) (name 2) (type passive))))
    (libpart (lib Device) (part LED)
      (description "Light emitting diode")
      (docs ~)
      (footprints
        (fp LED*)
        (fp LED_SMD:*)
        (fp LED_THT:*))
      (fields
        (field (name Reference) D)
        (field (name Value) LED))
      (pins
        (pin (num 1) (name K) (type passive))
        (pin (num 2) (name A) (type passive))))
    (libpart (lib Device) (part R)
      (description Resistor)
      (docs ~)
      (footprints
        (fp R_*))
      (fields
        (field (name Reference) R)
        (field (name Value) R))
      (pins
        (pin (num 1) (name ~) (type passive))
        (pin (num 2) (name ~) (type passive))))
    (libpart (lib Switch) (part SW_SPDT)
      (description "Switch, single pole double throw")
      (docs ~)
      (fields
        (field (name Reference) SW)
        (field (name Value) SW_SPDT))
      (pins
        (pin (num 1) (name A) (type passive))
        (pin (num 2) (name B) (type passive))
        (pin (num 3) (name C) (type passive))))
    (libpart (lib zembia) (part LMR23610AQDDARQ1)
      (fields
        (field (name Reference) U)
        (field (name Value) LMR23610AQDDARQ1))
      (pins
        (pin (num 1) (name SW) (type output))
        (pin (num 2) (name BOOT) (type output))
        (pin (num 3) (name VCC) (type input))
        (pin (num 4) (name FB) (type output))
        (pin (num 5) (name EN_SYNC) (type input))
        (pin (num 6) (name AGND) (type output))
        (pin (num 7) (name VIN) (type input))
        (pin (num 8) (name PGND) (type output))
        (pin (num 9) (name PAD) (type output))))
    (libpart (lib zembia) (part PIC32MM0256GPM064-IPT)
      (fields
        (field (name Reference) U)
        (field (name Value) PIC32MM0256GPM064-IPT)
        (field (name Footprint) Package_QFP:TQFP-64_10x10mm_P0.5mm)
        (field (name MPN) PIC32MM0256GPM064-I/PT))
      (pins
        (pin (num 1) (name RP21/RA7) (type 3state))
        (pin (num 2) (name RP16/RB14) (type 3state))
        (pin (num 3) (name RP17/RB15) (type 3state))
        (pin (num 4) (name AVss/Vss) (type passive))
        (pin (num 5) (name AVDD/VDD) (type passive))
        (pin (num 6) (name RA13) (type 3state))
        (pin (num 7) (name RA12) (type 3state))
        (pin (num 8) (name RA11) (type 3state))
        (pin (num 9) (name ~MCLR) (type passive))
        (pin (num 10) (name RA6) (type 3state))
        (pin (num 11) (name PGEC2/RP1/RA0) (type 3state))
        (pin (num 12) (name PGED2/RP2/RA1) (type 3state))
        (pin (num 13) (name PGED1/RP6/RB0) (type 3state))
        (pin (num 14) (name PGEC1/RP7/RB1) (type 3state))
        (pin (num 15) (name RP8/RB2) (type 3state))
        (pin (num 16) (name TDI/RP9/RB3) (type 3state))
        (pin (num 17) (name VDD) (type passive))
        (pin (num 18) (name VSS) (type passive))
        (pin (num 19) (name RC0) (type 3state))
        (pin (num 20) (name RC1) (type 3state))
        (pin (num 21) (name RP19/RC2) (type 3state))
        (pin (num 22) (name RC11) (type 3state))
        (pin (num 23) (name VDD) (type passive))
        (pin (num 24) (name VSS) (type passive))
        (pin (num 25) (name OSC1/RP3/RA2) (type 3state))
        (pin (num 26) (name OSC2/RP4/RA3) (type 3state))
        (pin (num 27) (name RA8) (type 3state))
        (pin (num 28) (name SOSCI/RP10/RB4) (type 3state))
        (pin (num 29) (name SOSCO/RP5/RA4) (type 3state))
        (pin (num 30) (name RP24/RA9) (type 3state))
        (pin (num 31) (name RD4) (type 3state))
        (pin (num 32) (name RD2) (type 3state))
        (pin (num 33) (name RD3) (type 3state))
        (pin (num 34) (name RD0) (type 3state))
        (pin (num 35) (name RC3) (type 3state))
        (pin (num 36) (name RC4) (type 3state))
        (pin (num 37) (name RC5) (type 3state))
        (pin (num 38) (name VSS) (type passive))
        (pin (num 39) (name VDD) (type passive))
        (pin (num 40) (name RC12) (type 3state))
        (pin (num 41) (name RC14) (type 3state))
        (pin (num 42) (name RC15) (type 3state))
        (pin (num 43) (name PGED3/RP11/RB5) (type 3state))
        (pin (num 44) (name VBUS/RB6) (type 3state))
        (pin (num 45) (name RC10) (type 3state))
        (pin (num 46) (name RP12/RB7) (type 3state))
        (pin (num 47) (name RC13) (type 3state))
        (pin (num 48) (name TCK/RP13/RB8) (type 3state))
        (pin (num 49) (name TMS/RP14/RB9) (type 3state))
        (pin (num 50) (name RP23/RC6) (type 3state))
        (pin (num 51) (name RP20/RC7) (type 3state))
        (pin (num 52) (name RC8) (type 3state))
        (pin (num 53) (name RD1) (type 3state))
        (pin (num 54) (name RA5) (type 3state))
        (pin (num 55) (name PGEC3/TDO/RP18/RC9) (type 3state))
        (pin (num 56) (name VCAP) (type 3state))
        (pin (num 57) (name VDD) (type 3state))
        (pin (num 58) (name RA15) (type 3state))
        (pin (num 59) (name RA14) (type 3state))
        (pin (num 60) (name D-/RB10) (type 3state))
        (pin (num 61) (name D+/RB11) (type 3state))
        (pin (num 62) (name VUSB3V3) (type 3state))
        (pin (num 63) (name RP15/RB13) (type 3state))
        (pin (num 64) (name RP22/RA10) (type 3state))))
    (libpart (lib zembia) (part Xbee3_SMT)
      (fields
        (field (name Reference) U)
        (field (name Value) Xbee3_SMT))
      (pins
        (pin (num 1) (name GND) (type input))
        (pin (num 2) (name VCC) (type input))
        (pin (num 3) (name DOUT/DIO3) (type input))
        (pin (num 4) (name DIN/~CONFIG~/DIO14) (type input))
        (pin (num 5) (name DIO12) (type input))
        (pin (num 6) (name ~RESET) (type input))
        (pin (num 7) (name RSSI_PWM/DIO10) (type input))
        (pin (num 8) (name PWM1/DIO11) (type input))
        (pin (num 9) (name ~DTR~/SLEEP_RQ/DIO8) (type input))
        (pin (num 10) (name GND) (type input))
        (pin (num 11) (name SPI_~AATN~/~BOOTMODE~/DIO19) (type input))
        (pin (num 12) (name GND) (type input))
        (pin (num 13) (name SPI_CLK/DIO18) (type input))
        (pin (num 14) (name SPI_~SSEL~/DIO17) (type input))
        (pin (num 15) (name SPI_MOSI/DIO16) (type input))
        (pin (num 16) (name SPI_MISO/DIO15) (type input))
        (pin (num 17) (name NC) (type input))
        (pin (num 18) (name NC) (type input))
        (pin (num 19) (name NC) (type input))
        (pin (num 20) (name NC) (type input))
        (pin (num 21) (name GND) (type input))
        (pin (num 22) (name NC) (type input))
        (pin (num 23) (name DIO4) (type input))
        (pin (num 24) (name ~CTS~/DIO7) (type input))
        (pin (num 25) (name ON/~SLEEP~/DIO9) (type input))
        (pin (num 26) (name ASSOCIATE/DIO5) (type input))
        (pin (num 27) (name ~RTS~/DIO6) (type input))
        (pin (num 28) (name AD3/DIO3) (type input))
        (pin (num 29) (name AD2/DIO2) (type input))
        (pin (num 30) (name AD1/DIO1*) (type input))
        (pin (num 31) (name AD0/DIO0) (type input))
        (pin (num 32) (name GND) (type input))
        (pin (num 33) (name RF) (type input))
        (pin (num 34) (name GND) (type input)))))
  (libraries
    (library (logical Amplifier_Operational)
      (uri "C:\\Program Files\\KiCad\\share\\kicad\\library/Amplifier_Operational.lib"))
    (library (logical Connector)
      (uri "C:\\Program Files\\KiCad\\share\\kicad\\library/Connector.lib"))
    (library (logical Connector_Generic)
      (uri "C:\\Program Files\\KiCad\\share\\kicad\\library/Connector_Generic.lib"))
    (library (logical Converter_ACDC)
      (uri "C:\\Program Files\\KiCad\\share\\kicad\\library/Converter_ACDC.lib"))
    (library (logical Device)
      (uri "C:\\Program Files\\KiCad\\share\\kicad\\library/Device.lib"))
    (library (logical Switch)
      (uri "C:\\Program Files\\KiCad\\share\\kicad\\library/Switch.lib"))
    (library (logical zembia)
      (uri C:\Users\aleja\Documents\Zembia\zembia-kicad-lib\zembia-symbols\zembia.lib)))
  (nets
    (net (code 1) (name "Net-(D1-Pad2)")
      (node (ref D1) (pin 2))
      (node (ref R1) (pin 2)))
    (net (code 2) (name /3V3)
      (node (ref C11) (pin 1))
      (node (ref R11) (pin 1))
      (node (ref R10) (pin 1))
      (node (ref R4) (pin 1))
      (node (ref C10) (pin 1))
      (node (ref R6) (pin 1))
      (node (ref L1) (pin 2))
      (node (ref R12) (pin 1))
      (node (ref U6) (pin 5))
      (node (ref C12) (pin 1))
      (node (ref R3) (pin 1))
      (node (ref C20) (pin 1))
      (node (ref U7) (pin 4))
      (node (ref J4) (pin 2))
      (node (ref U7) (pin 57))
      (node (ref U7) (pin 23))
      (node (ref U7) (pin 17))
      (node (ref C16) (pin 1))
      (node (ref C13) (pin 1))
      (node (ref U5) (pin 5))
      (node (ref C5) (pin 1))
      (node (ref U7) (pin 39))
      (node (ref R8) (pin 1))
      (node (ref R9) (pin 1))
      (node (ref U4) (pin 5))
      (node (ref C17) (pin 2))
      (node (ref U3) (pin 5))
      (node (ref SW1) (pin 3))
      (node (ref R1) (pin 1))
      (node (ref R2) (pin 1)))
    (net (code 3) (name "Net-(D2-Pad2)")
      (node (ref R2) (pin 2))
      (node (ref D2) (pin 2)))
    (net (code 4) (name "Net-(D3-Pad2)")
      (node (ref R3) (pin 2))
      (node (ref D3) (pin 2)))
    (net (code 5) (name "Net-(D4-Pad2)")
      (node (ref D4) (pin 2))
      (node (ref R8) (pin 2)))
    (net (code 6) (name "Net-(D5-Pad2)")
      (node (ref R9) (pin 2))
      (node (ref D5) (pin 2)))
    (net (code 7) (name /Sheet5DD7FC8E/RC13)
      (node (ref D5) (pin 1))
      (node (ref U7) (pin 47)))
    (net (code 8) (name /Sheet5DD7FC8E/RA13)
      (node (ref U7) (pin 6))
      (node (ref U4) (pin 3))
      (node (ref U4) (pin 4)))
    (net (code 9) (name /Sheet5DD7FC8E/RA12)
      (node (ref U7) (pin 7))
      (node (ref U5) (pin 4))
      (node (ref U5) (pin 3)))
    (net (code 10) (name /Sheet5DD7FC8E/RA11)
      (node (ref U6) (pin 4))
      (node (ref U7) (pin 8))
      (node (ref U6) (pin 3)))
    (net (code 11) (name /Sheet5DD7FC8E/RP15-RB13)
      (node (ref U3) (pin 3))
      (node (ref J2) (pin 1))
      (node (ref U3) (pin 4))
      (node (ref J2) (pin 3))
      (node (ref J2) (pin 2))
      (node (ref C6) (pin 1))
      (node (ref C5) (pin 2))
      (node (ref U7) (pin 63)))
    (net (code 12) (name /Sheet5DD7FC8E/RP11-RB5)
      (node (ref U7) (pin 43))
      (node (ref D1) (pin 1)))
    (net (code 13) (name /Sheet5DD7FC8E/RC10)
      (node (ref D3) (pin 1))
      (node (ref U7) (pin 45)))
    (net (code 14) (name /Sheet5DD7FC8E/RP12-RB7)
      (node (ref D4) (pin 1))
      (node (ref U7) (pin 46)))
    (net (code 15) (name /Sheet5DD7FC8E/RP8-RB2)
      (node (ref TP3) (pin 1))
      (node (ref U7) (pin 15)))
    (net (code 16) (name "Net-(J3-Pad1)")
      (node (ref J3) (pin 1))
      (node (ref SW1) (pin 1)))
    (net (code 17) (name /Sheet5DD7FC8E/RA06-RB0)
      (node (ref TP1) (pin 1))
      (node (ref U7) (pin 13)))
    (net (code 18) (name /Sheet5DD7FC8E/RP7-RB1)
      (node (ref TP2) (pin 1))
      (node (ref U7) (pin 14)))
    (net (code 19) (name /Sheet5DD7FC8E/RP9-RB3)
      (node (ref TP4) (pin 1))
      (node (ref U7) (pin 16)))
    (net (code 20) (name /Sheet5DD7FC8E/RB6)
      (node (ref D2) (pin 1))
      (node (ref U7) (pin 44)))
    (net (code 21) (name /Sheet5DD7FC8E/RP13-RB8)
      (node (ref D6) (pin 1))
      (node (ref U7) (pin 48)))
    (net (code 22) (name "Net-(D6-Pad2)")
      (node (ref R10) (pin 2))
      (node (ref D6) (pin 2)))
    (net (code 23) (name /Sheet5DD7FC8E/RP14-RB9)
      (node (ref D7) (pin 1))
      (node (ref U7) (pin 49)))
    (net (code 24) (name "Net-(D7-Pad2)")
      (node (ref D7) (pin 2))
      (node (ref R11) (pin 2)))
    (net (code 25) (name "Net-(U1-Pad26)")
      (node (ref U1) (pin 26)))
    (net (code 26) (name "Net-(U1-Pad18)")
      (node (ref U1) (pin 18)))
    (net (code 27) (name "Net-(U1-Pad19)")
      (node (ref U1) (pin 19)))
    (net (code 28) (name "Net-(C1-Pad2)")
      (node (ref U1) (pin 2))
      (node (ref C1) (pin 2))
      (node (ref SW1) (pin 2)))
    (net (code 29) (name "Net-(U1-Pad20)")
      (node (ref U1) (pin 20)))
    (net (code 30) (name "Net-(U1-Pad22)")
      (node (ref U1) (pin 22)))
    (net (code 31) (name "Net-(U1-Pad23)")
      (node (ref U1) (pin 23)))
    (net (code 32) (name "Net-(U1-Pad24)")
      (node (ref U1) (pin 24)))
    (net (code 33) (name "Net-(U1-Pad24)")
      (node (ref U1) (pin 24)))
    (net (code 34) (name "Net-(U1-Pad25)")
      (node (ref U1) (pin 25)))
    (net (code 35) (name "Net-(U1-Pad25)")
      (node (ref U1) (pin 25)))
    (net (code 36) (name "Net-(U1-Pad17)")
      (node (ref U1) (pin 17)))
    (net (code 37) (name "Net-(U1-Pad27)")
      (node (ref U1) (pin 27)))
    (net (code 38) (name "Net-(U1-Pad28)")
      (node (ref U1) (pin 28)))
    (net (code 39) (name "Net-(U1-Pad29)")
      (node (ref U1) (pin 29)))
    (net (code 40) (name /XbeeTX)
      (node (ref U1) (pin 3))
      (node (ref J3) (pin 2))
      (node (ref U7) (pin 51)))
    (net (code 41) (name "Net-(U1-Pad30)")
      (node (ref U1) (pin 30)))
    (net (code 42) (name "Net-(U1-Pad31)")
      (node (ref U1) (pin 31)))
    (net (code 43) (name "Net-(U1-Pad33)")
      (node (ref U1) (pin 33)))
    (net (code 44) (name /XbeeRx)
      (node (ref U7) (pin 50))
      (node (ref J3) (pin 3))
      (node (ref U1) (pin 4)))
    (net (code 45) (name "Net-(U1-Pad5)")
      (node (ref U1) (pin 5)))
    (net (code 46) (name /Sheet5DDBFABF/SENSOR3_+)
      (node (ref J2) (pin 6))
      (node (ref U4) (pin 1)))
    (net (code 47) (name "Net-(PS1-Pad3)")
      (node (ref PS1) (pin 3)))
    (net (code 48) (name /5V)
      (node (ref C2) (pin 1))
      (node (ref C3) (pin 1))
      (node (ref PS1) (pin 5))
      (node (ref U2) (pin 7))
      (node (ref U2) (pin 5)))
    (net (code 49) (name /FASE)
      (node (ref PS1) (pin 1))
      (node (ref J1) (pin 1)))
    (net (code 50) (name /NEUTRO)
      (node (ref PS1) (pin 2))
      (node (ref J1) (pin 2)))
    (net (code 51) (name /Sheet5DDBFABF/SENSOR2_+)
      (node (ref J2) (pin 5))
      (node (ref U5) (pin 1)))
    (net (code 52) (name "Net-(U1-Pad11)")
      (node (ref U1) (pin 11)))
    (net (code 53) (name "Net-(U1-Pad13)")
      (node (ref U1) (pin 13)))
    (net (code 54) (name "Net-(U1-Pad14)")
      (node (ref U1) (pin 14)))
    (net (code 55) (name "Net-(U1-Pad15)")
      (node (ref U1) (pin 15)))
    (net (code 56) (name "Net-(U1-Pad16)")
      (node (ref U1) (pin 16)))
    (net (code 57) (name /Sheet5DDBFABF/SENSOR1_+)
      (node (ref J2) (pin 4))
      (node (ref U6) (pin 1)))
    (net (code 58) (name "Net-(U1-Pad7)")
      (node (ref U1) (pin 7)))
    (net (code 59) (name "Net-(U1-Pad6)")
      (node (ref U1) (pin 6)))
    (net (code 60) (name "Net-(U1-Pad8)")
      (node (ref U1) (pin 8)))
    (net (code 61) (name "Net-(U1-Pad9)")
      (node (ref U1) (pin 9)))
    (net (code 62) (name "Net-(J3-Pad4)")
      (node (ref J3) (pin 4)))
    (net (code 63) (name "Net-(J3-Pad5)")
      (node (ref J3) (pin 5)))
    (net (code 64) (name /Sheet5DD7FC8E/RC1)
      (node (ref U7) (pin 20)))
    (net (code 65) (name "Net-(C14-Pad1)")
      (node (ref U7) (pin 56))
      (node (ref C15) (pin 1))
      (node (ref C14) (pin 1)))
    (net (code 66) (name "Net-(C9-Pad1)")
      (node (ref C9) (pin 1))
      (node (ref Y1) (pin 2))
      (node (ref U7) (pin 29)))
    (net (code 67) (name "Net-(C8-Pad1)")
      (node (ref U7) (pin 28))
      (node (ref C8) (pin 1))
      (node (ref Y1) (pin 1)))
    (net (code 68) (name /Sheet5DD7FC8E/PGEC2)
      (node (ref J4) (pin 5))
      (node (ref U7) (pin 11)))
    (net (code 69) (name /Sheet5DD7FC8E/~MCLR)
      (node (ref R7) (pin 1))
      (node (ref J4) (pin 1))
      (node (ref U7) (pin 9)))
    (net (code 70) (name "Net-(C7-Pad1)")
      (node (ref C7) (pin 1))
      (node (ref R6) (pin 2))
      (node (ref R7) (pin 2)))
    (net (code 71) (name /Sheet5DD7FC8E/PGED2)
      (node (ref J4) (pin 4))
      (node (ref U7) (pin 12)))
    (net (code 72) (name /Sheet5DD7FC8E/RD2)
      (node (ref U7) (pin 32)))
    (net (code 73) (name /Sheet5DD7FC8E/RP3-RA2)
      (node (ref U7) (pin 25)))
    (net (code 74) (name /Sheet5DD7FC8E/RP4-RA3)
      (node (ref U7) (pin 26)))
    (net (code 75) (name /Sheet5DD7FC8E/RA8)
      (node (ref U7) (pin 27)))
    (net (code 76) (name /Sheet5DD7FC8E/RP17-RB15)
      (node (ref U7) (pin 3)))
    (net (code 77) (name /Sheet5DD7FC8E/RP24-RA9)
      (node (ref U7) (pin 30)))
    (net (code 78) (name /Sheet5DD7FC8E/RD4)
      (node (ref U7) (pin 31)))
    (net (code 79) (name /Sheet5DD7FC8E/RD3)
      (node (ref U7) (pin 33)))
    (net (code 80) (name /Sheet5DD7FC8E/RD0)
      (node (ref U7) (pin 34)))
    (net (code 81) (name /Sheet5DD7FC8E/RC3)
      (node (ref U7) (pin 35)))
    (net (code 82) (name /Sheet5DD7FC8E/RC4)
      (node (ref U7) (pin 36)))
    (net (code 83) (name /Sheet5DD7FC8E/RC5)
      (node (ref U7) (pin 37)))
    (net (code 84) (name /Sheet5DD7FC8E/RP21-RA7)
      (node (ref U7) (pin 1)))
    (net (code 85) (name /Sheet5DD7FC8E/RA06)
      (node (ref U7) (pin 10)))
    (net (code 86) (name /Sheet5DD7FC8E/RC0)
      (node (ref U7) (pin 19)))
    (net (code 87) (name /Sheet5DD7FC8E/RP16-RB14)
      (node (ref U7) (pin 2)))
    (net (code 88) (name /Sheet5DD7FC8E/RP19-RC2)
      (node (ref U7) (pin 21)))
    (net (code 89) (name /Sheet5DD7FC8E/RC11)
      (node (ref U7) (pin 22)))
    (net (code 90) (name /Sheet5DD7FC8E/RA15)
      (node (ref U7) (pin 58)))
    (net (code 91) (name /Sheet5DD7FC8E/RA14)
      (node (ref U7) (pin 59)))
    (net (code 92) (name /Sheet5DD7FC8E/RB10)
      (node (ref U7) (pin 60)))
    (net (code 93) (name /Sheet5DD7FC8E/RB11)
      (node (ref U7) (pin 61)))
    (net (code 94) (name /Sheet5DD7FC8E/RC12)
      (node (ref U7) (pin 40)))
    (net (code 95) (name /Sheet5DD7FC8E/RP22-RA10)
      (node (ref U7) (pin 64)))
    (net (code 96) (name /Sheet5DD7FC8E/RA5)
      (node (ref U7) (pin 54)))
    (net (code 97) (name /Sheet5DD7FC8E/RP18-RC9)
      (node (ref U7) (pin 55)))
    (net (code 98) (name /Sheet5DD7FC8E/RC14)
      (node (ref U7) (pin 41)))
    (net (code 99) (name /Sheet5DD7FC8E/RC15)
      (node (ref U7) (pin 42)))
    (net (code 100) (name /Sheet5DD7FC8E/RC8)
      (node (ref U7) (pin 52)))
    (net (code 101) (name /Sheet5DD7FC8E/RD1)
      (node (ref U7) (pin 53)))
    (net (code 102) (name "Net-(C4-Pad1)")
      (node (ref U3) (pin 1))
      (node (ref R4) (pin 2))
      (node (ref R5) (pin 1))
      (node (ref C4) (pin 1)))
    (net (code 103) (name "Net-(R12-Pad2)")
      (node (ref R12) (pin 2))
      (node (ref R13) (pin 1))
      (node (ref U2) (pin 4)))
    (net (code 104) (name GND)
      (node (ref U1) (pin 12))
      (node (ref U1) (pin 21))
      (node (ref U1) (pin 10))
      (node (ref C1) (pin 1))
      (node (ref U1) (pin 1))
      (node (ref J3) (pin 6))
      (node (ref R13) (pin 2))
      (node (ref U2) (pin 6))
      (node (ref TP5) (pin 1))
      (node (ref C2) (pin 2))
      (node (ref PS1) (pin 4))
      (node (ref C20) (pin 2))
      (node (ref C3) (pin 2))
      (node (ref U1) (pin 34))
      (node (ref C18) (pin 2))
      (node (ref U1) (pin 32))
      (node (ref U2) (pin 9))
      (node (ref U2) (pin 8))
      (node (ref U6) (pin 2))
      (node (ref C10) (pin 2))
      (node (ref C11) (pin 2))
      (node (ref U7) (pin 24))
      (node (ref U4) (pin 2))
      (node (ref C4) (pin 2))
      (node (ref U7) (pin 18))
      (node (ref J4) (pin 3))
      (node (ref U7) (pin 62))
      (node (ref C14) (pin 2))
      (node (ref U7) (pin 5))
      (node (ref C16) (pin 2))
      (node (ref U7) (pin 38))
      (node (ref U3) (pin 2))
      (node (ref C7) (pin 2))
      (node (ref C13) (pin 2))
      (node (ref C9) (pin 2))
      (node (ref C12) (pin 2))
      (node (ref C15) (pin 2))
      (node (ref C17) (pin 1))
      (node (ref C6) (pin 2))
      (node (ref R5) (pin 2))
      (node (ref U5) (pin 2))
      (node (ref C8) (pin 2)))
    (net (code 105) (name "Net-(C19-Pad2)")
      (node (ref C19) (pin 2))
      (node (ref U2) (pin 2)))
    (net (code 106) (name "Net-(C18-Pad1)")
      (node (ref C18) (pin 1))
      (node (ref U2) (pin 3)))
    (net (code 107) (name "Net-(C19-Pad1)")
      (node (ref C19) (pin 1))
      (node (ref U2) (pin 1))
      (node (ref L1) (pin 1)))))