EESchema Schematic File Version 4
LIBS:NodoZenergy-cache
EELAYER 30 0
EELAYER END
$Descr A4 11693 8268
encoding utf-8
Sheet 1 4
Title ""
Date ""
Rev ""
Comp ""
Comment1 ""
Comment2 ""
Comment3 ""
Comment4 ""
$EndDescr
$Comp
L Converter_ACDC:RAC05-05SK PS1
U 1 1 5DD8193E
P 1625 1025
F 0 "PS1" H 1625 1392 50  0000 C CNN
F 1 "RAC05-05SK" H 1625 1301 50  0000 C CNN
F 2 "Converter_ACDC:Converter_ACDC_RECOM_RAC05-xxSK_THT" H 1625 675 50  0001 C CNN
F 3 "https://www.recom-power.com/pdf/Powerline-AC-DC/RAC05-K.pdf" H 1525 1325 50  0001 C CNN
F 4 "RAC05-05SK" H 1625 1025 50  0001 C CNN "MPN"
	1    1625 1025
	1    0    0    -1  
$EndComp
Text Label 2025 925  0    50   ~ 0
5V
Text Label 2025 1125 0    50   ~ 0
GND
$Comp
L Connector_Generic:Conn_01x02 J1
U 1 1 5DD8378C
P 750 975
F 0 "J1" H 668 1192 50  0000 C CNN
F 1 "Conn_01x02" H 668 1101 50  0000 C CNN
F 2 "Connector_Molex:Molex_Micro-Fit_3.0_43045-0210_2x01-1MP_P3.00mm_Horizontal" H 750 975 50  0001 C CNN
F 3 "~" H 750 975 50  0001 C CNN
	1    750  975 
	-1   0    0    -1  
$EndComp
Wire Wire Line
	950  975  1225 975 
Wire Wire Line
	1225 975  1225 925 
Wire Wire Line
	950  1075 1225 1075
Wire Wire Line
	1225 1075 1225 1125
Text Label 3325 900  2    50   ~ 0
5V
Text Label 4250 900  0    50   ~ 0
3V3
Text Label 3100 2300 2    50   ~ 0
3V3
$Comp
L zembia:Xbee3_SMT U1
U 1 1 5DD8C44F
P 7975 3200
F 0 "U1" H 9475 5387 60  0000 C CNN
F 1 "Xbee3_SMT" H 9475 5281 60  0000 C CNN
F 2 "zembia-footprints:XB3-24Z8CM-J" H 7975 3200 60  0001 C CNN
F 3 "" H 7975 3200 60  0001 C CNN
F 4 "XB3-24Z8CM" H 7975 3200 50  0001 C CNN "MPN"
	1    7975 3200
	1    0    0    -1  
$EndComp
Text Label 10575 1500 0    50   ~ 0
GND
Text Label 10575 1700 0    50   ~ 0
GND
Text Label 10575 3000 0    50   ~ 0
GND
Text Label 8375 3000 2    50   ~ 0
GND
Text Label 8375 2800 2    50   ~ 0
GND
Text Label 8375 1900 2    50   ~ 0
GND
$Comp
L Connector_Generic:Conn_01x06 J3
U 1 1 5DD8F912
P 6350 2100
F 0 "J3" H 6268 2517 50  0000 C CNN
F 1 "Conn_01x06" H 6268 2426 50  0000 C CNN
F 2 "Connector_JST:JST_PH_B6B-PH-SM4-TB_1x06-1MP_P2.00mm_Vertical" H 6350 2100 50  0001 C CNN
F 3 "~" H 6350 2100 50  0001 C CNN
F 4 "1775470-6" H 6350 2100 50  0001 C CNN "MPN"
	1    6350 2100
	-1   0    0    -1  
$EndComp
Text Label 6550 2400 0    50   ~ 0
GND
Wire Wire Line
	7975 2000 7975 2100
Wire Wire Line
	7975 2100 8375 2100
Wire Wire Line
	7900 2100 7900 2200
Wire Wire Line
	7900 2200 8375 2200
Wire Wire Line
	8025 1900 8025 2000
Wire Wire Line
	8025 2000 8375 2000
Text Label 6550 1700 1    50   ~ 0
3V3
$Comp
L Device:C C1
U 1 1 5DD91ABC
P 7850 1750
F 0 "C1" H 7965 1796 50  0000 L CNN
F 1 "1uF" H 7965 1705 50  0000 L CNN
F 2 "Capacitor_SMD:C_0603_1608Metric" H 7888 1600 50  0001 C CNN
F 3 "~" H 7850 1750 50  0001 C CNN
F 4 "LMK107B7105KA-T" H 7850 1750 50  0001 C CNN "MPN"
	1    7850 1750
	1    0    0    -1  
$EndComp
Connection ~ 7850 1900
Wire Wire Line
	7850 1900 8025 1900
Wire Wire Line
	7850 1600 8375 1600
Wire Wire Line
	8375 1600 8375 1900
$Sheet
S 1625 2525 1475 1000
U 5DDBFAC0
F0 "Sheet5DDBFABF" 50
F1 "SingleSupplyOpAmp.sch" 50
F2 "VCC-" I L 1625 3425 50 
F3 "VCC+" I L 1625 2575 50 
F4 "SENSOR1_+" I L 1625 3075 50 
F5 "SENSOR1_-" I L 1625 2775 50 
F6 "SENSOR2_+" I L 1625 3175 50 
F7 "SENSOR2_-" I L 1625 2875 50 
F8 "SENSOR3_+" I L 1625 3275 50 
F9 "SENSOR3_-" I L 1625 2975 50 
F10 "Toroid1_ADC" O R 3100 2800 50 
F11 "Toroid2_ADC" O R 3100 2875 50 
F12 "Toroid3_ADC" O R 3100 2950 50 
F13 "VGND" I R 3100 3025 50 
$EndSheet
$Comp
L Connector_Generic:Conn_01x06 J2
U 1 1 5DE17EFB
P 1425 2975
F 0 "J2" H 1343 3392 50  0000 C CNN
F 1 "Conn_01x06" H 1343 3301 50  0000 C CNN
F 2 "Connector_Molex:Molex_Micro-Fit_3.0_43045-0610_2x03-1MP_P3.00mm_Horizontal" H 1425 2975 50  0001 C CNN
F 3 "~" H 1425 2975 50  0001 C CNN
	1    1425 2975
	-1   0    0    -1  
$EndComp
Text Label 1625 2575 1    50   ~ 0
3V3
Text Label 1625 3425 3    50   ~ 0
GND
$Sheet
S 3100 2200 1600 4250
U 5DD7FC8F
F0 "Sheet5DD7FC8E" 50
F1 "PIC32MM.sch" 50
F2 "VDD" I L 3100 2300 50 
F3 "RA13" B L 3100 2950 50 
F4 "RA12" B L 3100 2875 50 
F5 "RA11" B L 3100 2800 50 
F6 "RP15-RB13" B L 3100 3025 50 
F7 "RP11-RB5" B R 4700 2525 50 
F8 "RB6" B R 4700 2850 50 
F9 "RC10" B R 4700 3150 50 
F10 "RP12-RB7" B R 4700 3475 50 
F11 "RC13" B R 4700 3800 50 
F12 "RP13-RB8" B R 4700 4125 50 
F13 "RP14-RB9" B R 4700 4425 50 
F14 "RP23-RC6" B R 4700 4925 50 
F15 "RP20-RC7" B R 4700 5125 50 
F16 "RA06-RB0" B R 4700 5500 50 
F17 "RP7-RB1" B R 4700 5600 50 
F18 "RP8-RB2" B R 4700 5700 50 
F19 "RP9-RB3" B R 4700 5800 50 
$EndSheet
$Sheet
S 3325 800  925  250 
U 5DE37547
F0 "Sheet5DE37546" 50
F1 "3V3_Regulator.sch" 50
F2 "PWR_IN" I L 3325 900 50 
F3 "PWR_OUT" O R 4250 900 50 
$EndSheet
Text GLabel 5475 7475 0    60   Input ~ 0
GND
Wire Wire Line
	5475 7475 6100 7475
Text Label 6100 7475 0    60   ~ 0
GND
$Comp
L Device:LED D1
U 1 1 5DE43607
P 5075 2525
F 0 "D1" H 5068 2741 50  0000 C CNN
F 1 "LED" H 5068 2650 50  0000 C CNN
F 2 "LED_SMD:LED_0805_2012Metric" H 5075 2525 50  0001 C CNN
F 3 "~" H 5075 2525 50  0001 C CNN
F 4 "749-SM0805UYC" H 5075 2525 50  0001 C CNN "MPN"
	1    5075 2525
	1    0    0    -1  
$EndComp
$Comp
L Device:R R1
U 1 1 5DE43BE4
P 5375 2525
F 0 "R1" V 5168 2525 50  0000 C CNN
F 1 "120" V 5259 2525 50  0000 C CNN
F 2 "Resistor_SMD:R_0603_1608Metric" V 5305 2525 50  0001 C CNN
F 3 "~" H 5375 2525 50  0001 C CNN
F 4 "CR0603-JW-121ELF" V 5375 2525 50  0001 C CNN "MPN"
	1    5375 2525
	0    1    1    0   
$EndComp
Text Label 5525 2525 0    50   ~ 0
3V3
$Comp
L Device:R R2
U 1 1 5DE46F45
P 5375 2850
F 0 "R2" V 5168 2850 50  0000 C CNN
F 1 "120" V 5259 2850 50  0000 C CNN
F 2 "Resistor_SMD:R_0603_1608Metric" V 5305 2850 50  0001 C CNN
F 3 "~" H 5375 2850 50  0001 C CNN
F 4 "CR0603-JW-121ELF" V 5375 2850 50  0001 C CNN "MPN"
	1    5375 2850
	0    1    1    0   
$EndComp
Text Label 5525 2850 0    50   ~ 0
3V3
$Comp
L Device:LED D3
U 1 1 5DE48FB5
P 5075 3150
F 0 "D3" H 5068 3366 50  0000 C CNN
F 1 "LED" H 5068 3275 50  0000 C CNN
F 2 "LED_SMD:LED_0805_2012Metric" H 5075 3150 50  0001 C CNN
F 3 "~" H 5075 3150 50  0001 C CNN
F 4 "749-SM0805UYC" H 5075 3150 50  0001 C CNN "MPN"
	1    5075 3150
	1    0    0    -1  
$EndComp
$Comp
L Device:R R3
U 1 1 5DE48FC0
P 5375 3150
F 0 "R3" V 5168 3150 50  0000 C CNN
F 1 "120" V 5259 3150 50  0000 C CNN
F 2 "Resistor_SMD:R_0603_1608Metric" V 5305 3150 50  0001 C CNN
F 3 "~" H 5375 3150 50  0001 C CNN
F 4 "CR0603-JW-121ELF" V 5375 3150 50  0001 C CNN "MPN"
	1    5375 3150
	0    1    1    0   
$EndComp
Text Label 5525 3150 0    50   ~ 0
3V3
$Comp
L Device:LED D4
U 1 1 5DE48FCC
P 5075 3475
F 0 "D4" H 5068 3691 50  0000 C CNN
F 1 "LED" H 5068 3600 50  0000 C CNN
F 2 "LED_SMD:LED_0805_2012Metric" H 5075 3475 50  0001 C CNN
F 3 "~" H 5075 3475 50  0001 C CNN
F 4 "749-SM0805UYC" H 5075 3475 50  0001 C CNN "MPN"
	1    5075 3475
	1    0    0    -1  
$EndComp
$Comp
L Device:R R8
U 1 1 5DE48FD7
P 5375 3475
F 0 "R8" V 5168 3475 50  0000 C CNN
F 1 "120" V 5259 3475 50  0000 C CNN
F 2 "Resistor_SMD:R_0603_1608Metric" V 5305 3475 50  0001 C CNN
F 3 "~" H 5375 3475 50  0001 C CNN
F 4 "CR0603-JW-121ELF" V 5375 3475 50  0001 C CNN "MPN"
	1    5375 3475
	0    1    1    0   
$EndComp
Text Label 5525 3475 0    50   ~ 0
3V3
$Comp
L Device:LED D5
U 1 1 5DE4CAD5
P 5075 3800
F 0 "D5" H 5068 4016 50  0000 C CNN
F 1 "LED" H 5068 3925 50  0000 C CNN
F 2 "LED_SMD:LED_0805_2012Metric" H 5075 3800 50  0001 C CNN
F 3 "~" H 5075 3800 50  0001 C CNN
F 4 "749-SM0805UYC" H 5075 3800 50  0001 C CNN "MPN"
	1    5075 3800
	1    0    0    -1  
$EndComp
$Comp
L Device:R R9
U 1 1 5DE4CAE0
P 5375 3800
F 0 "R9" V 5168 3800 50  0000 C CNN
F 1 "120" V 5259 3800 50  0000 C CNN
F 2 "Resistor_SMD:R_0603_1608Metric" V 5305 3800 50  0001 C CNN
F 3 "~" H 5375 3800 50  0001 C CNN
F 4 "CR0603-JW-121ELF" V 5375 3800 50  0001 C CNN "MPN"
	1    5375 3800
	0    1    1    0   
$EndComp
Text Label 5525 3800 0    50   ~ 0
3V3
$Comp
L Device:LED D6
U 1 1 5DE4CAEC
P 5075 4125
F 0 "D6" H 5068 4341 50  0000 C CNN
F 1 "LED" H 5068 4250 50  0000 C CNN
F 2 "LED_SMD:LED_0805_2012Metric" H 5075 4125 50  0001 C CNN
F 3 "~" H 5075 4125 50  0001 C CNN
F 4 "749-SM0805UYC" H 5075 4125 50  0001 C CNN "MPN"
	1    5075 4125
	1    0    0    -1  
$EndComp
$Comp
L Device:R R10
U 1 1 5DE4CAF7
P 5375 4125
F 0 "R10" V 5168 4125 50  0000 C CNN
F 1 "120" V 5259 4125 50  0000 C CNN
F 2 "Resistor_SMD:R_0603_1608Metric" V 5305 4125 50  0001 C CNN
F 3 "~" H 5375 4125 50  0001 C CNN
F 4 "CR0603-JW-121ELF" V 5375 4125 50  0001 C CNN "MPN"
	1    5375 4125
	0    1    1    0   
$EndComp
Text Label 5525 4125 0    50   ~ 0
3V3
$Comp
L Device:LED D7
U 1 1 5DE4CB03
P 5075 4425
F 0 "D7" H 5068 4641 50  0000 C CNN
F 1 "LED" H 5068 4550 50  0000 C CNN
F 2 "LED_SMD:LED_0805_2012Metric" H 5075 4425 50  0001 C CNN
F 3 "~" H 5075 4425 50  0001 C CNN
F 4 "749-SM0805UYC" H 5075 4425 50  0001 C CNN "MPN"
	1    5075 4425
	1    0    0    -1  
$EndComp
$Comp
L Device:R R11
U 1 1 5DE4CB0E
P 5375 4425
F 0 "R11" V 5168 4425 50  0000 C CNN
F 1 "120" V 5259 4425 50  0000 C CNN
F 2 "Resistor_SMD:R_0603_1608Metric" V 5305 4425 50  0001 C CNN
F 3 "~" H 5375 4425 50  0001 C CNN
F 4 "CR0603-JW-121ELF" V 5375 4425 50  0001 C CNN "MPN"
	1    5375 4425
	0    1    1    0   
$EndComp
Text Label 5525 4425 0    50   ~ 0
3V3
Wire Wire Line
	4700 2525 4925 2525
$Comp
L Device:LED D2
U 1 1 5DE46F3A
P 5075 2850
F 0 "D2" H 5068 3066 50  0000 C CNN
F 1 "LED" H 5068 2975 50  0000 C CNN
F 2 "LED_SMD:LED_0805_2012Metric" H 5075 2850 50  0001 C CNN
F 3 "~" H 5075 2850 50  0001 C CNN
F 4 "749-SM0805UYC" H 5075 2850 50  0001 C CNN "MPN"
	1    5075 2850
	1    0    0    -1  
$EndComp
Wire Wire Line
	4925 2850 4700 2850
Wire Wire Line
	4700 3150 4925 3150
Wire Wire Line
	4925 3475 4700 3475
Wire Wire Line
	4700 3800 4925 3800
Wire Wire Line
	4700 4125 4925 4125
Wire Wire Line
	4925 4425 4700 4425
Wire Wire Line
	4700 4925 4975 4925
Text Label 4975 5125 0    50   ~ 0
XbeeTX
Text Label 4975 4925 0    50   ~ 0
XbeeRx
Wire Wire Line
	4975 5125 4700 5125
Text Label 8000 2200 0    50   ~ 0
XbeeRx
Text Label 8025 2100 0    50   ~ 0
XbeeTX
Text Label 975  975  0    50   ~ 0
FASE
Text Label 975  1075 0    50   ~ 0
NEUTRO
$Comp
L Switch:SW_SPDT SW1
U 1 1 5DDD89EB
P 6750 1800
F 0 "SW1" H 6750 1475 50  0000 C CNN
F 1 "SW_SPDT" H 6750 1566 50  0000 C CNN
F 2 "zembia-footprints:1825232-1" H 6750 1800 50  0001 C CNN
F 3 "~" H 6750 1800 50  0001 C CNN
F 4 "1825232-1" H 6750 1800 50  0001 C CNN "MPN"
	1    6750 1800
	-1   0    0    1   
$EndComp
Wire Wire Line
	6950 1800 7150 1800
Wire Wire Line
	7150 1800 7150 1900
Wire Wire Line
	7150 1900 7850 1900
Wire Wire Line
	6550 2000 7975 2000
Wire Wire Line
	6550 2100 7900 2100
$Comp
L Connector:TestPoint TP1
U 1 1 5DDEDB03
P 5000 5500
F 0 "TP1" H 5058 5618 50  0000 L CNN
F 1 "TestPoint" H 5058 5527 50  0000 L CNN
F 2 "TestPoint:TestPoint_Pad_D1.0mm" H 5200 5500 50  0001 C CNN
F 3 "~" H 5200 5500 50  0001 C CNN
	1    5000 5500
	1    0    0    -1  
$EndComp
$Comp
L Connector:TestPoint TP2
U 1 1 5DDEE1BD
P 5525 5600
F 0 "TP2" H 5583 5718 50  0000 L CNN
F 1 "TestPoint" H 5583 5627 50  0000 L CNN
F 2 "TestPoint:TestPoint_Pad_D1.0mm" H 5725 5600 50  0001 C CNN
F 3 "~" H 5725 5600 50  0001 C CNN
	1    5525 5600
	1    0    0    -1  
$EndComp
Wire Wire Line
	4700 5500 5000 5500
Wire Wire Line
	5525 5600 4700 5600
Wire Wire Line
	4700 5700 6025 5700
$Comp
L Connector:TestPoint TP3
U 1 1 5DDF02AF
P 6025 5700
F 0 "TP3" H 6083 5818 50  0000 L CNN
F 1 "TestPoint" H 6083 5727 50  0000 L CNN
F 2 "TestPoint:TestPoint_Pad_D1.0mm" H 6225 5700 50  0001 C CNN
F 3 "~" H 6225 5700 50  0001 C CNN
	1    6025 5700
	1    0    0    -1  
$EndComp
$Comp
L Connector:TestPoint TP4
U 1 1 5DDF05D4
P 6475 5800
F 0 "TP4" H 6533 5918 50  0000 L CNN
F 1 "TestPoint" H 6533 5827 50  0000 L CNN
F 2 "TestPoint:TestPoint_Pad_D1.0mm" H 6675 5800 50  0001 C CNN
F 3 "~" H 6675 5800 50  0001 C CNN
	1    6475 5800
	1    0    0    -1  
$EndComp
Wire Wire Line
	4700 5800 6475 5800
$Comp
L Connector:TestPoint TP5
U 1 1 5DDFAAD3
P 6300 6200
F 0 "TP5" H 6358 6318 50  0000 L CNN
F 1 "TestPoint" H 6358 6227 50  0000 L CNN
F 2 "TestPoint:TestPoint_Pad_D1.0mm" H 6500 6200 50  0001 C CNN
F 3 "~" H 6500 6200 50  0001 C CNN
	1    6300 6200
	1    0    0    -1  
$EndComp
Text Label 6300 6200 2    50   ~ 0
GND
$EndSCHEMATC
