EESchema Schematic File Version 4
LIBS:NodoZenergy-cache
EELAYER 30 0
EELAYER END
$Descr A4 11693 8268
encoding utf-8
Sheet 3 4
Title ""
Date ""
Rev ""
Comp ""
Comment1 ""
Comment2 ""
Comment3 ""
Comment4 ""
$EndDescr
$Comp
L zembia:PIC32MM0256GPM064-IPT U3
U 1 1 5DBE27CC
P 3850 1325
AR Path="/5DBE27CC" Ref="U3"  Part="1" 
AR Path="/5DBD7123/5DBE27CC" Ref="U3"  Part="1" 
AR Path="/5DC5C5A2/5DBE27CC" Ref="U?"  Part="1" 
AR Path="/5DCFA2DC/5DD04FCD/5DBE27CC" Ref="U?"  Part="1" 
AR Path="/5DD2FC0D/5DBE27CC" Ref="U5"  Part="1" 
AR Path="/5DD7FC8F/5DBE27CC" Ref="U7"  Part="1" 
F 0 "U7" H 4800 1440 50  0000 C CNN
F 1 "PIC32MM0256GPM064-IPT" H 4800 1349 50  0000 C CNN
F 2 "Package_QFP:TQFP-64_10x10mm_P0.5mm" H 3850 1325 50  0001 C CNN
F 3 "" H 3850 1325 50  0001 C CNN
F 4 "PIC32MM0256GPM064-I/PT" H 3850 1325 50  0001 C CNN "MPN"
	1    3850 1325
	1    0    0    -1  
$EndComp
$Comp
L Connector_Generic:Conn_01x05 J?
U 1 1 5DBE27D3
P 2625 1125
AR Path="/5DC5C5A2/5DBE27D3" Ref="J?"  Part="1" 
AR Path="/5DCFA2DC/5DD04FCD/5DBE27D3" Ref="J?"  Part="1" 
AR Path="/5DD2FC0D/5DBE27D3" Ref="J8"  Part="1" 
AR Path="/5DD7FC8F/5DBE27D3" Ref="J4"  Part="1" 
F 0 "J4" V 2589 837 50  0000 R CNN
F 1 "Conn_01x05" V 2498 837 50  0000 R CNN
F 2 "Connector_JST:JST_PH_B5B-PH-SM4-TB_1x05-1MP_P2.00mm_Vertical" H 2625 1125 50  0001 C CNN
F 3 "~" H 2625 1125 50  0001 C CNN
F 4 "620305124022" H 2625 1125 50  0001 C CNN "MPN"
	1    2625 1125
	0    -1   -1   0   
$EndComp
Wire Wire Line
	2525 1325 2525 1675
Wire Wire Line
	2625 1325 2625 1675
Wire Wire Line
	2725 1325 2725 1675
Wire Wire Line
	2825 1325 2825 1675
Wire Wire Line
	3850 3175 3350 3175
Wire Wire Line
	3850 3025 3350 3025
Text Label 3350 3175 0    50   ~ 0
PGED2
Text Label 3350 3025 0    50   ~ 0
PGEC2
Text Label 2825 1675 1    50   ~ 0
PGEC2
Text Label 2725 1675 1    50   ~ 0
PGED2
Text Label 2625 1675 1    50   ~ 0
GND
Text Label 2525 1675 1    50   ~ 0
VDD
$Comp
L Device:R R?
U 1 1 5DBE27E5
P 2875 2725
AR Path="/5DC5C5A2/5DBE27E5" Ref="R?"  Part="1" 
AR Path="/5DCFA2DC/5DD04FCD/5DBE27E5" Ref="R?"  Part="1" 
AR Path="/5DD2FC0D/5DBE27E5" Ref="R11"  Part="1" 
AR Path="/5DD7FC8F/5DBE27E5" Ref="R7"  Part="1" 
F 0 "R7" V 2668 2725 50  0000 C CNN
F 1 "1k" V 2759 2725 50  0000 C CNN
F 2 "Resistor_SMD:R_0603_1608Metric" V 2805 2725 50  0001 C CNN
F 3 "~" H 2875 2725 50  0001 C CNN
F 4 "CR0603-JW-102ELF" V 2875 2725 50  0001 C CNN "MPN"
	1    2875 2725
	0    1    1    0   
$EndComp
Wire Wire Line
	3850 2725 3025 2725
Text Label 3375 2725 0    50   ~ 0
~MCLR
Text Label 2425 1650 1    50   ~ 0
~MCLR
Wire Wire Line
	2425 1650 2425 1325
Wire Wire Line
	2525 2725 2725 2725
Wire Wire Line
	2525 2425 2525 2325
Text Label 2525 2325 3    50   ~ 0
VDD
$Comp
L Device:C C1
U 1 1 5DBE27F9
P 2525 2900
AR Path="/5DBE27F9" Ref="C1"  Part="1" 
AR Path="/5DBD7123/5DBE27F9" Ref="C1"  Part="1" 
AR Path="/5DC5C5A2/5DBE27F9" Ref="C?"  Part="1" 
AR Path="/5DCFA2DC/5DD04FCD/5DBE27F9" Ref="C?"  Part="1" 
AR Path="/5DD2FC0D/5DBE27F9" Ref="C9"  Part="1" 
AR Path="/5DD7FC8F/5DBE27F9" Ref="C7"  Part="1" 
F 0 "C7" H 2640 2946 50  0000 L CNN
F 1 "0.1uF" H 2640 2855 50  0000 L CNN
F 2 "Capacitor_SMD:C_0603_1608Metric" H 2563 2750 50  0001 C CNN
F 3 "~" H 2525 2900 50  0001 C CNN
F 4 "C0603C104M4RAC7411" H 2525 2900 50  0001 C CNN "MPN"
	1    2525 2900
	1    0    0    -1  
$EndComp
Wire Wire Line
	2525 2750 2525 2725
Wire Wire Line
	2525 3050 2525 3100
Text Label 2525 3100 0    50   ~ 0
GND
Text Label 7075 1275 0    50   ~ 0
GND
Text GLabel 7675 1275 2    50   Input ~ 0
GND
Wire Wire Line
	7075 1275 7675 1275
$Comp
L Device:C C4
U 1 1 5DBE2807
P 3225 2050
AR Path="/5DBE2807" Ref="C4"  Part="1" 
AR Path="/5DBD7123/5DBE2807" Ref="C4"  Part="1" 
AR Path="/5DC5C5A2/5DBE2807" Ref="C?"  Part="1" 
AR Path="/5DCFA2DC/5DD04FCD/5DBE2807" Ref="C?"  Part="1" 
AR Path="/5DD2FC0D/5DBE2807" Ref="C12"  Part="1" 
AR Path="/5DD7FC8F/5DBE2807" Ref="C10"  Part="1" 
F 0 "C10" H 3340 2096 50  0000 L CNN
F 1 "0.1uF" H 3340 2005 50  0000 L CNN
F 2 "Capacitor_SMD:C_0603_1608Metric" H 3263 1900 50  0001 C CNN
F 3 "~" H 3225 2050 50  0001 C CNN
F 4 "C0603C104M4RAC7411" H 3225 2050 50  0001 C CNN "MPN"
	1    3225 2050
	1    0    0    -1  
$EndComp
$Comp
L Device:C C5
U 1 1 5DBE2816
P 3400 3975
AR Path="/5DBE2816" Ref="C5"  Part="1" 
AR Path="/5DBD7123/5DBE2816" Ref="C5"  Part="1" 
AR Path="/5DC5C5A2/5DBE2816" Ref="C?"  Part="1" 
AR Path="/5DCFA2DC/5DD04FCD/5DBE2816" Ref="C?"  Part="1" 
AR Path="/5DD2FC0D/5DBE2816" Ref="C13"  Part="1" 
AR Path="/5DD7FC8F/5DBE2816" Ref="C11"  Part="1" 
F 0 "C11" H 3515 4021 50  0000 L CNN
F 1 "0.1uF" H 3515 3930 50  0000 L CNN
F 2 "Capacitor_SMD:C_0603_1608Metric" H 3438 3825 50  0001 C CNN
F 3 "~" H 3400 3975 50  0001 C CNN
F 4 "C0603C104M4RAC7411" H 3400 3975 50  0001 C CNN "MPN"
	1    3400 3975
	1    0    0    -1  
$EndComp
Wire Wire Line
	3400 3825 3625 3825
Wire Wire Line
	3625 3825 3625 3925
Wire Wire Line
	3625 3925 3850 3925
Wire Wire Line
	3850 4075 3625 4075
Wire Wire Line
	3625 4075 3625 4125
Wire Wire Line
	3625 4125 3400 4125
$Comp
L Device:C C6
U 1 1 5DBE2823
P 3425 4900
AR Path="/5DBE2823" Ref="C6"  Part="1" 
AR Path="/5DBD7123/5DBE2823" Ref="C6"  Part="1" 
AR Path="/5DC5C5A2/5DBE2823" Ref="C?"  Part="1" 
AR Path="/5DCFA2DC/5DD04FCD/5DBE2823" Ref="C?"  Part="1" 
AR Path="/5DD2FC0D/5DBE2823" Ref="C14"  Part="1" 
AR Path="/5DD7FC8F/5DBE2823" Ref="C12"  Part="1" 
F 0 "C12" H 3540 4946 50  0000 L CNN
F 1 "0.1uF" H 3540 4855 50  0000 L CNN
F 2 "Capacitor_SMD:C_0603_1608Metric" H 3463 4750 50  0001 C CNN
F 3 "~" H 3425 4900 50  0001 C CNN
F 4 "C0603C104M4RAC7411" H 3425 4900 50  0001 C CNN "MPN"
	1    3425 4900
	1    0    0    -1  
$EndComp
Wire Wire Line
	3425 4750 3700 4750
Wire Wire Line
	3700 4750 3700 4825
Wire Wire Line
	3700 4825 3850 4825
Wire Wire Line
	3850 4975 3700 4975
Wire Wire Line
	3700 4975 3700 5050
Wire Wire Line
	3700 5050 3425 5050
Wire Wire Line
	6225 5200 6025 5200
Wire Wire Line
	6025 5200 6025 5275
Wire Wire Line
	6025 5275 5750 5275
Wire Wire Line
	5750 5425 6025 5425
Wire Wire Line
	6025 5425 6025 5500
Wire Wire Line
	6025 5500 6225 5500
$Comp
L Device:C C?
U 1 1 5DBE2847
P 6950 2875
AR Path="/5DBE2847" Ref="C?"  Part="1" 
AR Path="/5DBD7123/5DBE2847" Ref="C9"  Part="1" 
AR Path="/5DC5C5A2/5DBE2847" Ref="C?"  Part="1" 
AR Path="/5DCFA2DC/5DD04FCD/5DBE2847" Ref="C?"  Part="1" 
AR Path="/5DD2FC0D/5DBE2847" Ref="C17"  Part="1" 
AR Path="/5DD7FC8F/5DBE2847" Ref="C15"  Part="1" 
F 0 "C15" H 7065 2921 50  0000 L CNN
F 1 "0.1uF" H 7065 2830 50  0000 L CNN
F 2 "Capacitor_SMD:C_0603_1608Metric" H 6988 2725 50  0001 C CNN
F 3 "~" H 6950 2875 50  0001 C CNN
F 4 "C0603C104M4RAC7411" H 6950 2875 50  0001 C CNN "MPN"
	1    6950 2875
	1    0    0    -1  
$EndComp
Text Label 6775 3025 2    50   ~ 0
GND
$Comp
L Device:C C?
U 1 1 5DBE2850
P 7100 2575
AR Path="/5DBE2850" Ref="C?"  Part="1" 
AR Path="/5DBD7123/5DBE2850" Ref="C11"  Part="1" 
AR Path="/5DC5C5A2/5DBE2850" Ref="C?"  Part="1" 
AR Path="/5DCFA2DC/5DD04FCD/5DBE2850" Ref="C?"  Part="1" 
AR Path="/5DD2FC0D/5DBE2850" Ref="C19"  Part="1" 
AR Path="/5DD7FC8F/5DBE2850" Ref="C17"  Part="1" 
F 0 "C17" V 6848 2575 50  0000 C CNN
F 1 "0.1uF" V 6939 2575 50  0000 C CNN
F 2 "Capacitor_SMD:C_0603_1608Metric" H 7138 2425 50  0001 C CNN
F 3 "~" H 7100 2575 50  0001 C CNN
F 4 "C0603C104M4RAC7411" H 7100 2575 50  0001 C CNN "MPN"
	1    7100 2575
	0    1    1    0   
$EndComp
Wire Wire Line
	5750 2575 6950 2575
Wire Wire Line
	7250 2575 7375 2575
Wire Wire Line
	7375 2575 7375 3025
$Comp
L Device:Crystal_Small Y?
U 1 1 5DBE285C
P 3175 5675
AR Path="/5DC5C5A2/5DBE285C" Ref="Y?"  Part="1" 
AR Path="/5DCFA2DC/5DD04FCD/5DBE285C" Ref="Y?"  Part="1" 
AR Path="/5DD2FC0D/5DBE285C" Ref="Y1"  Part="1" 
AR Path="/5DD7FC8F/5DBE285C" Ref="Y1"  Part="1" 
F 0 "Y1" V 3129 5763 50  0000 L CNN
F 1 "32.768 kHz" V 3220 5763 50  0000 L CNN
F 2 "Crystal:Crystal_SMD_3215-2Pin_3.2x1.5mm" H 3175 5675 50  0001 C CNN
F 3 "~" H 3175 5675 50  0001 C CNN
F 4 "ABS07AIG-32.768KHZ-6-1-T" V 3175 5675 50  0001 C CNN "MPN"
	1    3175 5675
	0    1    1    0   
$EndComp
Wire Wire Line
	3850 5725 3350 5725
Wire Wire Line
	3350 5725 3350 5775
$Comp
L Device:C C2
U 1 1 5DBE2867
P 2750 5575
AR Path="/5DBE2867" Ref="C2"  Part="1" 
AR Path="/5DBD7123/5DBE2867" Ref="C2"  Part="1" 
AR Path="/5DC5C5A2/5DBE2867" Ref="C?"  Part="1" 
AR Path="/5DCFA2DC/5DD04FCD/5DBE2867" Ref="C?"  Part="1" 
AR Path="/5DD2FC0D/5DBE2867" Ref="C10"  Part="1" 
AR Path="/5DD7FC8F/5DBE2867" Ref="C8"  Part="1" 
F 0 "C8" V 2498 5575 50  0000 C CNN
F 1 "22pF" V 2589 5575 50  0000 C CNN
F 2 "Capacitor_SMD:C_0603_1608Metric" H 2788 5425 50  0001 C CNN
F 3 "~" H 2750 5575 50  0001 C CNN
F 4 "CC0603JRNPO9BN220" H 2750 5575 50  0001 C CNN "MPN"
	1    2750 5575
	0    1    1    0   
$EndComp
$Comp
L Device:C C3
U 1 1 5DBE2870
P 2750 5775
AR Path="/5DBE2870" Ref="C3"  Part="1" 
AR Path="/5DBD7123/5DBE2870" Ref="C3"  Part="1" 
AR Path="/5DC5C5A2/5DBE2870" Ref="C?"  Part="1" 
AR Path="/5DCFA2DC/5DD04FCD/5DBE2870" Ref="C?"  Part="1" 
AR Path="/5DD2FC0D/5DBE2870" Ref="C11"  Part="1" 
AR Path="/5DD7FC8F/5DBE2870" Ref="C9"  Part="1" 
F 0 "C9" V 2498 5775 50  0000 C CNN
F 1 "22pF" V 2589 5775 50  0000 C CNN
F 2 "Capacitor_SMD:C_0603_1608Metric" H 2788 5625 50  0001 C CNN
F 3 "~" H 2750 5775 50  0001 C CNN
F 4 "CC0603JRNPO9BN220" H 2750 5775 50  0001 C CNN "MPN"
	1    2750 5775
	0    1    1    0   
$EndComp
Wire Wire Line
	2600 5775 2600 5575
Text Label 2600 5725 1    50   ~ 0
GND
Text Label 7050 1500 0    50   ~ 0
VDD
Text Label 7050 1800 0    50   ~ 0
GND
$Comp
L Device:C C7
U 1 1 5DBE2830
P 6225 5350
AR Path="/5DBE2830" Ref="C7"  Part="1" 
AR Path="/5DBD7123/5DBE2830" Ref="C7"  Part="1" 
AR Path="/5DC5C5A2/5DBE2830" Ref="C?"  Part="1" 
AR Path="/5DCFA2DC/5DD04FCD/5DBE2830" Ref="C?"  Part="1" 
AR Path="/5DD2FC0D/5DBE2830" Ref="C15"  Part="1" 
AR Path="/5DD7FC8F/5DBE2830" Ref="C13"  Part="1" 
F 0 "C13" H 6340 5396 50  0000 L CNN
F 1 "0.1uF" H 6340 5305 50  0000 L CNN
F 2 "Capacitor_SMD:C_0603_1608Metric" H 6263 5200 50  0001 C CNN
F 3 "~" H 6225 5350 50  0001 C CNN
F 4 "C0603C104M4RAC7411" H 6225 5350 50  0001 C CNN "MPN"
	1    6225 5350
	1    0    0    -1  
$EndComp
Text Label 3400 3825 2    50   ~ 0
VDD
Text Label 3425 4750 2    50   ~ 0
VDD
Text Label 6225 5200 2    50   ~ 0
VDD
Text Label 6875 2575 2    50   ~ 0
VDD
Text Label 3400 4125 2    50   ~ 0
GND
Text Label 6225 5500 2    50   ~ 0
GND
Wire Wire Line
	5750 1825 5850 1825
Text Label 5850 1825 0    50   ~ 0
GND
Text Label 3425 5050 2    50   ~ 0
GND
Wire Wire Line
	6375 3025 6950 3025
Wire Wire Line
	2900 5575 3175 5575
Wire Wire Line
	2900 5775 3175 5775
$Comp
L Device:R R?
U 1 1 5DBE27EF
P 2525 2575
AR Path="/5DC5C5A2/5DBE27EF" Ref="R?"  Part="1" 
AR Path="/5DCFA2DC/5DD04FCD/5DBE27EF" Ref="R?"  Part="1" 
AR Path="/5DD2FC0D/5DBE27EF" Ref="R10"  Part="1" 
AR Path="/5DD7FC8F/5DBE27EF" Ref="R6"  Part="1" 
F 0 "R6" H 2595 2621 50  0000 L CNN
F 1 "10k" H 2595 2530 50  0000 L CNN
F 2 "Resistor_SMD:R_0603_1608Metric" V 2455 2575 50  0001 C CNN
F 3 "~" H 2525 2575 50  0001 C CNN
F 4 "CR0603-JW-103ELF" H 2525 2575 50  0001 C CNN "MPN"
	1    2525 2575
	1    0    0    -1  
$EndComp
Connection ~ 3175 5575
Wire Wire Line
	3175 5575 3850 5575
Connection ~ 3175 5775
Wire Wire Line
	3175 5775 3350 5775
Connection ~ 6950 3025
Wire Wire Line
	6950 3025 7375 3025
Text HLabel 3850 1525 0    50   BiDi ~ 0
RP21-RA7
Text HLabel 3850 1675 0    50   BiDi ~ 0
RP16-RB14
Text HLabel 3850 1825 0    50   BiDi ~ 0
RP17-RB15
Text Label 3225 2200 2    50   ~ 0
GND
Wire Wire Line
	3225 2200 3550 2200
Wire Wire Line
	3550 2200 3550 2125
Wire Wire Line
	3550 2125 3850 2125
Wire Wire Line
	3275 1975 3275 1900
Wire Wire Line
	3275 1900 3225 1900
Text HLabel 3850 2275 0    50   BiDi ~ 0
RA13
Text HLabel 3850 2425 0    50   BiDi ~ 0
RA12
Text HLabel 3850 2575 0    50   BiDi ~ 0
RA11
Text HLabel 3850 2875 0    50   BiDi ~ 0
RA06
Text HLabel 3850 3325 0    50   BiDi ~ 0
RA06-RB0
Text HLabel 3850 3475 0    50   BiDi ~ 0
RP7-RB1
Text HLabel 3850 3625 0    50   BiDi ~ 0
RP8-RB2
Text HLabel 3850 3775 0    50   BiDi ~ 0
RP9-RB3
Text HLabel 3850 4225 0    50   BiDi ~ 0
RC0
Text HLabel 3850 4375 0    50   BiDi ~ 0
RC1
Text HLabel 3850 4525 0    50   BiDi ~ 0
RP19-RC2
Text HLabel 3850 4675 0    50   BiDi ~ 0
RC11
Text HLabel 3850 5125 0    50   BiDi ~ 0
RP3-RA2
Text HLabel 3850 5275 0    50   BiDi ~ 0
RP4-RA3
Text HLabel 3850 5425 0    50   BiDi ~ 0
RA8
Text HLabel 3850 5875 0    50   BiDi ~ 0
RP24-RA9
Text HLabel 3850 6025 0    50   BiDi ~ 0
RD4
Text HLabel 3850 6175 0    50   BiDi ~ 0
RD2
Text HLabel 5750 6175 2    50   BiDi ~ 0
RD3
Text HLabel 5750 6025 2    50   BiDi ~ 0
RD0
Text HLabel 5750 5875 2    50   BiDi ~ 0
RC3
Text HLabel 5750 5725 2    50   BiDi ~ 0
RC4
Text HLabel 5750 5575 2    50   BiDi ~ 0
RC5
Text HLabel 5750 5125 2    50   BiDi ~ 0
RC12
Text HLabel 5750 4975 2    50   BiDi ~ 0
RC14
Text HLabel 5750 4825 2    50   BiDi ~ 0
RC15
Text HLabel 5750 4675 2    50   BiDi ~ 0
RP11-RB5
Text HLabel 5750 4525 2    50   BiDi ~ 0
RB6
Text HLabel 5750 4375 2    50   BiDi ~ 0
RC10
Text HLabel 5750 4225 2    50   BiDi ~ 0
RP12-RB7
Text HLabel 5750 4075 2    50   BiDi ~ 0
RC13
Text HLabel 5750 3925 2    50   BiDi ~ 0
RP13-RB8
Text HLabel 5750 3775 2    50   BiDi ~ 0
RP14-RB9
Text HLabel 5750 3625 2    50   BiDi ~ 0
RP23-RC6
Text HLabel 5750 3475 2    50   BiDi ~ 0
RP20-RC7
Text HLabel 5750 3325 2    50   BiDi ~ 0
RC8
Text HLabel 5750 3175 2    50   BiDi ~ 0
RD1
Text HLabel 5750 3025 2    50   BiDi ~ 0
RA5
Text HLabel 5750 2875 2    50   BiDi ~ 0
RP18-RC9
Text HLabel 5750 2425 2    50   BiDi ~ 0
RA15
Text HLabel 5750 2275 2    50   BiDi ~ 0
RA14
Text HLabel 5750 2125 2    50   BiDi ~ 0
RB10
Text HLabel 5750 1975 2    50   BiDi ~ 0
RB11
Text HLabel 5750 1675 2    50   BiDi ~ 0
RP15-RB13
Text HLabel 5750 1525 2    50   BiDi ~ 0
RP22-RA10
Text Label 3225 1900 2    50   ~ 0
VDD
Text HLabel 2525 1675 3    50   Input ~ 0
VDD
Wire Wire Line
	3275 1975 3850 1975
$Comp
L Device:C C?
U 1 1 5DD22999
P 6375 2875
AR Path="/5DD22999" Ref="C?"  Part="1" 
AR Path="/5DBD7123/5DD22999" Ref="C?"  Part="1" 
AR Path="/5DC5C5A2/5DD22999" Ref="C?"  Part="1" 
AR Path="/5DCFA2DC/5DD04FCD/5DD22999" Ref="C?"  Part="1" 
AR Path="/5DD2FC0D/5DD22999" Ref="C16"  Part="1" 
AR Path="/5DD7FC8F/5DD22999" Ref="C14"  Part="1" 
F 0 "C14" H 6490 2921 50  0000 L CNN
F 1 "10uF" H 6490 2830 50  0000 L CNN
F 2 "Capacitor_SMD:C_0603_1608Metric" H 6413 2725 50  0001 C CNN
F 3 "~" H 6375 2875 50  0001 C CNN
F 4 "ZRB18AR61E106ME01L" H 6375 2875 50  0001 C CNN "MPN"
	1    6375 2875
	1    0    0    -1  
$EndComp
Wire Wire Line
	5750 2725 6375 2725
Connection ~ 6375 2725
Wire Wire Line
	6375 2725 6950 2725
$Comp
L Device:C C?
U 1 1 5DD23535
P 7050 1650
AR Path="/5DD23535" Ref="C?"  Part="1" 
AR Path="/5DBD7123/5DD23535" Ref="C?"  Part="1" 
AR Path="/5DC5C5A2/5DD23535" Ref="C?"  Part="1" 
AR Path="/5DCFA2DC/5DD04FCD/5DD23535" Ref="C?"  Part="1" 
AR Path="/5DD2FC0D/5DD23535" Ref="C18"  Part="1" 
AR Path="/5DD7FC8F/5DD23535" Ref="C16"  Part="1" 
F 0 "C16" H 7165 1696 50  0000 L CNN
F 1 "10uF" H 7165 1605 50  0000 L CNN
F 2 "Capacitor_SMD:C_0603_1608Metric" H 7088 1500 50  0001 C CNN
F 3 "~" H 7050 1650 50  0001 C CNN
F 4 "ZRB18AR61E106ME01L" H 7050 1650 50  0001 C CNN "MPN"
	1    7050 1650
	1    0    0    -1  
$EndComp
$EndSCHEMATC
