EESchema Schematic File Version 4
LIBS:NodoZenergy-cache
EELAYER 30 0
EELAYER END
$Descr A4 11693 8268
encoding utf-8
Sheet 2 4
Title ""
Date ""
Rev ""
Comp ""
Comment1 ""
Comment2 ""
Comment3 ""
Comment4 ""
$EndDescr
$Comp
L Amplifier_Operational:OPA330xxDCK U6
U 1 1 5DDBFD75
P 5350 1475
F 0 "U6" H 5694 1521 50  0000 L CNN
F 1 "TLV9001IDCKR" H 5694 1430 50  0000 L CNN
F 2 "Package_TO_SOT_SMD:SOT-353_SC-70-5" H 5350 1475 50  0001 L CNN
F 3 "" H 5350 1475 50  0001 C CNN
F 4 "TLV9001IDCKR" H 5350 1475 50  0001 C CNN "MPN"
	1    5350 1475
	1    0    0    -1  
$EndComp
Text Label 5250 1775 3    50   ~ 0
VCC-
Text Label 5250 1175 1    50   ~ 0
VCC+
Wire Wire Line
	2475 2425 2475 2975
Wire Wire Line
	2475 2975 1675 2975
Wire Wire Line
	1675 2975 1675 2525
Wire Wire Line
	1675 2525 1875 2525
Text Label 2075 2125 1    50   ~ 0
VCC+
Text Label 2075 2725 3    50   ~ 0
VCC-
Text Label 1200 1125 0    50   ~ 0
VCC-
Text Label 2475 2675 0    50   ~ 0
VGND
$Comp
L Device:R R4
U 1 1 5DDC1A4E
P 1550 2150
F 0 "R4" H 1620 2196 50  0000 L CNN
F 1 "470k" H 1620 2105 50  0000 L CNN
F 2 "Resistor_SMD:R_0603_1608Metric" V 1480 2150 50  0001 C CNN
F 3 "~" H 1550 2150 50  0001 C CNN
F 4 "CR0603-FX-4703ELF" H 1550 2150 50  0001 C CNN "MPN"
	1    1550 2150
	1    0    0    -1  
$EndComp
Wire Wire Line
	1550 2300 1550 2325
Text Label 1550 2000 1    50   ~ 0
VCC+
Text Label 1550 2675 3    50   ~ 0
VCC-
Connection ~ 1550 2325
Wire Wire Line
	1550 2325 1550 2375
Wire Wire Line
	1550 2325 1875 2325
Text Label 1200 975  0    50   ~ 0
VCC+
Text HLabel 1200 1125 0    50   Input ~ 0
VCC-
Text HLabel 1200 975  0    50   Input ~ 0
VCC+
$Comp
L Amplifier_Operational:OPA330xxDCK U3
U 1 1 5DDC5384
P 2175 2425
F 0 "U3" H 2519 2471 50  0000 L CNN
F 1 "TLV9001IDCKR" H 2519 2380 50  0000 L CNN
F 2 "Package_TO_SOT_SMD:SOT-353_SC-70-5" H 2175 2425 50  0001 L CNN
F 3 "" H 2175 2425 50  0001 C CNN
F 4 "TLV9001IDCKR" H 2175 2425 50  0001 C CNN "MPN"
	1    2175 2425
	1    0    0    -1  
$EndComp
Wire Wire Line
	1150 2325 1550 2325
Wire Wire Line
	1150 2325 1150 2425
Text Label 1150 2725 3    50   ~ 0
VCC-
Text Label 3250 2450 0    50   ~ 0
VGND
Wire Wire Line
	3250 2300 3250 2600
Text Label 3250 2000 1    50   ~ 0
VCC+
Text Label 3250 2900 3    50   ~ 0
VCC-
Wire Wire Line
	5650 1475 5650 2150
Wire Wire Line
	5650 2150 5000 2150
Wire Wire Line
	5000 2150 5000 1575
Wire Wire Line
	5000 1575 5050 1575
Text HLabel 4525 1375 0    50   Input ~ 0
SENSOR1_+
Text HLabel 4525 1575 0    50   Input ~ 0
SENSOR1_-
Wire Wire Line
	4525 1375 5050 1375
Text Label 4600 1575 0    50   ~ 0
VGND
$Comp
L Amplifier_Operational:OPA330xxDCK U5
U 1 1 5DDE97CF
P 5300 2875
F 0 "U5" H 5644 2921 50  0000 L CNN
F 1 "TLV9001IDCKR" H 5644 2830 50  0000 L CNN
F 2 "Package_TO_SOT_SMD:SOT-353_SC-70-5" H 5300 2875 50  0001 L CNN
F 3 "" H 5300 2875 50  0001 C CNN
F 4 "TLV9001IDCKR" H 5300 2875 50  0001 C CNN "MPN"
	1    5300 2875
	1    0    0    -1  
$EndComp
Text Label 5200 3175 3    50   ~ 0
VCC-
Text Label 5200 2575 1    50   ~ 0
VCC+
Wire Wire Line
	5600 2875 5600 3550
Wire Wire Line
	5600 3550 4950 3550
Wire Wire Line
	4950 3550 4950 2975
Wire Wire Line
	4950 2975 5000 2975
Text HLabel 4475 2775 0    50   Input ~ 0
SENSOR2_+
Text HLabel 4475 2975 0    50   Input ~ 0
SENSOR2_-
Wire Wire Line
	4475 2775 5000 2775
Text Label 4550 2975 0    50   ~ 0
VGND
$Comp
L Amplifier_Operational:OPA330xxDCK U4
U 1 1 5DDEBBC0
P 5250 4175
F 0 "U4" H 5594 4221 50  0000 L CNN
F 1 "TLV9001IDCKR" H 5594 4130 50  0000 L CNN
F 2 "Package_TO_SOT_SMD:SOT-353_SC-70-5" H 5250 4175 50  0001 L CNN
F 3 "" H 5250 4175 50  0001 C CNN
F 4 "TLV9001IDCKR" H 5250 4175 50  0001 C CNN "MPN"
	1    5250 4175
	1    0    0    -1  
$EndComp
Text Label 5150 4475 3    50   ~ 0
VCC-
Text Label 5150 3875 1    50   ~ 0
VCC+
Wire Wire Line
	5550 4175 5550 4850
Wire Wire Line
	5550 4850 4900 4850
Wire Wire Line
	4900 4850 4900 4275
Wire Wire Line
	4900 4275 4950 4275
Text HLabel 4425 4075 0    50   Input ~ 0
SENSOR3_+
Text HLabel 4425 4275 0    50   Input ~ 0
SENSOR3_-
Wire Wire Line
	4425 4075 4950 4075
Text Label 4500 4275 0    50   ~ 0
VGND
$Comp
L Device:C C?
U 1 1 5DDF4A44
P 1150 2575
AR Path="/5DD8A9A7/5DDF4A44" Ref="C?"  Part="1" 
AR Path="/5DDBFAC0/5DDF4A44" Ref="C4"  Part="1" 
F 0 "C4" H 1265 2621 50  0000 L CNN
F 1 "10uF" H 1265 2530 50  0000 L CNN
F 2 "Capacitor_SMD:C_0603_1608Metric" H 1188 2425 50  0001 C CNN
F 3 "~" H 1150 2575 50  0001 C CNN
F 4 "ZRB18AR61E106ME01L" H 1150 2575 50  0001 C CNN "MPN"
	1    1150 2575
	1    0    0    -1  
$EndComp
$Comp
L Device:C C?
U 1 1 5DDF6909
P 3250 2150
AR Path="/5DD8A9A7/5DDF6909" Ref="C?"  Part="1" 
AR Path="/5DDBFAC0/5DDF6909" Ref="C5"  Part="1" 
F 0 "C5" H 3365 2196 50  0000 L CNN
F 1 "10uF" H 3365 2105 50  0000 L CNN
F 2 "Capacitor_SMD:C_0603_1608Metric" H 3288 2000 50  0001 C CNN
F 3 "~" H 3250 2150 50  0001 C CNN
F 4 "ZRB18AR61E106ME01L" H 3250 2150 50  0001 C CNN "MPN"
	1    3250 2150
	1    0    0    -1  
$EndComp
$Comp
L Device:C C?
U 1 1 5DDF7AF6
P 3250 2750
AR Path="/5DD8A9A7/5DDF7AF6" Ref="C?"  Part="1" 
AR Path="/5DDBFAC0/5DDF7AF6" Ref="C6"  Part="1" 
F 0 "C6" H 3365 2796 50  0000 L CNN
F 1 "10uF" H 3365 2705 50  0000 L CNN
F 2 "Capacitor_SMD:C_0603_1608Metric" H 3288 2600 50  0001 C CNN
F 3 "~" H 3250 2750 50  0001 C CNN
F 4 "ZRB18AR61E106ME01L" H 3250 2750 50  0001 C CNN "MPN"
	1    3250 2750
	1    0    0    -1  
$EndComp
Text HLabel 5650 1975 2    50   Output ~ 0
Toroid1_ADC
Text HLabel 5600 3500 2    50   Output ~ 0
Toroid2_ADC
Text HLabel 5550 4675 2    50   Output ~ 0
Toroid3_ADC
$Comp
L Device:R R5
U 1 1 5DE04D79
P 1550 2525
F 0 "R5" H 1620 2571 50  0000 L CNN
F 1 "470k" H 1620 2480 50  0000 L CNN
F 2 "Resistor_SMD:R_0603_1608Metric" V 1480 2525 50  0001 C CNN
F 3 "~" H 1550 2525 50  0001 C CNN
F 4 "CR0603-FX-4703ELF" H 1550 2525 50  0001 C CNN "MPN"
	1    1550 2525
	1    0    0    -1  
$EndComp
Text Label 5450 5400 2    50   ~ 0
VGND
Text HLabel 5600 5400 2    50   Output ~ 0
VGND
Wire Wire Line
	4525 1575 4600 1575
Wire Wire Line
	4550 2975 4475 2975
Wire Wire Line
	4500 4275 4425 4275
Wire Wire Line
	5450 5400 5600 5400
$EndSCHEMATC
