EESchema Schematic File Version 4
LIBS:NodoZenergy-cache
EELAYER 30 0
EELAYER END
$Descr A4 11693 8268
encoding utf-8
Sheet 2 4
Title ""
Date ""
Rev ""
Comp ""
Comment1 ""
Comment2 ""
Comment3 ""
Comment4 ""
$EndDescr
$Comp
L Regulator_Switching:TPS62170DSG U2
U 1 1 5DC3846F
P 3950 2575
F 0 "U2" H 3950 3142 50  0000 C CNN
F 1 "TPS62170DSG" H 3950 3051 50  0000 C CNN
F 2 "Package_SON:WSON-8-1EP_2x2mm_P0.5mm_EP0.9x1.6mm_ThermalVias" H 4100 2225 50  0001 L CNN
F 3 "http://www.ti.com/lit/ds/symlink/tps62170.pdf" H 3950 3125 50  0001 C CNN
F 4 "TPS62170DSG" H 3950 2575 50  0001 C CNN "MPN"
	1    3950 2575
	1    0    0    -1  
$EndComp
$Comp
L Device:C C2
U 1 1 5DC38470
P 2675 2600
F 0 "C2" H 2790 2646 50  0000 L CNN
F 1 "10uF" H 2790 2555 50  0000 L CNN
F 2 "Capacitor_SMD:C_0603_1608Metric" H 2713 2450 50  0001 C CNN
F 3 "~" H 2675 2600 50  0001 C CNN
F 4 "ZRB18AR61E106ME01L" H 2675 2600 50  0001 C CNN "MPN"
	1    2675 2600
	1    0    0    -1  
$EndComp
Wire Wire Line
	2675 2450 2675 2275
Wire Wire Line
	2675 2275 3425 2275
Wire Wire Line
	3550 2375 3425 2375
Wire Wire Line
	3425 2375 3425 2275
Connection ~ 3425 2275
Wire Wire Line
	3425 2275 3550 2275
Text Label 3850 2975 3    50   ~ 0
GND
Text Label 3950 2975 3    50   ~ 0
GND
Text Label 4050 2975 3    50   ~ 0
GND
Text Label 5150 1450 0    50   ~ 0
GND
Wire Wire Line
	5150 1450 5750 1450
$Comp
L Device:R R1
U 1 1 5DC38471
P 3400 2675
F 0 "R1" V 3193 2675 50  0000 C CNN
F 1 "100k" V 3284 2675 50  0000 C CNN
F 2 "Resistor_SMD:R_0603_1608Metric" V 3330 2675 50  0001 C CNN
F 3 "~" H 3400 2675 50  0001 C CNN
F 4 "RC0603FR-07100KL" H 3400 2675 50  0001 C CNN "MPN"
	1    3400 2675
	0    1    1    0   
$EndComp
Wire Wire Line
	3250 2675 3200 2675
$Comp
L Device:L L1
U 1 1 5DC38472
P 4500 2275
F 0 "L1" V 4690 2275 50  0000 C CNN
F 1 "2.2uH" V 4599 2275 50  0000 C CNN
F 2 "zembia-footprints:WE-TPC-Inductor" H 4500 2275 50  0001 C CNN
F 3 "~" H 4500 2275 50  0001 C CNN
F 4 "744025002" V 4500 2275 50  0001 C CNN "MPN"
	1    4500 2275
	0    -1   -1   0   
$EndComp
Wire Wire Line
	4350 2375 4650 2375
$Comp
L Device:R R2
U 1 1 5DC38473
P 4975 2450
F 0 "R2" H 5045 2496 50  0000 L CNN
F 1 "562k" H 5045 2405 50  0000 L CNN
F 2 "Resistor_SMD:R_0603_1608Metric" V 4905 2450 50  0001 C CNN
F 3 "~" H 4975 2450 50  0001 C CNN
F 4 "RC0603FR-13562KL" H 4975 2450 50  0001 C CNN "MPN"
	1    4975 2450
	1    0    0    -1  
$EndComp
$Comp
L Device:R R3
U 1 1 5DC38474
P 4975 2825
F 0 "R3" H 5045 2871 50  0000 L CNN
F 1 "180k" H 5045 2780 50  0000 L CNN
F 2 "Resistor_SMD:R_0603_1608Metric" V 4905 2825 50  0001 C CNN
F 3 "~" H 4975 2825 50  0001 C CNN
F 4 "RC0603FR-07180KL" H 4975 2825 50  0001 C CNN "MPN"
	1    4975 2825
	1    0    0    -1  
$EndComp
Wire Wire Line
	4350 2475 4700 2475
Wire Wire Line
	4700 2475 4700 2650
Wire Wire Line
	4700 2650 4975 2650
Wire Wire Line
	4975 2650 4975 2600
Wire Wire Line
	4975 2650 4975 2675
Connection ~ 4975 2650
Text Label 4975 2975 3    50   ~ 0
GND
Text Label 2675 2750 3    50   ~ 0
GND
Wire Wire Line
	3200 1875 4650 1875
Wire Wire Line
	3200 1875 3200 2675
Wire Wire Line
	4975 2300 4975 1875
Wire Wire Line
	4975 1875 4650 1875
Connection ~ 4650 1875
Wire Wire Line
	4975 1875 5500 1875
Connection ~ 4975 1875
$Comp
L Device:C C3
U 1 1 5DBFD0BD
P 5500 2500
F 0 "C3" H 5615 2546 50  0000 L CNN
F 1 "10uF" H 5615 2455 50  0000 L CNN
F 2 "Capacitor_SMD:C_0603_1608Metric" H 5538 2350 50  0001 C CNN
F 3 "~" H 5500 2500 50  0001 C CNN
F 4 "ZRB18AR61E106ME01L" H 5500 2500 50  0001 C CNN "MPN"
	1    5500 2500
	1    0    0    -1  
$EndComp
Wire Wire Line
	5500 2350 5500 1875
Text Label 5500 2650 3    50   ~ 0
GND
Text HLabel 2675 2275 0    50   Input ~ 0
VIN
Text HLabel 5775 1875 2    50   Output ~ 0
VOUT
Wire Wire Line
	5500 1875 5775 1875
Connection ~ 5500 1875
Wire Wire Line
	4650 1875 4650 2275
Connection ~ 4650 2275
Wire Wire Line
	4650 2275 4650 2375
Text HLabel 5750 1450 2    50   Input ~ 0
GND
$EndSCHEMATC
