EESchema Schematic File Version 4
LIBS:Gateway-cache
EELAYER 30 0
EELAYER END
$Descr A4 11693 8268
encoding utf-8
Sheet 3 4
Title ""
Date ""
Rev ""
Comp ""
Comment1 ""
Comment2 ""
Comment3 ""
Comment4 ""
$EndDescr
$Comp
L Gateway-rescue:LMR23610AQDDARQ1-zembia U6
U 1 1 5D1ED78C
P 3325 2675
F 0 "U6" H 3325 3290 50  0000 C CNN
F 1 "LMR23610AQDDARQ1" H 3325 3199 50  0000 C CNN
F 2 "zembia-footprints:LMR23610AQDDARQ1" H 3325 2675 50  0001 C CNN
F 3 "" H 3325 2675 50  0001 C CNN
F 4 "LMR23610AQDDARQ1" H 3325 2675 60  0001 C CNN "MPN"
	1    3325 2675
	1    0    0    -1  
$EndComp
$Comp
L Device:C C16
U 1 1 5D1ED8AE
P 2425 3050
AR Path="/5D1ED8AE" Ref="C16"  Part="1" 
AR Path="/5DB239A9/5D1ED8AE" Ref="C16"  Part="1" 
F 0 "C16" H 2540 3096 50  0000 L CNN
F 1 "2.2uF" H 2540 3005 50  0000 L CNN
F 2 "Capacitor_SMD:C_0603_1608Metric" H 2463 2900 50  0001 C CNN
F 3 "" H 2425 3050 50  0001 C CNN
F 4 "GRM188R61E225MA12D" H 2425 3050 60  0001 C CNN "MPN"
	1    2425 3050
	1    0    0    -1  
$EndComp
Wire Wire Line
	2425 2900 2425 2775
Wire Wire Line
	2425 2775 2725 2775
Text GLabel 825  725  0    60   Input ~ 0
GND
Wire Wire Line
	825  725  1450 725 
Text Label 1450 725  0    60   ~ 0
GND
Text Label 2425 3375 0    60   ~ 0
GND
Wire Wire Line
	2425 3375 2425 3200
$Comp
L Device:C C15
U 1 1 5D1EDC24
P 1800 3050
AR Path="/5D1EDC24" Ref="C15"  Part="1" 
AR Path="/5DB239A9/5D1EDC24" Ref="C15"  Part="1" 
F 0 "C15" H 1915 3096 50  0000 L CNN
F 1 "4.7uF" H 1915 3005 50  0000 L CNN
F 2 "Capacitor_SMD:C_0603_1608Metric" H 1838 2900 50  0001 C CNN
F 3 "" H 1800 3050 50  0001 C CNN
F 4 "C1608JB1E475M080AC" H 1800 3050 60  0001 C CNN "MPN"
	1    1800 3050
	1    0    0    -1  
$EndComp
Wire Wire Line
	1800 2900 1800 2575
Wire Wire Line
	1800 2575 2450 2575
$Comp
L Device:C C14
U 1 1 5D1FE00C
P 1300 3050
AR Path="/5D1FE00C" Ref="C14"  Part="1" 
AR Path="/5DB239A9/5D1FE00C" Ref="C14"  Part="1" 
F 0 "C14" H 1415 3096 50  0000 L CNN
F 1 "4.7uF" H 1415 3005 50  0000 L CNN
F 2 "Capacitor_SMD:C_0603_1608Metric" H 1338 2900 50  0001 C CNN
F 3 "" H 1300 3050 50  0001 C CNN
F 4 "C1608JB1E475M080AC" H 1300 3050 60  0001 C CNN "MPN"
	1    1300 3050
	1    0    0    -1  
$EndComp
Wire Wire Line
	1300 2900 1300 2575
Wire Wire Line
	1300 2575 1800 2575
Connection ~ 1800 2575
Text Label 1800 3375 0    60   ~ 0
GND
Wire Wire Line
	1800 3200 1800 3375
Text Label 1300 3375 0    60   ~ 0
GND
Wire Wire Line
	1300 3200 1300 3375
Wire Wire Line
	3925 2725 4100 2725
Wire Wire Line
	4100 2725 4100 2825
Wire Wire Line
	4100 2925 3925 2925
Wire Wire Line
	3925 2825 4100 2825
Connection ~ 4100 2825
Wire Wire Line
	4100 2825 4100 2925
Connection ~ 4100 2925
Text Label 4100 3375 0    60   ~ 0
GND
Wire Wire Line
	4100 2925 4100 3375
$Comp
L Device:C C17
U 1 1 5D1FE00D
P 4350 2425
AR Path="/5D1FE00D" Ref="C17"  Part="1" 
AR Path="/5DB239A9/5D1FE00D" Ref="C17"  Part="1" 
F 0 "C17" V 4098 2425 50  0000 C CNN
F 1 "0.1uF" V 4189 2425 50  0000 C CNN
F 2 "Capacitor_SMD:C_0603_1608Metric" H 4388 2275 50  0001 C CNN
F 3 "" H 4350 2425 50  0001 C CNN
F 4 "C0603C104Z3VACTU" H 4350 2425 60  0001 C CNN "MPN"
	1    4350 2425
	0    1    1    0   
$EndComp
Wire Wire Line
	3925 2425 4200 2425
Wire Wire Line
	3925 2525 4650 2525
Wire Wire Line
	4650 2525 4650 2425
Wire Wire Line
	4650 2425 4500 2425
$Comp
L Device:L L2
U 1 1 5D1EE651
P 5000 2425
F 0 "L2" V 5190 2425 50  0000 C CNN
F 1 "22uH" V 5099 2425 50  0000 C CNN
F 2 "zembia-footprints:SRN6045-220M" H 5000 2425 50  0001 C CNN
F 3 "" H 5000 2425 50  0001 C CNN
F 4 "SRN6045-220M" V 5000 2425 60  0001 C CNN "MPN"
	1    5000 2425
	0    -1   -1   0   
$EndComp
Wire Wire Line
	4850 2425 4650 2425
Connection ~ 4650 2425
$Comp
L Device:R R8
U 1 1 5D1EE999
P 5225 2625
F 0 "R8" H 5295 2671 50  0000 L CNN
F 1 "53.6k" H 5295 2580 50  0000 L CNN
F 2 "Resistor_SMD:R_0603_1608Metric" V 5155 2625 50  0001 C CNN
F 3 "" H 5225 2625 50  0001 C CNN
F 4 "RC0603FR-0753K6L" H 5225 2625 60  0001 C CNN "MPN"
	1    5225 2625
	1    0    0    -1  
$EndComp
Wire Wire Line
	5150 2425 5225 2425
Wire Wire Line
	5225 2425 5225 2475
$Comp
L Device:R R9
U 1 1 5D1EEC1D
P 5225 3025
F 0 "R9" H 5295 3071 50  0000 L CNN
F 1 "18k" H 5295 2980 50  0000 L CNN
F 2 "Resistor_SMD:R_0603_1608Metric" V 5155 3025 50  0001 C CNN
F 3 "" H 5225 3025 50  0001 C CNN
F 4 "CR0603-JW-183ELF" H 5225 3025 60  0001 C CNN "MPN"
	1    5225 3025
	1    0    0    -1  
$EndComp
Wire Wire Line
	5225 2775 5225 2825
Wire Wire Line
	5225 3175 5225 3350
Text Label 5225 3350 0    60   ~ 0
GND
Wire Wire Line
	3925 2625 4950 2625
Wire Wire Line
	4950 2625 4950 2825
Wire Wire Line
	4950 2825 5225 2825
Connection ~ 5225 2825
Wire Wire Line
	5225 2825 5225 2875
Wire Wire Line
	5225 2425 5775 2425
Connection ~ 5225 2425
$Comp
L Device:CP C18
U 1 1 5D1FE011
P 5775 2850
F 0 "C18" H 5893 2896 50  0000 L CNN
F 1 "100uF" H 5893 2805 50  0000 L CNN
F 2 "Capacitor_Tantalum_SMD:CP_EIA-3528-21_Kemet-B" H 5813 2700 50  0001 C CNN
F 3 "" H 5775 2850 50  0001 C CNN
F 4 "8TPE100MAZB" H 5775 2850 60  0001 C CNN "MPN"
	1    5775 2850
	1    0    0    -1  
$EndComp
Wire Wire Line
	5775 2425 5775 2700
Text Label 5775 3350 0    60   ~ 0
GND
Wire Wire Line
	5775 3350 5775 3000
Wire Wire Line
	2725 2675 2450 2675
Wire Wire Line
	2450 2675 2450 2575
Connection ~ 2450 2575
Wire Wire Line
	2450 2575 2725 2575
Wire Wire Line
	5775 2425 6225 2425
Connection ~ 5775 2425
Text HLabel 1300 2575 0    60   Input ~ 0
PWR_IN
Text HLabel 6225 2425 2    60   Output ~ 0
PWR_OUT
Entry Bus Bus
	15875 2575 15975 2675
$EndSCHEMATC
