(export (version D)
  (design
    (source C:\Users\aleja\Documents\Zembia\Zenergy\PCB_concentrador\Gateway\Gateway.sch)
    (date "26-11-2019 9:47:44")
    (tool "Eeschema (5.1.4)-1")
    (sheet (number 1) (name /) (tstamps /)
      (title_block
        (title)
        (company)
        (rev)
        (date)
        (source Gateway.sch)
        (comment (number 1) (value ""))
        (comment (number 2) (value ""))
        (comment (number 3) (value ""))
        (comment (number 4) (value ""))))
    (sheet (number 2) (name /Telit/) (tstamps /5DAFB8E1/)
      (title_block
        (title)
        (company)
        (rev)
        (date)
        (source UL865_noSD.sch)
        (comment (number 1) (value ""))
        (comment (number 2) (value ""))
        (comment (number 3) (value ""))
        (comment (number 4) (value ""))))
    (sheet (number 3) (name /Sheet5DB239A8/) (tstamps /5DB239A9/)
      (title_block
        (title)
        (company)
        (rev)
        (date)
        (source 3V6_Regulator.sch)
        (comment (number 1) (value ""))
        (comment (number 2) (value ""))
        (comment (number 3) (value ""))
        (comment (number 4) (value ""))))
    (sheet (number 4) (name /Sheet5DB72369/) (tstamps /5DB7236A/)
      (title_block
        (title)
        (company)
        (rev)
        (date)
        (source LDO_1V8.sch)
        (comment (number 1) (value ""))
        (comment (number 2) (value ""))
        (comment (number 3) (value ""))
        (comment (number 4) (value "")))))
  (components
    (comp (ref J2)
      (value Conn_01x02_Male)
      (footprint Connector_Molex:Molex_Micro-Fit_3.0_43045-0210_2x01-1MP_P3.00mm_Horizontal)
      (datasheet ~)
      (fields
        (field (name MPN) 430450210))
      (libsource (lib Connector) (part Conn_01x02_Male) (description "Generic connector, single row, 01x02, script generated (kicad-library-utils/schlib/autogen/connector/)"))
      (sheetpath (names /) (tstamps /))
      (tstamp 5DB201C9))
    (comp (ref U1)
      (value Xbee3)
      (footprint FootprintsZembia:XB3-24Z8CM-J)
      (libsource (lib Gateway-rescue) (part Xbee3-zembia) (description ""))
      (sheetpath (names /) (tstamps /))
      (tstamp 5DB2DE6F))
    (comp (ref U2)
      (value TLV75515PDBV)
      (footprint Package_TO_SOT_SMD:SOT-23-5)
      (datasheet http://www.ti.com/lit/ds/symlink/tlv755p.pdf)
      (libsource (lib Regulator_Linear) (part TLV75515PDBV) (description "500mA Low Dropout Voltage Regulator, Fixed Output 1.5V, SOT-23-5"))
      (sheetpath (names /) (tstamps /))
      (tstamp 5DB30EE5))
    (comp (ref C2)
      (value 1uF)
      (footprint Capacitors_SMD:C_0603)
      (datasheet ~)
      (fields
        (field (name MPN) LMK107B7105KA-T))
      (libsource (lib Gateway-rescue) (part C-device) (description ""))
      (sheetpath (names /) (tstamps /))
      (tstamp 5DB320E6))
    (comp (ref C3)
      (value 1uF)
      (footprint Capacitors_SMD:C_0603)
      (datasheet ~)
      (fields
        (field (name MPN) LMK107B7105KA-T))
      (libsource (lib Gateway-rescue) (part C-device) (description ""))
      (sheetpath (names /) (tstamps /))
      (tstamp 5DB33F9F))
    (comp (ref C1)
      (value 1uF)
      (footprint Capacitors_SMD:C_0603)
      (datasheet ~)
      (fields
        (field (name MPN) LMK107B7105KA-T))
      (libsource (lib Gateway-rescue) (part C-device) (description ""))
      (sheetpath (names /) (tstamps /))
      (tstamp 5DB3C518))
    (comp (ref J3)
      (value Conn_01x06)
      (footprint Connectors_JST:JST_PH_B6B-PH-SM4-TB_06x2.00mm_Straight)
      (datasheet ~)
      (fields
        (field (name MPN) 1775470-6))
      (libsource (lib Connector_Generic) (part Conn_01x06) (description "Generic connector, single row, 01x06, script generated (kicad-library-utils/schlib/autogen/connector/)"))
      (sheetpath (names /) (tstamps /))
      (tstamp 5DB4A57F))
    (comp (ref J1)
      (value Conn_01x06)
      (footprint Connectors_JST:JST_PH_B6B-PH-SM4-TB_06x2.00mm_Straight)
      (datasheet ~)
      (fields
        (field (name MPN) 1775470-6))
      (libsource (lib Connector_Generic) (part Conn_01x06) (description "Generic connector, single row, 01x06, script generated (kicad-library-utils/schlib/autogen/connector/)"))
      (sheetpath (names /) (tstamps /))
      (tstamp 5DB4F729))
    (comp (ref PS1)
      (value RAC05-05SK)
      (footprint Converter_ACDC:Converter_ACDC_RECOM_RAC05-xxSK_THT)
      (datasheet https://www.recom-power.com/pdf/Powerline-AC-DC/RAC05-K.pdf)
      (fields
        (field (name MPN) RAC05-05SK))
      (libsource (lib Converter_ACDC) (part RAC05-05SK) (description "5W Single Output EMC Class B 5V 1000mA"))
      (sheetpath (names /) (tstamps /))
      (tstamp 5DB40514))
    (comp (ref U3)
      (value TXB0108PWR)
      (footprint Housings_SSOP:TSSOP-20_4.4x6.5mm_Pitch0.65mm)
      (fields
        (field (name MPN) TXB0108PWR))
      (libsource (lib Gateway-rescue) (part TXB0108PWR-zembia) (description ""))
      (sheetpath (names /Telit/) (tstamps /5DAFB8E1/))
      (tstamp 5D1400CE))
    (comp (ref C5)
      (value 2.2uF)
      (footprint Capacitors_Tantalum_SMD:CP_Tantalum_Case-A_EIA-3216-18_Reflow)
      (fields
        (field (name MPN) T494A225K016AT))
      (libsource (lib Gateway-rescue) (part CP-device) (description ""))
      (sheetpath (names /Telit/) (tstamps /5DAFB8E1/))
      (tstamp 5D1401FA))
    (comp (ref C7)
      (value 33pF)
      (footprint Capacitors_SMD:C_0603)
      (fields
        (field (name MPN) C0603C330K5RACTU))
      (libsource (lib Gateway-rescue) (part C-device) (description ""))
      (sheetpath (names /Telit/) (tstamps /5DAFB8E1/))
      (tstamp 5D140342))
    (comp (ref L1)
      (value "100 ohm 2A")
      (footprint Inductors_SMD:L_0603)
      (fields
        (field (name MPN) BLM18EG101TN1D))
      (libsource (lib Gateway-rescue) (part Ferrite_Bead_Small-device) (description ""))
      (sheetpath (names /Telit/) (tstamps /5DAFB8E1/))
      (tstamp 5D1406B4))
    (comp (ref C8)
      (value 33pF)
      (footprint Capacitors_SMD:C_0603)
      (fields
        (field (name MPN) C0603C330K5RACTU))
      (libsource (lib Gateway-rescue) (part C-device) (description ""))
      (sheetpath (names /Telit/) (tstamps /5DAFB8E1/))
      (tstamp 5D140825))
    (comp (ref C10)
      (value 100uF)
      (footprint Capacitor_Tantalum_SMD:CP_EIA-6032-28_Kemet-C)
      (fields
        (field (name MPN) T494D107K016AT))
      (libsource (lib Gateway-rescue) (part CP-device) (description ""))
      (sheetpath (names /Telit/) (tstamps /5DAFB8E1/))
      (tstamp 5D14092A))
    (comp (ref U5)
      (value Molex_104642-zembia)
      (footprint FootprintsZembia:Molex_104642)
      (fields
        (field (name MPN) 104642-1610))
      (libsource (lib Gateway-rescue) (part Molex_104642-zembia-zembia) (description ""))
      (sheetpath (names /Telit/) (tstamps /5DAFB8E1/))
      (tstamp 5D141C3C))
    (comp (ref C9)
      (value 33pF)
      (footprint Capacitors_SMD:C_0603)
      (fields
        (field (name MPN) C0603C330K5RACTU))
      (libsource (lib Gateway-rescue) (part C-device) (description ""))
      (sheetpath (names /Telit/) (tstamps /5DAFB8E1/))
      (tstamp 5D142D8D))
    (comp (ref C13)
      (value 33pF)
      (footprint Capacitors_SMD:C_0603)
      (fields
        (field (name MPN) C0603C330K5RACTU))
      (libsource (lib Gateway-rescue) (part C-device) (description ""))
      (sheetpath (names /Telit/) (tstamps /5DAFB8E1/))
      (tstamp 5D143414))
    (comp (ref C12)
      (value 33pF)
      (footprint Capacitors_SMD:C_0603)
      (fields
        (field (name MPN) C0603C330K5RACTU))
      (libsource (lib Gateway-rescue) (part C-device) (description ""))
      (sheetpath (names /Telit/) (tstamps /5DAFB8E1/))
      (tstamp 5D1438F6))
    (comp (ref C11)
      (value 33pF)
      (footprint Capacitors_SMD:C_0603)
      (fields
        (field (name MPN) C0603C330K5RACTU))
      (libsource (lib Gateway-rescue) (part C-device) (description ""))
      (sheetpath (names /Telit/) (tstamps /5DAFB8E1/))
      (tstamp 5D143E08))
    (comp (ref C4)
      (value 0.1uF)
      (footprint Capacitors_SMD:C_0603)
      (fields
        (field (name MPN) C0603C104M4RAC7411))
      (libsource (lib Gateway-rescue) (part C-device) (description ""))
      (sheetpath (names /Telit/) (tstamps /5DAFB8E1/))
      (tstamp 5D16DBED))
    (comp (ref J4)
      (value GS2)
      (footprint Jumper:SolderJumper-2_P1.3mm_Open_Pad1.0x1.5mm)
      (libsource (lib birdchile-rescue) (part GS2-Connector) (description ""))
      (sheetpath (names /Telit/) (tstamps /5DAFB8E1/))
      (tstamp 5D1785AA))
    (comp (ref C6)
      (value 0.1uF)
      (footprint Capacitors_SMD:C_0603)
      (fields
        (field (name MPN) C0603C104M4RAC7411))
      (libsource (lib Gateway-rescue) (part C-device) (description ""))
      (sheetpath (names /Telit/) (tstamps /5DAFB8E1/))
      (tstamp 5D17C441))
    (comp (ref SW1)
      (value SW_Push)
      (footprint Buttons_Switches_SMD:SW_SPST_TL3342)
      (fields
        (field (name MPN) PTS525SM08SMTR2LFS))
      (libsource (lib Switch) (part SW_Push) (description "Push button switch, generic, two pins"))
      (sheetpath (names /Telit/) (tstamps /5DAFB8E1/))
      (tstamp 5D19927E))
    (comp (ref TP4)
      (value Test_Point)
      (footprint Measurement_Points:Measurement_Point_Round-SMD-Pad_Small)
      (datasheet ~)
      (libsource (lib birdchile-rescue) (part Test_Point-Connector) (description ""))
      (sheetpath (names /Telit/) (tstamps /5DAFB8E1/))
      (tstamp 5D1B6A59))
    (comp (ref TP1)
      (value Test_Point)
      (footprint Measurement_Points:Measurement_Point_Round-SMD-Pad_Small)
      (datasheet ~)
      (libsource (lib Connector) (part TestPoint) (description "test point"))
      (sheetpath (names /Telit/) (tstamps /5DAFB8E1/))
      (tstamp 5D1BA158))
    (comp (ref TP2)
      (value Test_Point)
      (footprint Measurement_Points:Measurement_Point_Round-SMD-Pad_Small)
      (datasheet ~)
      (libsource (lib Connector) (part TestPoint) (description "test point"))
      (sheetpath (names /Telit/) (tstamps /5DAFB8E1/))
      (tstamp 5D1BD956))
    (comp (ref TP7)
      (value Test_Point)
      (footprint Measurement_Points:Measurement_Point_Round-SMD-Pad_Small)
      (datasheet ~)
      (libsource (lib birdchile-rescue) (part Test_Point-Connector) (description ""))
      (sheetpath (names /Telit/) (tstamps /5DAFB8E1/))
      (tstamp 5D218A67))
    (comp (ref TP8)
      (value Test_Point)
      (footprint Measurement_Points:Measurement_Point_Round-SMD-Pad_Small)
      (datasheet ~)
      (libsource (lib birdchile-rescue) (part Test_Point-Connector) (description ""))
      (sheetpath (names /Telit/) (tstamps /5DAFB8E1/))
      (tstamp 5D219855))
    (comp (ref TP5)
      (value Test_Point)
      (footprint Measurement_Points:Measurement_Point_Round-SMD-Pad_Small)
      (datasheet ~)
      (libsource (lib birdchile-rescue) (part Test_Point-Connector) (description ""))
      (sheetpath (names /Telit/) (tstamps /5DAFB8E1/))
      (tstamp 5D2B8693))
    (comp (ref TP6)
      (value Test_Point)
      (footprint Measurement_Points:Measurement_Point_Round-SMD-Pad_Small)
      (datasheet ~)
      (libsource (lib birdchile-rescue) (part Test_Point-Connector) (description ""))
      (sheetpath (names /Telit/) (tstamps /5DAFB8E1/))
      (tstamp 5D2B8CE5))
    (comp (ref TP3)
      (value Test_Point)
      (footprint Measurement_Points:Measurement_Point_Round-SMD-Pad_Small)
      (datasheet ~)
      (libsource (lib birdchile-rescue) (part Test_Point-Connector) (description ""))
      (sheetpath (names /Telit/) (tstamps /5DAFB8E1/))
      (tstamp 5D2C39E7))
    (comp (ref TP9)
      (value Test_Point)
      (footprint Measurement_Points:Measurement_Point_Round-SMD-Pad_Small)
      (datasheet ~)
      (libsource (lib birdchile-rescue) (part Test_Point-Connector) (description ""))
      (sheetpath (names /Telit/) (tstamps /5DAFB8E1/))
      (tstamp 5D7BFA8D))
    (comp (ref J5)
      (value Conn_Coaxial)
      (footprint "FootprintsZembia:U.FL-R-SMT-1(10)")
      (fields
        (field (name MPN) "U.FL-R-SMT-1(10)"))
      (libsource (lib birdchile-rescue) (part Conn_Coaxial-Connector) (description ""))
      (sheetpath (names /Telit/) (tstamps /5DAFB8E1/))
      (tstamp 5D193A6F))
    (comp (ref D1)
      (value LED)
      (footprint LED_SMD:LED_0805_2012Metric)
      (datasheet ~)
      (fields
        (field (name MPN) 749-SM0805UYC))
      (libsource (lib Gateway-rescue) (part LED-device) (description ""))
      (sheetpath (names /Telit/) (tstamps /5DAFB8E1/))
      (tstamp 5DC18DB3))
    (comp (ref R1)
      (value 120)
      (footprint Resistor_SMD:R_0603_1608Metric)
      (datasheet ~)
      (fields
        (field (name MPN) CR0603-JW-121ELF))
      (libsource (lib Gateway-rescue) (part R-device) (description ""))
      (sheetpath (names /Telit/) (tstamps /5DAFB8E1/))
      (tstamp 5DC18DBA))
    (comp (ref Q1)
      (value MMBT3904)
      (footprint Package_TO_SOT_SMD:SOT-23)
      (datasheet https://www.fairchildsemi.com/datasheets/2N/2N3904.pdf)
      (fields
        (field (name MPN) MMBT3904-TP))
      (libsource (lib Transistor_BJT) (part MMBT3904) (description "0.2A Ic, 40V Vce, Small Signal NPN Transistor, SOT-23"))
      (sheetpath (names /Telit/) (tstamps /5DAFB8E1/))
      (tstamp 5DC18DC4))
    (comp (ref D2)
      (value LED)
      (footprint LED_SMD:LED_0805_2012Metric)
      (datasheet ~)
      (fields
        (field (name MPN) 749-SM0805UYC))
      (libsource (lib Gateway-rescue) (part LED-device) (description ""))
      (sheetpath (names /Telit/) (tstamps /5DAFB8E1/))
      (tstamp 5DC18DCE))
    (comp (ref R2)
      (value 120)
      (footprint Resistor_SMD:R_0603_1608Metric)
      (datasheet ~)
      (fields
        (field (name MPN) CR0603-JW-121ELF))
      (libsource (lib Gateway-rescue) (part R-device) (description ""))
      (sheetpath (names /Telit/) (tstamps /5DAFB8E1/))
      (tstamp 5DC18DD5))
    (comp (ref Q2)
      (value MMBT3904)
      (footprint Package_TO_SOT_SMD:SOT-23)
      (datasheet https://www.fairchildsemi.com/datasheets/2N/2N3904.pdf)
      (fields
        (field (name MPN) MMBT3904-TP))
      (libsource (lib Transistor_BJT) (part MMBT3904) (description "0.2A Ic, 40V Vce, Small Signal NPN Transistor, SOT-23"))
      (sheetpath (names /Telit/) (tstamps /5DAFB8E1/))
      (tstamp 5DC18DDE))
    (comp (ref D3)
      (value LED)
      (footprint LED_SMD:LED_0805_2012Metric)
      (datasheet ~)
      (fields
        (field (name MPN) 749-SM0805UYC))
      (libsource (lib Gateway-rescue) (part LED-device) (description ""))
      (sheetpath (names /Telit/) (tstamps /5DAFB8E1/))
      (tstamp 5DC18DE9))
    (comp (ref R3)
      (value 120)
      (footprint Resistor_SMD:R_0603_1608Metric)
      (datasheet ~)
      (fields
        (field (name MPN) CR0603-JW-121ELF))
      (libsource (lib Gateway-rescue) (part R-device) (description ""))
      (sheetpath (names /Telit/) (tstamps /5DAFB8E1/))
      (tstamp 5DC18DF0))
    (comp (ref Q3)
      (value MMBT3904)
      (footprint Package_TO_SOT_SMD:SOT-23)
      (datasheet https://www.fairchildsemi.com/datasheets/2N/2N3904.pdf)
      (fields
        (field (name MPN) MMBT3904-TP))
      (libsource (lib Transistor_BJT) (part MMBT3904) (description "0.2A Ic, 40V Vce, Small Signal NPN Transistor, SOT-23"))
      (sheetpath (names /Telit/) (tstamps /5DAFB8E1/))
      (tstamp 5DC18DF9))
    (comp (ref D4)
      (value LED)
      (footprint LED_SMD:LED_0805_2012Metric)
      (datasheet ~)
      (fields
        (field (name MPN) 749-SM0805UYC))
      (libsource (lib Gateway-rescue) (part LED-device) (description ""))
      (sheetpath (names /Telit/) (tstamps /5DAFB8E1/))
      (tstamp 5DC18E03))
    (comp (ref R4)
      (value 120)
      (footprint Resistor_SMD:R_0603_1608Metric)
      (datasheet ~)
      (fields
        (field (name MPN) CR0603-JW-121ELF))
      (libsource (lib Gateway-rescue) (part R-device) (description ""))
      (sheetpath (names /Telit/) (tstamps /5DAFB8E1/))
      (tstamp 5DC18E0A))
    (comp (ref Q4)
      (value MMBT3904)
      (footprint Package_TO_SOT_SMD:SOT-23)
      (datasheet https://www.fairchildsemi.com/datasheets/2N/2N3904.pdf)
      (fields
        (field (name MPN) MMBT3904-TP))
      (libsource (lib Transistor_BJT) (part MMBT3904) (description "0.2A Ic, 40V Vce, Small Signal NPN Transistor, SOT-23"))
      (sheetpath (names /Telit/) (tstamps /5DAFB8E1/))
      (tstamp 5DC18E13))
    (comp (ref D5)
      (value LED)
      (footprint LED_SMD:LED_0805_2012Metric)
      (datasheet ~)
      (fields
        (field (name MPN) 749-SM0805UYC))
      (libsource (lib Gateway-rescue) (part LED-device) (description ""))
      (sheetpath (names /Telit/) (tstamps /5DAFB8E1/))
      (tstamp 5DC18E1C))
    (comp (ref R5)
      (value 120)
      (footprint Resistor_SMD:R_0603_1608Metric)
      (datasheet ~)
      (fields
        (field (name MPN) CR0603-JW-121ELF))
      (libsource (lib Gateway-rescue) (part R-device) (description ""))
      (sheetpath (names /Telit/) (tstamps /5DAFB8E1/))
      (tstamp 5DC18E23))
    (comp (ref Q5)
      (value MMBT3904)
      (footprint Package_TO_SOT_SMD:SOT-23)
      (datasheet https://www.fairchildsemi.com/datasheets/2N/2N3904.pdf)
      (fields
        (field (name MPN) MMBT3904-TP))
      (libsource (lib Transistor_BJT) (part MMBT3904) (description "0.2A Ic, 40V Vce, Small Signal NPN Transistor, SOT-23"))
      (sheetpath (names /Telit/) (tstamps /5DAFB8E1/))
      (tstamp 5DC18E2C))
    (comp (ref D6)
      (value LED)
      (footprint LED_SMD:LED_0805_2012Metric)
      (datasheet ~)
      (fields
        (field (name MPN) 749-SM0805UYC))
      (libsource (lib Gateway-rescue) (part LED-device) (description ""))
      (sheetpath (names /Telit/) (tstamps /5DAFB8E1/))
      (tstamp 5DC18E35))
    (comp (ref R6)
      (value 120)
      (footprint Resistor_SMD:R_0603_1608Metric)
      (datasheet ~)
      (fields
        (field (name MPN) CR0603-JW-121ELF))
      (libsource (lib Gateway-rescue) (part R-device) (description ""))
      (sheetpath (names /Telit/) (tstamps /5DAFB8E1/))
      (tstamp 5DC18E3C))
    (comp (ref Q6)
      (value MMBT3904)
      (footprint Package_TO_SOT_SMD:SOT-23)
      (datasheet https://www.fairchildsemi.com/datasheets/2N/2N3904.pdf)
      (fields
        (field (name MPN) MMBT3904-TP))
      (libsource (lib Transistor_BJT) (part MMBT3904) (description "0.2A Ic, 40V Vce, Small Signal NPN Transistor, SOT-23"))
      (sheetpath (names /Telit/) (tstamps /5DAFB8E1/))
      (tstamp 5DC18E45))
    (comp (ref D7)
      (value LED)
      (footprint LED_SMD:LED_0805_2012Metric)
      (datasheet ~)
      (fields
        (field (name MPN) 749-SM0805UYC))
      (libsource (lib Gateway-rescue) (part LED-device) (description ""))
      (sheetpath (names /Telit/) (tstamps /5DAFB8E1/))
      (tstamp 5DC18E4E))
    (comp (ref R7)
      (value 120)
      (footprint Resistor_SMD:R_0603_1608Metric)
      (datasheet ~)
      (fields
        (field (name MPN) CR0603-JW-121ELF))
      (libsource (lib Gateway-rescue) (part R-device) (description ""))
      (sheetpath (names /Telit/) (tstamps /5DAFB8E1/))
      (tstamp 5DC18E55))
    (comp (ref Q7)
      (value MMBT3904)
      (footprint Package_TO_SOT_SMD:SOT-23)
      (datasheet https://www.fairchildsemi.com/datasheets/2N/2N3904.pdf)
      (fields
        (field (name MPN) MMBT3904-TP))
      (libsource (lib Transistor_BJT) (part MMBT3904) (description "0.2A Ic, 40V Vce, Small Signal NPN Transistor, SOT-23"))
      (sheetpath (names /Telit/) (tstamps /5DAFB8E1/))
      (tstamp 5DC18E5E))
    (comp (ref R12)
      (value 1k)
      (footprint Resistor_SMD:R_0603_1608Metric)
      (datasheet ~)
      (fields
        (field (name MPN) CR0603-JW-102ELF))
      (libsource (lib Gateway-rescue) (part R-device) (description ""))
      (sheetpath (names /Telit/) (tstamps /5DAFB8E1/))
      (tstamp 5DB11C1B))
    (comp (ref R11)
      (value 1k)
      (footprint Resistor_SMD:R_0603_1608Metric)
      (datasheet ~)
      (fields
        (field (name MPN) CR0603-JW-102ELF))
      (libsource (lib Gateway-rescue) (part R-device) (description ""))
      (sheetpath (names /Telit/) (tstamps /5DAFB8E1/))
      (tstamp 5DB2A093))
    (comp (ref R10)
      (value 1k)
      (footprint Resistor_SMD:R_0603_1608Metric)
      (datasheet ~)
      (fields
        (field (name MPN) CR0603-JW-102ELF))
      (libsource (lib Gateway-rescue) (part R-device) (description ""))
      (sheetpath (names /Telit/) (tstamps /5DAFB8E1/))
      (tstamp 5DB2FDBB))
    (comp (ref R13)
      (value 1k)
      (footprint Resistor_SMD:R_0603_1608Metric)
      (datasheet ~)
      (fields
        (field (name MPN) CR0603-JW-102ELF))
      (libsource (lib Gateway-rescue) (part R-device) (description ""))
      (sheetpath (names /Telit/) (tstamps /5DAFB8E1/))
      (tstamp 5DB45495))
    (comp (ref U4)
      (value UL865)
      (footprint RF_Modules:Telit_xL865)
      (datasheet http://www.telit.com/fileadmin/user_upload/products/Downloads/3G/Telit_UL865_Hardware_User_Guide_r8.pdf)
      (fields
        (field (name MPN) UL865NAD204T701))
      (libsource (lib RF_GSM) (part UL865) (description "Telit 3G Module (GSM/GPRS/UMTS/HSPA), 3.8V, Digital voice and SMS, I2S, USB 2.0, UART, SPI. Manufacturer package"))
      (sheetpath (names /Telit/) (tstamps /5DAFB8E1/))
      (tstamp 5D13FF1A))
    (comp (ref R16)
      (value 1k)
      (footprint Resistor_SMD:R_0603_1608Metric)
      (datasheet ~)
      (fields
        (field (name MPN) CR0603-JW-102ELF))
      (libsource (lib Gateway-rescue) (part R-device) (description ""))
      (sheetpath (names /Telit/) (tstamps /5DAFB8E1/))
      (tstamp 5DB66A24))
    (comp (ref R15)
      (value 1k)
      (footprint Resistor_SMD:R_0603_1608Metric)
      (datasheet ~)
      (fields
        (field (name MPN) CR0603-JW-102ELF))
      (libsource (lib Gateway-rescue) (part R-device) (description ""))
      (sheetpath (names /Telit/) (tstamps /5DAFB8E1/))
      (tstamp 5DB6D738))
    (comp (ref R14)
      (value 1k)
      (footprint Resistor_SMD:R_0603_1608Metric)
      (datasheet ~)
      (fields
        (field (name MPN) CR0603-JW-102ELF))
      (libsource (lib Gateway-rescue) (part R-device) (description ""))
      (sheetpath (names /Telit/) (tstamps /5DAFB8E1/))
      (tstamp 5DB74495))
    (comp (ref J6)
      (value USB_C_Receptacle_USB2.0)
      (footprint FootprintsZembia:CX90M-16P)
      (datasheet https://www.usb.org/sites/default/files/documents/usb_type-c.zip)
      (fields
        (field (name MPN) CX90M-16P))
      (libsource (lib Connector) (part USB_C_Receptacle_USB2.0) (description "USB 2.0-only Type-C Receptacle connector"))
      (sheetpath (names /Telit/) (tstamps /5DAFB8E1/))
      (tstamp 5DB28BDC))
    (comp (ref R17)
      (value 5.1k)
      (footprint Resistor_SMD:R_0603_1608Metric)
      (datasheet ~)
      (fields
        (field (name MPN) CR0603-JW-512ELF))
      (libsource (lib Gateway-rescue) (part R-device) (description ""))
      (sheetpath (names /Telit/) (tstamps /5DAFB8E1/))
      (tstamp 5DB47FDE))
    (comp (ref R18)
      (value 5.1k)
      (footprint Resistor_SMD:R_0603_1608Metric)
      (datasheet ~)
      (fields
        (field (name MPN) CR0603-JW-512ELF))
      (libsource (lib Gateway-rescue) (part R-device) (description ""))
      (sheetpath (names /Telit/) (tstamps /5DAFB8E1/))
      (tstamp 5DB487FD))
    (comp (ref U6)
      (value LMR23610AQDDARQ1)
      (footprint zembia-footprints:LMR23610AQDDARQ1)
      (fields
        (field (name MPN) LMR23610AQDDARQ1))
      (libsource (lib Gateway-rescue) (part LMR23610AQDDARQ1-zembia) (description ""))
      (sheetpath (names /Sheet5DB239A8/) (tstamps /5DB239A9/))
      (tstamp 5D1ED78C))
    (comp (ref C16)
      (value 2.2uF)
      (footprint Capacitor_SMD:C_0603_1608Metric)
      (fields
        (field (name MPN) GRM188R61E225MA12D))
      (libsource (lib Device) (part C) (description "Unpolarized capacitor"))
      (sheetpath (names /Sheet5DB239A8/) (tstamps /5DB239A9/))
      (tstamp 5D1ED8AE))
    (comp (ref C15)
      (value 4.7uF)
      (footprint Capacitor_SMD:C_0603_1608Metric)
      (fields
        (field (name MPN) C1608JB1E475M080AC))
      (libsource (lib Device) (part C) (description "Unpolarized capacitor"))
      (sheetpath (names /Sheet5DB239A8/) (tstamps /5DB239A9/))
      (tstamp 5D1EDC24))
    (comp (ref C14)
      (value 4.7uF)
      (footprint Capacitor_SMD:C_0603_1608Metric)
      (fields
        (field (name MPN) C1608JB1E475M080AC))
      (libsource (lib Device) (part C) (description "Unpolarized capacitor"))
      (sheetpath (names /Sheet5DB239A8/) (tstamps /5DB239A9/))
      (tstamp 5D1FE00C))
    (comp (ref C17)
      (value 0.1uF)
      (footprint Capacitor_SMD:C_0603_1608Metric)
      (fields
        (field (name MPN) C0603C104Z3VACTU))
      (libsource (lib Device) (part C) (description "Unpolarized capacitor"))
      (sheetpath (names /Sheet5DB239A8/) (tstamps /5DB239A9/))
      (tstamp 5D1FE00D))
    (comp (ref L2)
      (value 22uH)
      (footprint zembia-footprints:SRN6045-220M)
      (fields
        (field (name MPN) SRN6045-220M))
      (libsource (lib Device) (part L) (description Inductor))
      (sheetpath (names /Sheet5DB239A8/) (tstamps /5DB239A9/))
      (tstamp 5D1EE651))
    (comp (ref R8)
      (value 53.6k)
      (footprint Resistor_SMD:R_0603_1608Metric)
      (fields
        (field (name MPN) RC0603FR-0753K6L))
      (libsource (lib Device) (part R) (description Resistor))
      (sheetpath (names /Sheet5DB239A8/) (tstamps /5DB239A9/))
      (tstamp 5D1EE999))
    (comp (ref R9)
      (value 18k)
      (footprint Resistor_SMD:R_0603_1608Metric)
      (fields
        (field (name MPN) CR0603-JW-183ELF))
      (libsource (lib Device) (part R) (description Resistor))
      (sheetpath (names /Sheet5DB239A8/) (tstamps /5DB239A9/))
      (tstamp 5D1EEC1D))
    (comp (ref C18)
      (value 100uF)
      (footprint Capacitor_Tantalum_SMD:CP_EIA-3528-21_Kemet-B)
      (fields
        (field (name MPN) 8TPE100MAZB))
      (libsource (lib Device) (part CP) (description "Polarized capacitor"))
      (sheetpath (names /Sheet5DB239A8/) (tstamps /5DB239A9/))
      (tstamp 5D1FE011))
    (comp (ref U7)
      (value TPS70618DBVR)
      (footprint Package_TO_SOT_SMD:SOT-23-5)
      (fields
        (field (name MPN) TPS70618DBVR))
      (libsource (lib dk_PMIC-Voltage-Regulators-Linear) (part LP5907MFX-3_3_NOPB) (description "IC REG LINEAR 3.3V 250MA SOT23-5"))
      (sheetpath (names /Sheet5DB72369/) (tstamps /5DB7236A/))
      (tstamp 5D16ADB9))
    (comp (ref C19)
      (value 1uF)
      (footprint Capacitors_SMD:C_0603)
      (fields
        (field (name MPN) LMK107B7105KA-T))
      (libsource (lib Gateway-rescue) (part C-device) (description ""))
      (sheetpath (names /Sheet5DB72369/) (tstamps /5DB7236A/))
      (tstamp 5D16AED2))
    (comp (ref C20)
      (value 2.2uF)
      (footprint Capacitors_SMD:C_0603)
      (fields
        (field (name MPN) GRM188R61E225MA12D))
      (libsource (lib Gateway-rescue) (part C-device) (description ""))
      (sheetpath (names /Sheet5DB72369/) (tstamps /5DB7236A/))
      (tstamp 5D16B137)))
  (libparts
    (libpart (lib Connector) (part Conn_01x02_Male)
      (description "Generic connector, single row, 01x02, script generated (kicad-library-utils/schlib/autogen/connector/)")
      (docs ~)
      (footprints
        (fp Connector*:*_1x??_*))
      (fields
        (field (name Reference) J)
        (field (name Value) Conn_01x02_Male))
      (pins
        (pin (num 1) (name Pin_1) (type passive))
        (pin (num 2) (name Pin_2) (type passive))))
    (libpart (lib Connector) (part TestPoint)
      (description "test point")
      (docs ~)
      (footprints
        (fp Pin*)
        (fp Test*))
      (fields
        (field (name Reference) TP)
        (field (name Value) TestPoint))
      (pins
        (pin (num 1) (name 1) (type passive))))
    (libpart (lib Connector) (part USB_C_Receptacle_USB2.0)
      (description "USB 2.0-only Type-C Receptacle connector")
      (docs https://www.usb.org/sites/default/files/documents/usb_type-c.zip)
      (footprints
        (fp USB*C*Receptacle*))
      (fields
        (field (name Reference) J)
        (field (name Value) USB_C_Receptacle_USB2.0))
      (pins
        (pin (num A1) (name GND) (type power_in))
        (pin (num A4) (name VBUS) (type power_in))
        (pin (num A5) (name CC1) (type BiDi))
        (pin (num A6) (name D+) (type BiDi))
        (pin (num A7) (name D-) (type BiDi))
        (pin (num A8) (name SBU1) (type BiDi))
        (pin (num A9) (name VBUS) (type passive))
        (pin (num A12) (name GND) (type passive))
        (pin (num B1) (name GND) (type passive))
        (pin (num B4) (name VBUS) (type passive))
        (pin (num B5) (name CC2) (type BiDi))
        (pin (num B6) (name D+) (type BiDi))
        (pin (num B7) (name D-) (type BiDi))
        (pin (num B8) (name SBU2) (type BiDi))
        (pin (num B9) (name VBUS) (type passive))
        (pin (num B12) (name GND) (type passive))
        (pin (num S1) (name SHIELD) (type passive))))
    (libpart (lib Connector_Generic) (part Conn_01x06)
      (description "Generic connector, single row, 01x06, script generated (kicad-library-utils/schlib/autogen/connector/)")
      (docs ~)
      (footprints
        (fp Connector*:*_1x??_*))
      (fields
        (field (name Reference) J)
        (field (name Value) Conn_01x06))
      (pins
        (pin (num 1) (name Pin_1) (type passive))
        (pin (num 2) (name Pin_2) (type passive))
        (pin (num 3) (name Pin_3) (type passive))
        (pin (num 4) (name Pin_4) (type passive))
        (pin (num 5) (name Pin_5) (type passive))
        (pin (num 6) (name Pin_6) (type passive))))
    (libpart (lib Converter_ACDC) (part RAC05-3.3SK)
      (aliases
        (alias RAC05-05SK)
        (alias RAC05-12SK)
        (alias RAC05-15SK)
        (alias RAC05-24SK))
      (description "5W Single Output EMC Class B 3.3V 1515mA")
      (docs https://www.recom-power.com/pdf/Powerline-AC-DC/RAC05-K.pdf)
      (footprints
        (fp Converter*ACDC*RECOM*RAC05*SK*))
      (fields
        (field (name Reference) PS)
        (field (name Value) RAC05-3.3SK)
        (field (name Footprint) Converter_ACDC:Converter_ACDC_RECOM_RAC05-xxSK_THT))
      (pins
        (pin (num 1) (name "AC(L)") (type power_in))
        (pin (num 2) (name "AC(N)") (type power_in))
        (pin (num 3) (name NC) (type NotConnected))
        (pin (num 4) (name Vout-) (type power_out))
        (pin (num 5) (name Vout+) (type power_out))))
    (libpart (lib Device) (part C)
      (description "Unpolarized capacitor")
      (docs ~)
      (footprints
        (fp C_*))
      (fields
        (field (name Reference) C)
        (field (name Value) C))
      (pins
        (pin (num 1) (name ~) (type passive))
        (pin (num 2) (name ~) (type passive))))
    (libpart (lib Device) (part CP)
      (description "Polarized capacitor")
      (docs ~)
      (footprints
        (fp CP_*))
      (fields
        (field (name Reference) C)
        (field (name Value) CP))
      (pins
        (pin (num 1) (name ~) (type passive))
        (pin (num 2) (name ~) (type passive))))
    (libpart (lib Device) (part L)
      (description Inductor)
      (docs ~)
      (footprints
        (fp Choke_*)
        (fp *Coil*)
        (fp Inductor_*)
        (fp L_*))
      (fields
        (field (name Reference) L)
        (field (name Value) L))
      (pins
        (pin (num 1) (name 1) (type passive))
        (pin (num 2) (name 2) (type passive))))
    (libpart (lib Device) (part R)
      (description Resistor)
      (docs ~)
      (footprints
        (fp R_*))
      (fields
        (field (name Reference) R)
        (field (name Value) R))
      (pins
        (pin (num 1) (name ~) (type passive))
        (pin (num 2) (name ~) (type passive))))
    (libpart (lib Gateway-rescue) (part C-device)
      (footprints
        (fp C_*))
      (fields
        (field (name Reference) C)
        (field (name Value) C-device))
      (pins
        (pin (num 1) (name ~) (type passive))
        (pin (num 2) (name ~) (type passive))))
    (libpart (lib Gateway-rescue) (part CP-device)
      (footprints
        (fp CP_*))
      (fields
        (field (name Reference) C)
        (field (name Value) CP-device))
      (pins
        (pin (num 1) (name ~) (type passive))
        (pin (num 2) (name ~) (type passive))))
    (libpart (lib Gateway-rescue) (part Ferrite_Bead_Small-device)
      (footprints
        (fp Inductor_*)
        (fp L_*)
        (fp *Ferrite*))
      (fields
        (field (name Reference) FB)
        (field (name Value) Ferrite_Bead_Small-device))
      (pins
        (pin (num 1) (name ~) (type passive))
        (pin (num 2) (name ~) (type passive))))
    (libpart (lib Gateway-rescue) (part LED-device)
      (footprints
        (fp LED*)
        (fp LED_SMD:*)
        (fp LED_THT:*))
      (fields
        (field (name Reference) D)
        (field (name Value) LED-device))
      (pins
        (pin (num 1) (name K) (type passive))
        (pin (num 2) (name A) (type passive))))
    (libpart (lib Gateway-rescue) (part LMR23610AQDDARQ1-zembia)
      (fields
        (field (name Reference) U)
        (field (name Value) LMR23610AQDDARQ1-zembia))
      (pins
        (pin (num 1) (name SW) (type output))
        (pin (num 2) (name BOOT) (type output))
        (pin (num 3) (name VCC) (type input))
        (pin (num 4) (name FB) (type output))
        (pin (num 5) (name EN_SYNC) (type input))
        (pin (num 6) (name AGND) (type output))
        (pin (num 7) (name VIN) (type input))
        (pin (num 8) (name PGND) (type output))
        (pin (num 9) (name PAD) (type output))))
    (libpart (lib Gateway-rescue) (part Molex_104642-zembia-zembia)
      (fields
        (field (name Reference) U)
        (field (name Value) Molex_104642-zembia-zembia))
      (pins
        (pin (num G1) (name GND) (type input))
        (pin (num G2) (name GND) (type input))
        (pin (num G3) (name GND) (type input))
        (pin (num G4) (name GND) (type input))
        (pin (num G5) (name GND) (type input))
        (pin (num G6) (name GND) (type input))
        (pin (num G7) (name GND) (type input))
        (pin (num G8) (name GND) (type input))
        (pin (num S1) (name SIM_VCC) (type input))
        (pin (num S2) (name SIM_RST) (type input))
        (pin (num S3) (name SIM_CLK) (type input))
        (pin (num S5) (name SIM_GND) (type input))
        (pin (num S6) (name SIM_Vpp) (type input))
        (pin (num S7) (name SIM_I/O) (type input))
        (pin (num S/W) (name Card_detector) (type input))
        (pin (num T1) (name SD_DAT2) (type input))
        (pin (num T2) (name CD/DAT3) (type input))
        (pin (num T3) (name SD_CMD) (type input))
        (pin (num T4) (name Vdd) (type input))
        (pin (num T5) (name SD_CLK) (type input))
        (pin (num T6) (name "SD_Vss(GND)") (type input))
        (pin (num T7) (name SD_DAT0) (type input))
        (pin (num T8) (name SD_DAT1) (type input))))
    (libpart (lib Gateway-rescue) (part R-device)
      (footprints
        (fp R_*))
      (fields
        (field (name Reference) R)
        (field (name Value) R-device))
      (pins
        (pin (num 1) (name ~) (type passive))
        (pin (num 2) (name ~) (type passive))))
    (libpart (lib Gateway-rescue) (part TXB0108PWR-zembia)
      (fields
        (field (name Reference) U)
        (field (name Value) TXB0108PWR-zembia)
        (field (name Footprint) Housings_SSOP:TSSOP-20_4.4x6.5mm_Pitch0.65mm)
        (field (name MPN) TXB0108PWR))
      (pins
        (pin (num 1) (name A1) (type input))
        (pin (num 2) (name VCCA) (type input))
        (pin (num 3) (name A2) (type input))
        (pin (num 4) (name A3) (type input))
        (pin (num 5) (name A4) (type input))
        (pin (num 6) (name A5) (type input))
        (pin (num 7) (name A6) (type input))
        (pin (num 8) (name A7) (type input))
        (pin (num 9) (name A8) (type input))
        (pin (num 10) (name OE) (type input))
        (pin (num 11) (name GND) (type input))
        (pin (num 12) (name B8) (type input))
        (pin (num 13) (name B7) (type input))
        (pin (num 14) (name B6) (type input))
        (pin (num 15) (name B5) (type input))
        (pin (num 16) (name B4) (type input))
        (pin (num 17) (name B3) (type input))
        (pin (num 18) (name B2) (type input))
        (pin (num 19) (name VCCB) (type input))
        (pin (num 20) (name B1) (type input))))
    (libpart (lib Gateway-rescue) (part Xbee3-zembia)
      (fields
        (field (name Reference) U)
        (field (name Value) Xbee3-zembia))
      (pins
        (pin (num 1) (name GND) (type input))
        (pin (num 2) (name VCC) (type input))
        (pin (num 3) (name DOUT/DIO3) (type input))
        (pin (num 4) (name DIN/~CONFIG~/DIO14) (type input))
        (pin (num 5) (name DIO12) (type input))
        (pin (num 6) (name ~RESET) (type input))
        (pin (num 7) (name RSSI_PWM/DIO10) (type input))
        (pin (num 8) (name PWM1/DIO11) (type input))
        (pin (num 9) (name ~DTR~/SLEEP_RQ/DIO8) (type input))
        (pin (num 10) (name GND) (type input))
        (pin (num 11) (name SPI_~AATN~/~BOOTMODE~/DIO19) (type input))
        (pin (num 12) (name GND) (type input))
        (pin (num 13) (name SPI_CLK/DIO18) (type input))
        (pin (num 14) (name SPI_~SSEL~/DIO17) (type input))
        (pin (num 15) (name SPI_MOSI/DIO16) (type input))
        (pin (num 16) (name SPI_MISO/DIO15) (type input))
        (pin (num 17) (name NC) (type input))
        (pin (num 18) (name NC) (type input))
        (pin (num 19) (name NC) (type input))
        (pin (num 20) (name NC) (type input))
        (pin (num 21) (name GND) (type input))
        (pin (num 22) (name NC) (type input))
        (pin (num 23) (name DIO4) (type input))
        (pin (num 24) (name ~CTS~/DIO7) (type input))
        (pin (num 25) (name ON/~SLEEP~/DIO9) (type input))
        (pin (num 26) (name ASSOCIATE/DIO5) (type input))
        (pin (num 27) (name ~RTS~/DIO6) (type input))
        (pin (num 28) (name AD3/DIO3) (type input))
        (pin (num 29) (name AD2/DIO2) (type input))
        (pin (num 30) (name AD1/DIO1*) (type input))
        (pin (num 31) (name AD0/DIO0) (type input))
        (pin (num 32) (name GND) (type input))
        (pin (num 33) (name RF) (type input))
        (pin (num 34) (name GND) (type input))))
    (libpart (lib RF_GSM) (part UL865)
      (description "Telit 3G Module (GSM/GPRS/UMTS/HSPA), 3.8V, Digital voice and SMS, I2S, USB 2.0, UART, SPI. Manufacturer package")
      (docs http://www.telit.com/fileadmin/user_upload/products/Downloads/3G/Telit_UL865_Hardware_User_Guide_r8.pdf)
      (footprints
        (fp *Telit*xL865*))
      (fields
        (field (name Reference) U)
        (field (name Value) UL865)
        (field (name Footprint) RF_GSM:Telit_xL865))
      (pins
        (pin (num 1) (name C109/DCD/GPO) (type output))
        (pin (num 2) (name C125/RING/GPO) (type output))
        (pin (num 3) (name C107/DSR/GPO) (type output))
        (pin (num 4) (name C108/DTR/GPI) (type input))
        (pin (num 5) (name C105/RTS/GPI) (type input))
        (pin (num 6) (name C106/CTS/GPO) (type output))
        (pin (num 7) (name C103/TXD) (type input))
        (pin (num 8) (name C104/RXD) (type output))
        (pin (num 9) (name SIMVCC) (type power_out))
        (pin (num 10) (name SIMRST) (type output))
        (pin (num 11) (name SIMCLK) (type output))
        (pin (num 12) (name SIMIO) (type BiDi))
        (pin (num 13) (name ADC_IN1) (type input))
        (pin (num 14) (name ADC_IN2) (type input))
        (pin (num 15) (name DAC_OUT1) (type output))
        (pin (num 16) (name VUSB) (type input))
        (pin (num 17) (name USB_D-) (type BiDi))
        (pin (num 18) (name USB_D+) (type BiDi))
        (pin (num 19) (name NC) (type NotConnected))
        (pin (num 20) (name NC) (type NotConnected))
        (pin (num 21) (name NC) (type NotConnected))
        (pin (num 22) (name NC) (type NotConnected))
        (pin (num 23) (name AGND) (type power_in))
        (pin (num 24) (name NC) (type NotConnected))
        (pin (num 25) (name SPI_CLK) (type BiDi))
        (pin (num 26) (name GPIO8/STAT_LED) (type BiDi))
        (pin (num 27) (name GPIO7/SPI_MRDY) (type BiDi))
        (pin (num 28) (name GPIO6/SPI_SRDY) (type BiDi))
        (pin (num 29) (name GPIO5) (type BiDi))
        (pin (num 30) (name VRTC) (type power_out))
        (pin (num 31) (name NC) (type NotConnected))
        (pin (num 32) (name GND) (type power_in))
        (pin (num 33) (name GND) (type passive))
        (pin (num 34) (name ANTENNA) (type BiDi))
        (pin (num 35) (name GND) (type passive))
        (pin (num 36) (name GND) (type passive))
        (pin (num 37) (name VBATT_PA) (type power_in))
        (pin (num 38) (name VBATT) (type power_in))
        (pin (num 39) (name GPIO4/DVI_CLK) (type BiDi))
        (pin (num 40) (name GPIO3/DVI_TX) (type BiDi))
        (pin (num 41) (name GPIO2/JDR/DVI_RX) (type BiDi))
        (pin (num 42) (name GPIO1/DVI_WA0) (type BiDi))
        (pin (num 43) (name V_AUX/PWRMON) (type power_out))
        (pin (num 44) (name RXD_AUX/SPI_MISO) (type BiDi))
        (pin (num 45) (name TXD_AUX/SPI_MOSI) (type BiDi))
        (pin (num 46) (name GND) (type passive))
        (pin (num 47) (name ~RESET) (type input))
        (pin (num 48) (name NC) (type NotConnected))))
    (libpart (lib Regulator_Linear) (part TLV71209_SOT23-5)
      (aliases
        (alias TLV71210_SOT23-5)
        (alias TLV71211_SOT23-5)
        (alias TLV71310PDBV)
        (alias TLV71311PDBV)
        (alias TLV71312PDBV)
        (alias TLV71315PDBV)
        (alias TLV71318PDBV)
        (alias TLV713185PDBV)
        (alias TLV71325PDBV)
        (alias TLV71328PDBV)
        (alias TLV713285PDBV)
        (alias TLV71330PDBV)
        (alias TLV71333PDBV)
        (alias TLV75509PDBV)
        (alias TLV75510PDBV)
        (alias TLV75512PDBV)
        (alias TLV75515PDBV)
        (alias TLV75518PDBV)
        (alias TLV75519PDBV)
        (alias TLV75525PDBV)
        (alias TLV75528PDBV)
        (alias TLV75529PDBV)
        (alias TLV75530PDBV)
        (alias TLV75533PDBV))
      (description "300mA Low Dropout Voltage Regulator, Fixed Output 0.9V, SOT-23-5")
      (docs http://www.ti.com/lit/ds/symlink/tlv712.pdf)
      (footprints
        (fp SOT?23*))
      (fields
        (field (name Reference) U)
        (field (name Value) TLV71209_SOT23-5)
        (field (name Footprint) Package_TO_SOT_SMD:SOT-23-5))
      (pins
        (pin (num 1) (name IN) (type power_in))
        (pin (num 2) (name GND) (type power_in))
        (pin (num 3) (name EN) (type input))
        (pin (num 4) (name NC) (type NotConnected))
        (pin (num 5) (name OUT) (type power_out))))
    (libpart (lib Switch) (part SW_Push)
      (description "Push button switch, generic, two pins")
      (docs ~)
      (fields
        (field (name Reference) SW)
        (field (name Value) SW_Push))
      (pins
        (pin (num 1) (name 1) (type passive))
        (pin (num 2) (name 2) (type passive))))
    (libpart (lib Transistor_BJT) (part BC817)
      (aliases
        (alias BC818)
        (alias BC847)
        (alias BC848)
        (alias BC849)
        (alias BC850)
        (alias MMBT3904)
        (alias MMBT5550L)
        (alias MMBT5551L))
      (description "0.8A Ic, 45V Vce, NPN Transistor, SOT-23")
      (docs http://www.fairchildsemi.com/ds/BC/BC817.pdf)
      (footprints
        (fp SOT?23*))
      (fields
        (field (name Reference) Q)
        (field (name Value) BC817)
        (field (name Footprint) Package_TO_SOT_SMD:SOT-23))
      (pins
        (pin (num 1) (name B) (type input))
        (pin (num 2) (name E) (type passive))
        (pin (num 3) (name C) (type passive))))
    (libpart (lib birdchile-rescue) (part Conn_Coaxial-Connector)
      (footprints
        (fp *BNC*)
        (fp *SMA*)
        (fp *SMB*)
        (fp *SMC*)
        (fp *Cinch*))
      (fields
        (field (name Reference) J)
        (field (name Value) Conn_Coaxial-Connector))
      (pins
        (pin (num 1) (name In) (type passive))
        (pin (num 2) (name Ext) (type passive))))
    (libpart (lib birdchile-rescue) (part GS2-Connector)
      (footprints
        (fp GS*))
      (fields
        (field (name Reference) J)
        (field (name Value) GS2-Connector)
        (field (name Footprint) Connectors:GS2))
      (pins
        (pin (num 1) (name G1) (type passive))
        (pin (num 2) (name G2) (type passive))))
    (libpart (lib birdchile-rescue) (part Test_Point-Connector)
      (footprints
        (fp Pin*)
        (fp Test*))
      (fields
        (field (name Reference) TP)
        (field (name Value) Test_Point-Connector))
      (pins
        (pin (num 1) (name 1) (type passive))))
    (libpart (lib dk_PMIC-Voltage-Regulators-Linear) (part LP5907MFX-3_3_NOPB)
      (description "IC REG LINEAR 3.3V 250MA SOT23-5")
      (docs http://www.ti.com/general/docs/suppproductinfo.tsp?distId=10&gotoUrl=http%3A%2F%2Fwww.ti.com%2Flit%2Fgpn%2Flp5907)
      (fields
        (field (name Reference) U)
        (field (name Value) LP5907MFX-3_3_NOPB)
        (field (name Footprint) digikey-footprints:SOT-753)
        (field (name Datasheet) http://www.ti.com/general/docs/suppproductinfo.tsp?distId=10&gotoUrl=http%3A%2F%2Fwww.ti.com%2Flit%2Fgpn%2Flp5907)
        (field (name Digi-Key_PN) 296-38557-1-ND)
        (field (name MPN) LP5907MFX-3.3/NOPB)
        (field (name Category) "Integrated Circuits (ICs)")
        (field (name Family) "PMIC - Voltage Regulators - Linear")
        (field (name DK_Datasheet_Link) http://www.ti.com/general/docs/suppproductinfo.tsp?distId=10&gotoUrl=http%3A%2F%2Fwww.ti.com%2Flit%2Fgpn%2Flp5907)
        (field (name DK_Detail_Page) /product-detail/en/texas-instruments/LP5907MFX-3.3-NOPB/296-38557-1-ND/5034443)
        (field (name Description) "IC REG LINEAR 3.3V 250MA SOT23-5")
        (field (name Manufacturer) "Texas Instruments")
        (field (name Status) Active))
      (pins
        (pin (num 1) (name IN) (type power_in))
        (pin (num 2) (name GND) (type power_in))
        (pin (num 3) (name EN) (type input))
        (pin (num 4) (name NC) (type NotConnected))
        (pin (num 5) (name OUT) (type power_out)))))
  (libraries
    (library (logical Connector)
      (uri "C:\\Program Files\\KiCad\\share\\kicad\\library/Connector.lib"))
    (library (logical Connector_Generic)
      (uri "C:\\Program Files\\KiCad\\share\\kicad\\library/Connector_Generic.lib"))
    (library (logical Converter_ACDC)
      (uri "C:\\Program Files\\KiCad\\share\\kicad\\library/Converter_ACDC.lib"))
    (library (logical Device)
      (uri "C:\\Program Files\\KiCad\\share\\kicad\\library/Device.lib"))
    (library (logical Gateway-rescue)
      (uri C:\Users\aleja\Documents\Zembia\Zenergy\PCB_concentrador\Gateway/Gateway-rescue.lib))
    (library (logical RF_GSM)
      (uri "C:\\Program Files\\KiCad\\share\\kicad\\library/RF_GSM.lib"))
    (library (logical Regulator_Linear)
      (uri "C:\\Program Files\\KiCad\\share\\kicad\\library/Regulator_Linear.lib"))
    (library (logical Switch)
      (uri "C:\\Program Files\\KiCad\\share\\kicad\\library/Switch.lib"))
    (library (logical Transistor_BJT)
      (uri "C:\\Program Files\\KiCad\\share\\kicad\\library/Transistor_BJT.lib"))
    (library (logical birdchile-rescue)
      (uri C:\Users\aleja\Documents\Zembia\Zenergy\PCB_concentrador\Gateway/birdchile-rescue.lib))
    (library (logical dk_PMIC-Voltage-Regulators-Linear)
      (uri C:\Users\aleja\Documents\KicadLibs\digikey-kicad-library\digikey-symbols\dk_PMIC-Voltage-Regulators-Linear.lib)))
  (nets
    (net (code 1) (name /Telit/TXD_GPRS_MCU)
      (node (ref J3) (pin 3))
      (node (ref U3) (pin 17))
      (node (ref TP6) (pin 1)))
    (net (code 2) (name "Net-(J3-Pad1)")
      (node (ref J3) (pin 1)))
    (net (code 3) (name /Telit/RXD_GPRS_MCU)
      (node (ref U3) (pin 18))
      (node (ref J3) (pin 2))
      (node (ref TP5) (pin 1)))
    (net (code 4) (name /Telit/DTR_MCU)
      (node (ref J3) (pin 4))
      (node (ref U3) (pin 20)))
    (net (code 5) (name /Telit/RTS_MCU)
      (node (ref U3) (pin 15))
      (node (ref J3) (pin 5)))
    (net (code 6) (name /TX_xbee)
      (node (ref J1) (pin 2))
      (node (ref TP7) (pin 1))
      (node (ref U1) (pin 3))
      (node (ref U3) (pin 14)))
    (net (code 7) (name /RX_xbee)
      (node (ref U1) (pin 4))
      (node (ref J1) (pin 3))
      (node (ref TP8) (pin 1))
      (node (ref U3) (pin 13)))
    (net (code 8) (name "Net-(PS1-Pad3)")
      (node (ref PS1) (pin 3)))
    (net (code 9) (name /5V)
      (node (ref C15) (pin 1))
      (node (ref C14) (pin 1))
      (node (ref U6) (pin 7))
      (node (ref U6) (pin 5))
      (node (ref PS1) (pin 5)))
    (net (code 10) (name "Net-(J2-Pad1)")
      (node (ref J2) (pin 1))
      (node (ref PS1) (pin 1)))
    (net (code 11) (name "Net-(J1-Pad4)")
      (node (ref J1) (pin 4)))
    (net (code 12) (name "Net-(J1-Pad5)")
      (node (ref J1) (pin 5)))
    (net (code 13) (name "Net-(U1-Pad13)")
      (node (ref U1) (pin 13)))
    (net (code 14) (name "Net-(U1-Pad11)")
      (node (ref U1) (pin 11)))
    (net (code 15) (name "Net-(U1-Pad14)")
      (node (ref U1) (pin 14)))
    (net (code 16) (name "Net-(U1-Pad15)")
      (node (ref U1) (pin 15)))
    (net (code 17) (name "Net-(U1-Pad16)")
      (node (ref U1) (pin 16)))
    (net (code 18) (name "Net-(U1-Pad17)")
      (node (ref U1) (pin 17)))
    (net (code 19) (name "Net-(U1-Pad18)")
      (node (ref U1) (pin 18)))
    (net (code 20) (name "Net-(U1-Pad19)")
      (node (ref U1) (pin 19)))
    (net (code 21) (name "Net-(U1-Pad20)")
      (node (ref U1) (pin 20)))
    (net (code 22) (name "Net-(U1-Pad22)")
      (node (ref U1) (pin 22)))
    (net (code 23) (name /Telit/CTS_MCU)
      (node (ref U3) (pin 16)))
    (net (code 24) (name "Net-(J2-Pad2)")
      (node (ref PS1) (pin 2))
      (node (ref J2) (pin 2)))
    (net (code 25) (name /3V9)
      (node (ref C2) (pin 1))
      (node (ref R8) (pin 1))
      (node (ref C10) (pin 1))
      (node (ref L2) (pin 2))
      (node (ref U2) (pin 1))
      (node (ref U7) (pin 1))
      (node (ref C18) (pin 1))
      (node (ref C8) (pin 1))
      (node (ref L1) (pin 1))
      (node (ref C19) (pin 1))
      (node (ref U2) (pin 3)))
    (net (code 26) (name "Net-(U2-Pad4)")
      (node (ref U2) (pin 4)))
    (net (code 27) (name "Net-(U1-Pad24)")
      (node (ref U1) (pin 24)))
    (net (code 28) (name "Net-(U1-Pad23)")
      (node (ref U1) (pin 23)))
    (net (code 29) (name "Net-(U1-Pad9)")
      (node (ref U1) (pin 9)))
    (net (code 30) (name "Net-(U1-Pad24)")
      (node (ref U1) (pin 24)))
    (net (code 31) (name "Net-(U1-Pad25)")
      (node (ref U1) (pin 25)))
    (net (code 32) (name "Net-(U1-Pad25)")
      (node (ref U1) (pin 25)))
    (net (code 33) (name "Net-(U1-Pad26)")
      (node (ref U1) (pin 26)))
    (net (code 34) (name "Net-(U1-Pad27)")
      (node (ref U1) (pin 27)))
    (net (code 35) (name "Net-(U1-Pad28)")
      (node (ref U1) (pin 28)))
    (net (code 36) (name "Net-(U1-Pad29)")
      (node (ref U1) (pin 29)))
    (net (code 37) (name "Net-(U1-Pad30)")
      (node (ref U1) (pin 30)))
    (net (code 38) (name "Net-(U1-Pad33)")
      (node (ref U1) (pin 33)))
    (net (code 39) (name "Net-(U1-Pad5)")
      (node (ref U1) (pin 5)))
    (net (code 40) (name "Net-(U1-Pad6)")
      (node (ref U1) (pin 6)))
    (net (code 41) (name "Net-(U1-Pad7)")
      (node (ref U1) (pin 7)))
    (net (code 42) (name "Net-(U1-Pad8)")
      (node (ref U1) (pin 8)))
    (net (code 43) (name "Net-(U1-Pad31)")
      (node (ref U1) (pin 31)))
    (net (code 44) (name "Net-(D6-Pad2)")
      (node (ref D6) (pin 2))
      (node (ref R6) (pin 2)))
    (net (code 45) (name /Telit/LED6)
      (node (ref R15) (pin 1))
      (node (ref Q6) (pin 1)))
    (net (code 46) (name "Net-(D6-Pad1)")
      (node (ref D6) (pin 1))
      (node (ref Q6) (pin 3)))
    (net (code 47) (name "Net-(D7-Pad1)")
      (node (ref D7) (pin 1))
      (node (ref Q7) (pin 3)))
    (net (code 48) (name "Net-(D7-Pad2)")
      (node (ref R7) (pin 2))
      (node (ref D7) (pin 2)))
    (net (code 49) (name "Net-(D5-Pad1)")
      (node (ref Q5) (pin 3))
      (node (ref D5) (pin 1)))
    (net (code 50) (name /Telit/LED5)
      (node (ref Q5) (pin 1))
      (node (ref R16) (pin 1)))
    (net (code 51) (name "Net-(D5-Pad2)")
      (node (ref R5) (pin 2))
      (node (ref D5) (pin 2)))
    (net (code 52) (name "Net-(D4-Pad1)")
      (node (ref Q4) (pin 3))
      (node (ref D4) (pin 1)))
    (net (code 53) (name /Telit/LED4)
      (node (ref Q4) (pin 1))
      (node (ref R13) (pin 1)))
    (net (code 54) (name "Net-(R12-Pad2)")
      (node (ref R12) (pin 2))
      (node (ref U4) (pin 27)))
    (net (code 55) (name /Telit/LED3)
      (node (ref Q3) (pin 1))
      (node (ref R10) (pin 1)))
    (net (code 56) (name "Net-(R10-Pad2)")
      (node (ref R10) (pin 2))
      (node (ref U4) (pin 29)))
    (net (code 57) (name "Net-(R11-Pad2)")
      (node (ref R11) (pin 2))
      (node (ref U4) (pin 28)))
    (net (code 58) (name /Telit/LED7)
      (node (ref R14) (pin 1))
      (node (ref Q7) (pin 1)))
    (net (code 59) (name "Net-(D1-Pad1)")
      (node (ref D1) (pin 1))
      (node (ref Q1) (pin 3)))
    (net (code 60) (name "Net-(U4-Pad2)")
      (node (ref U4) (pin 2)))
    (net (code 61) (name /Telit/LED1)
      (node (ref Q1) (pin 1))
      (node (ref R12) (pin 1)))
    (net (code 62) (name "Net-(D1-Pad2)")
      (node (ref R1) (pin 2))
      (node (ref D1) (pin 2)))
    (net (code 63) (name "Net-(U5-PadT4)")
      (node (ref U5) (pin T4)))
    (net (code 64) (name "Net-(U5-PadT5)")
      (node (ref U5) (pin T5)))
    (net (code 65) (name "Net-(U5-PadT3)")
      (node (ref U5) (pin T3)))
    (net (code 66) (name "Net-(U5-PadT7)")
      (node (ref U5) (pin T7)))
    (net (code 67) (name "Net-(U5-PadT2)")
      (node (ref U5) (pin T2)))
    (net (code 68) (name "Net-(SW1-Pad2)")
      (node (ref U4) (pin 47))
      (node (ref SW1) (pin 2)))
    (net (code 69) (name "Net-(U4-Pad30)")
      (node (ref U4) (pin 30)))
    (net (code 70) (name "Net-(U4-Pad15)")
      (node (ref U4) (pin 15)))
    (net (code 71) (name "Net-(U4-Pad3)")
      (node (ref U4) (pin 3)))
    (net (code 72) (name "Net-(D3-Pad2)")
      (node (ref D3) (pin 2))
      (node (ref R3) (pin 2)))
    (net (code 73) (name "Net-(D4-Pad2)")
      (node (ref R4) (pin 2))
      (node (ref D4) (pin 2)))
    (net (code 74) (name 3V3)
      (node (ref R6) (pin 1))
      (node (ref R5) (pin 1))
      (node (ref C6) (pin 2))
      (node (ref R7) (pin 1))
      (node (ref C3) (pin 1))
      (node (ref U2) (pin 5))
      (node (ref U3) (pin 19))
      (node (ref U1) (pin 2))
      (node (ref J1) (pin 1))
      (node (ref C1) (pin 1))
      (node (ref R1) (pin 1))
      (node (ref R4) (pin 1))
      (node (ref R2) (pin 1))
      (node (ref R3) (pin 1)))
    (net (code 75) (name "Net-(D3-Pad1)")
      (node (ref D3) (pin 1))
      (node (ref Q3) (pin 3)))
    (net (code 76) (name "Net-(D2-Pad1)")
      (node (ref Q2) (pin 3))
      (node (ref D2) (pin 1)))
    (net (code 77) (name /Telit/LED2)
      (node (ref R11) (pin 1))
      (node (ref Q2) (pin 1)))
    (net (code 78) (name "Net-(D2-Pad2)")
      (node (ref R2) (pin 2))
      (node (ref D2) (pin 2)))
    (net (code 79) (name "Net-(J6-PadA5)")
      (node (ref R17) (pin 2))
      (node (ref J6) (pin A5)))
    (net (code 80) (name /Telit/VBUS)
      (node (ref J6) (pin B4))
      (node (ref U4) (pin 16))
      (node (ref J6) (pin A4))
      (node (ref J6) (pin A9))
      (node (ref J6) (pin B9)))
    (net (code 81) (name "Net-(J6-PadS1)")
      (node (ref J6) (pin S1)))
    (net (code 82) (name "Net-(J6-PadB8)")
      (node (ref J6) (pin B8)))
    (net (code 83) (name "Net-(J6-PadB5)")
      (node (ref J6) (pin B5))
      (node (ref R18) (pin 1)))
    (net (code 84) (name "Net-(J6-PadA8)")
      (node (ref J6) (pin A8)))
    (net (code 85) (name "Net-(R14-Pad2)")
      (node (ref U4) (pin 42))
      (node (ref R14) (pin 2)))
    (net (code 86) (name "Net-(R15-Pad2)")
      (node (ref U4) (pin 41))
      (node (ref R15) (pin 2)))
    (net (code 87) (name /Telit/D-)
      (node (ref U4) (pin 17))
      (node (ref J6) (pin A7))
      (node (ref J6) (pin B7)))
    (net (code 88) (name /Telit/D+)
      (node (ref J6) (pin B6))
      (node (ref J6) (pin A6))
      (node (ref U4) (pin 18)))
    (net (code 90) (name "Net-(U4-Pad26)")
      (node (ref U4) (pin 26)))
    (net (code 91) (name "Net-(U4-Pad25)")
      (node (ref U4) (pin 25)))
    (net (code 92) (name "Net-(U4-Pad24)")
      (node (ref U4) (pin 24)))
    (net (code 93) (name "Net-(U4-Pad22)")
      (node (ref U4) (pin 22)))
    (net (code 94) (name "Net-(U4-Pad21)")
      (node (ref U4) (pin 21)))
    (net (code 95) (name "Net-(U4-Pad20)")
      (node (ref U4) (pin 20)))
    (net (code 96) (name "Net-(U4-Pad19)")
      (node (ref U4) (pin 19)))
    (net (code 97) (name "Net-(U4-Pad14)")
      (node (ref U4) (pin 14)))
    (net (code 98) (name "Net-(U4-Pad13)")
      (node (ref U4) (pin 13)))
    (net (code 99) (name /Telit/SIM_IO)
      (node (ref C13) (pin 1))
      (node (ref U5) (pin S7))
      (node (ref U4) (pin 12)))
    (net (code 100) (name /Telit/SIM_CLK)
      (node (ref C12) (pin 1))
      (node (ref U5) (pin S3))
      (node (ref U4) (pin 11)))
    (net (code 101) (name /Telit/SIM_RST)
      (node (ref U5) (pin S2))
      (node (ref U4) (pin 10))
      (node (ref C11) (pin 1)))
    (net (code 102) (name "Net-(U4-Pad1)")
      (node (ref U4) (pin 1)))
    (net (code 103) (name "Net-(R13-Pad2)")
      (node (ref U4) (pin 39))
      (node (ref R13) (pin 2)))
    (net (code 104) (name "Net-(R16-Pad2)")
      (node (ref U4) (pin 40))
      (node (ref R16) (pin 2)))
    (net (code 105) (name /Telit/SIM_VCC)
      (node (ref U5) (pin S1))
      (node (ref C9) (pin 1))
      (node (ref U4) (pin 9)))
    (net (code 106) (name /Telit/RXD_GPRS)
      (node (ref U3) (pin 3))
      (node (ref U4) (pin 8)))
    (net (code 107) (name /Telit/TXD_GPRS)
      (node (ref U4) (pin 7))
      (node (ref U3) (pin 4)))
    (net (code 108) (name /Telit/RTS_GPRS)
      (node (ref U3) (pin 6))
      (node (ref U4) (pin 5)))
    (net (code 109) (name "Net-(U4-Pad48)")
      (node (ref U4) (pin 48)))
    (net (code 110) (name "Net-(TP4-Pad1)")
      (node (ref TP4) (pin 1))
      (node (ref U4) (pin 43)))
    (net (code 111) (name "Net-(J5-Pad1)")
      (node (ref U4) (pin 34))
      (node (ref J5) (pin 1)))
    (net (code 112) (name "Net-(U4-Pad31)")
      (node (ref U4) (pin 31)))
    (net (code 113) (name "Net-(U5-PadT8)")
      (node (ref U5) (pin T8)))
    (net (code 114) (name "Net-(U5-PadT1)")
      (node (ref U5) (pin T1)))
    (net (code 115) (name "Net-(U5-PadS6)")
      (node (ref U5) (pin S6)))
    (net (code 116) (name "Net-(U5-PadS/W)")
      (node (ref U5) (pin S/W)))
    (net (code 117) (name /Telit/CTS_GPRS)
      (node (ref U4) (pin 6))
      (node (ref U3) (pin 5)))
    (net (code 118) (name /Telit/RST_CTRL_MCU)
      (node (ref U3) (pin 9)))
    (net (code 119) (name /Telit/TXD_AUX)
      (node (ref U4) (pin 45))
      (node (ref U3) (pin 8)))
    (net (code 120) (name /Telit/RXD_AUX)
      (node (ref U3) (pin 7))
      (node (ref U4) (pin 44)))
    (net (code 121) (name "Net-(C5-Pad1)")
      (node (ref L1) (pin 2))
      (node (ref TP1) (pin 1))
      (node (ref U4) (pin 38))
      (node (ref C7) (pin 1))
      (node (ref U4) (pin 37))
      (node (ref C5) (pin 1)))
    (net (code 122) (name /Telit/Telit_RST_Ctrl)
      (node (ref U3) (pin 12)))
    (net (code 123) (name 1V8)
      (node (ref C4) (pin 2))
      (node (ref U7) (pin 5))
      (node (ref C20) (pin 1))
      (node (ref U3) (pin 10))
      (node (ref U3) (pin 2)))
    (net (code 124) (name /Telit/DTR_GPRS)
      (node (ref J4) (pin 1))
      (node (ref U3) (pin 1))
      (node (ref U4) (pin 4)))
    (net (code 125) (name GND)
      (node (ref C14) (pin 2))
      (node (ref C19) (pin 2))
      (node (ref J4) (pin 2))
      (node (ref U7) (pin 2))
      (node (ref C6) (pin 1))
      (node (ref C20) (pin 2))
      (node (ref R9) (pin 2))
      (node (ref C4) (pin 1))
      (node (ref C15) (pin 2))
      (node (ref U6) (pin 6))
      (node (ref U6) (pin 8))
      (node (ref U6) (pin 9))
      (node (ref C16) (pin 2))
      (node (ref C18) (pin 2))
      (node (ref Q4) (pin 2))
      (node (ref TP2) (pin 1))
      (node (ref TP9) (pin 1))
      (node (ref J5) (pin 2))
      (node (ref Q1) (pin 2))
      (node (ref Q7) (pin 2))
      (node (ref Q5) (pin 2))
      (node (ref Q6) (pin 2))
      (node (ref U1) (pin 34))
      (node (ref U1) (pin 32))
      (node (ref U4) (pin 35))
      (node (ref U4) (pin 36))
      (node (ref U4) (pin 46))
      (node (ref U4) (pin 23))
      (node (ref R17) (pin 1))
      (node (ref J6) (pin A1))
      (node (ref J6) (pin A12))
      (node (ref J6) (pin B1))
      (node (ref J6) (pin B12))
      (node (ref Q2) (pin 2))
      (node (ref Q3) (pin 2))
      (node (ref J3) (pin 6))
      (node (ref PS1) (pin 4))
      (node (ref C1) (pin 2))
      (node (ref C3) (pin 2))
      (node (ref C2) (pin 2))
      (node (ref U2) (pin 2))
      (node (ref U1) (pin 21))
      (node (ref U1) (pin 12))
      (node (ref U1) (pin 10))
      (node (ref U1) (pin 1))
      (node (ref R18) (pin 2))
      (node (ref J1) (pin 6))
      (node (ref U5) (pin G6))
      (node (ref U3) (pin 11))
      (node (ref C5) (pin 2))
      (node (ref C7) (pin 2))
      (node (ref U5) (pin G5))
      (node (ref C9) (pin 2))
      (node (ref C13) (pin 2))
      (node (ref U5) (pin G7))
      (node (ref C11) (pin 2))
      (node (ref TP3) (pin 1))
      (node (ref SW1) (pin 1))
      (node (ref C8) (pin 2))
      (node (ref C10) (pin 2))
      (node (ref U5) (pin G1))
      (node (ref U5) (pin G2))
      (node (ref U5) (pin G3))
      (node (ref U5) (pin G4))
      (node (ref U4) (pin 32))
      (node (ref U4) (pin 33))
      (node (ref C12) (pin 2))
      (node (ref U5) (pin T6))
      (node (ref U5) (pin G8))
      (node (ref U5) (pin S5)))
    (net (code 126) (name "Net-(R8-Pad2)")
      (node (ref R8) (pin 2))
      (node (ref R9) (pin 1))
      (node (ref U6) (pin 4)))
    (net (code 127) (name "Net-(C17-Pad1)")
      (node (ref U6) (pin 1))
      (node (ref C17) (pin 1))
      (node (ref L2) (pin 1)))
    (net (code 128) (name "Net-(C17-Pad2)")
      (node (ref C17) (pin 2))
      (node (ref U6) (pin 2)))
    (net (code 129) (name "Net-(C16-Pad1)")
      (node (ref C16) (pin 1))
      (node (ref U6) (pin 3)))
    (net (code 130) (name "Net-(U7-Pad3)")
      (node (ref U7) (pin 3)))
    (net (code 131) (name "Net-(U7-Pad4)")
      (node (ref U7) (pin 4)))))