EESchema Schematic File Version 4
LIBS:Gateway-cache
EELAYER 30 0
EELAYER END
$Descr A4 11693 8268
encoding utf-8
Sheet 1 4
Title ""
Date ""
Rev ""
Comp ""
Comment1 ""
Comment2 ""
Comment3 ""
Comment4 ""
$EndDescr
$Sheet
S 5700 1125 1550 1000
U 5DAFB8E1
F0 "Telit" 50
F1 "UL865_noSD.sch" 50
F2 "GPRS_VCC" I L 5700 1500 50 
F3 "RXD_GPRS_MCU" O R 7250 1450 50 
F4 "TXD_GPRS_MCU" I R 7250 1525 50 
F5 "CTS_MCU" O R 7250 1750 50 
F6 "DTR_MCU" I R 7250 1600 50 
F7 "RTS_MCU" I R 7250 1675 50 
F8 "RXD_AUX_IN" I R 7250 1175 50 
F9 "TXD_AUX_OUT" O R 7250 1250 50 
$EndSheet
$Comp
L Connector:Conn_01x02_Male J2
U 1 1 5DB201C9
P 1150 1050
F 0 "J2" H 1258 1231 50  0000 C CNN
F 1 "Conn_01x02_Male" H 1258 1140 50  0000 C CNN
F 2 "Connector_Molex:Molex_Micro-Fit_3.0_43045-0210_2x01-1MP_P3.00mm_Horizontal" H 1150 1050 50  0001 C CNN
F 3 "~" H 1150 1050 50  0001 C CNN
F 4 "430450210" H 1150 1050 50  0001 C CNN "MPN"
	1    1150 1050
	1    0    0    -1  
$EndComp
Text Notes 600  750  0    50   ~ 0
Pareja: 430250200
Wire Wire Line
	1950 1050 1950 1000
Wire Wire Line
	1950 1000 2075 1000
Wire Wire Line
	1350 1050 1950 1050
Wire Wire Line
	1950 1150 1950 1200
Wire Wire Line
	1950 1200 2075 1200
Wire Wire Line
	1350 1150 1950 1150
$Sheet
S 2050 1525 875  300 
U 5DB239A9
F0 "Sheet5DB239A8" 50
F1 "3V6_Regulator.sch" 50
F2 "PWR_IN" I L 2050 1650 50 
F3 "PWR_OUT" O R 2925 1650 50 
$EndSheet
Wire Wire Line
	2925 1650 3150 1650
Text Label 3150 1650 0    50   ~ 0
3V9
Wire Wire Line
	2050 1650 1625 1650
Text Label 1625 1650 0    50   ~ 0
5V
Wire Wire Line
	2875 1200 3050 1200
Text Label 3050 1200 0    50   ~ 0
GND
Wire Wire Line
	2875 1000 3075 1000
Text Label 3075 1000 0    50   ~ 0
5V
Text Label 5350 1500 2    50   ~ 0
3V9
Wire Wire Line
	5350 1500 5700 1500
$Comp
L Gateway-rescue:Xbee3-zembia U1
U 1 1 5DB2DE6F
P 1575 5675
F 0 "U1" H 3075 7862 60  0000 C CNN
F 1 "Xbee3" H 3075 7756 60  0000 C CNN
F 2 "FootprintsZembia:XB3-24Z8CM-J" H 1575 5675 60  0001 C CNN
F 3 "" H 1575 5675 60  0001 C CNN
	1    1575 5675
	1    0    0    -1  
$EndComp
$Comp
L Regulator_Linear:TLV75515PDBV U2
U 1 1 5DB30EE5
P 2550 2500
F 0 "U2" H 2550 2842 50  0000 C CNN
F 1 "TLV75515PDBV" H 2550 2751 50  0000 C CNN
F 2 "Package_TO_SOT_SMD:SOT-23-5" H 2550 2800 50  0001 C CIN
F 3 "http://www.ti.com/lit/ds/symlink/tlv755p.pdf" H 2550 2500 50  0001 C CNN
	1    2550 2500
	1    0    0    -1  
$EndComp
$Comp
L Gateway-rescue:C-device C2
U 1 1 5DB320E6
P 1875 2600
F 0 "C2" H 1990 2646 50  0000 L CNN
F 1 "1uF" H 1990 2555 50  0000 L CNN
F 2 "Capacitors_SMD:C_0603" H 1913 2450 50  0001 C CNN
F 3 "~" H 1875 2600 50  0001 C CNN
F 4 "LMK107B7105KA-T" H 1875 2600 50  0001 C CNN "MPN"
	1    1875 2600
	1    0    0    -1  
$EndComp
Wire Wire Line
	1875 2450 1875 2400
Wire Wire Line
	1875 2400 2150 2400
Wire Wire Line
	2250 2500 2150 2500
Wire Wire Line
	2150 2500 2150 2400
Connection ~ 2150 2400
Wire Wire Line
	2150 2400 2250 2400
$Comp
L Gateway-rescue:C-device C3
U 1 1 5DB33F9F
P 3025 2600
F 0 "C3" H 3140 2646 50  0000 L CNN
F 1 "1uF" H 3140 2555 50  0000 L CNN
F 2 "Capacitors_SMD:C_0603" H 3063 2450 50  0001 C CNN
F 3 "~" H 3025 2600 50  0001 C CNN
F 4 "LMK107B7105KA-T" H 3025 2600 50  0001 C CNN "MPN"
	1    3025 2600
	1    0    0    -1  
$EndComp
Wire Wire Line
	2850 2400 3025 2400
Wire Wire Line
	3025 2400 3025 2450
Wire Wire Line
	2550 2800 2550 2875
Wire Wire Line
	2550 2875 1875 2875
Wire Wire Line
	1875 2875 1875 2750
Wire Wire Line
	3025 2750 3025 2875
Wire Wire Line
	3025 2875 2550 2875
Connection ~ 2550 2875
Text Label 3025 2875 0    50   ~ 0
GND
Text Label 1875 2400 2    50   ~ 0
3V9
Text Label 3025 2400 0    50   ~ 0
3V3
Text Label 1425 4475 0    50   ~ 0
3V3
$Comp
L Gateway-rescue:C-device C1
U 1 1 5DB3C518
P 1700 4325
F 0 "C1" H 1585 4279 50  0000 R CNN
F 1 "1uF" H 1585 4370 50  0000 R CNN
F 2 "Capacitors_SMD:C_0603" H 1738 4175 50  0001 C CNN
F 3 "~" H 1700 4325 50  0001 C CNN
F 4 "LMK107B7105KA-T" H 1700 4325 50  0001 C CNN "MPN"
	1    1700 4325
	-1   0    0    1   
$EndComp
Connection ~ 1700 4475
Wire Wire Line
	1700 4475 1975 4475
Wire Wire Line
	1975 4375 1975 4125
Wire Wire Line
	1975 4125 1700 4125
Wire Wire Line
	1700 4125 1700 4175
Wire Wire Line
	7250 1175 7650 1175
Text Label 7650 1175 0    50   ~ 0
TX_xbee
Wire Wire Line
	7250 1250 7650 1250
Text Label 7650 1250 0    50   ~ 0
RX_xbee
Text Label 1600 4575 0    50   ~ 0
TX_xbee
Text Label 1600 4675 0    50   ~ 0
RX_xbee
Text Label 1975 4125 0    50   ~ 0
GND
Text Label 1725 5475 0    50   ~ 0
GND
Wire Wire Line
	1725 5475 1975 5475
Text Label 4450 5475 0    50   ~ 0
GND
Wire Wire Line
	4450 5475 4175 5475
Text Label 4375 3975 0    50   ~ 0
GND
Wire Wire Line
	4375 3975 4175 3975
Text Label 4375 4175 0    50   ~ 0
GND
Wire Wire Line
	4375 4175 4175 4175
Text Label 1725 5275 0    50   ~ 0
GND
Wire Wire Line
	1725 5275 1975 5275
$Comp
L Connector_Generic:Conn_01x06 J3
U 1 1 5DB4A57F
P 8225 1550
F 0 "J3" H 8305 1542 50  0000 L CNN
F 1 "Conn_01x06" H 8305 1451 50  0000 L CNN
F 2 "Connectors_JST:JST_PH_B6B-PH-SM4-TB_06x2.00mm_Straight" H 8225 1550 50  0001 C CNN
F 3 "~" H 8225 1550 50  0001 C CNN
F 4 "1775470-6" H 8225 1550 50  0001 C CNN "MPN"
	1    8225 1550
	1    0    0    -1  
$EndComp
Wire Wire Line
	7250 1450 8025 1450
Wire Wire Line
	8025 1525 8025 1550
Wire Wire Line
	7250 1525 8025 1525
Wire Wire Line
	8000 1600 8000 1650
Wire Wire Line
	8000 1650 8025 1650
Wire Wire Line
	7250 1600 8000 1600
Wire Wire Line
	7975 1675 7975 1750
Wire Wire Line
	7975 1750 8025 1750
Wire Wire Line
	7250 1675 7975 1675
Wire Wire Line
	8025 1850 7975 1850
Text Label 7975 1850 2    50   ~ 0
GND
$Comp
L Connector_Generic:Conn_01x06 J1
U 1 1 5DB4F729
P 650 4600
F 0 "J1" H 568 5017 50  0000 C CNN
F 1 "Conn_01x06" H 568 4926 50  0000 C CNN
F 2 "Connectors_JST:JST_PH_B6B-PH-SM4-TB_06x2.00mm_Straight" H 650 4600 50  0001 C CNN
F 3 "~" H 650 4600 50  0001 C CNN
F 4 "1775470-6" H 650 4600 50  0001 C CNN "MPN"
	1    650  4600
	-1   0    0    -1  
$EndComp
Wire Wire Line
	850  4600 1025 4600
Wire Wire Line
	1025 4600 1025 4675
Wire Wire Line
	1025 4675 1975 4675
Wire Wire Line
	1050 4575 1050 4500
Wire Wire Line
	1050 4500 850  4500
Wire Wire Line
	1050 4575 1975 4575
Wire Wire Line
	850  4400 1100 4400
Wire Wire Line
	1100 4400 1100 4475
Wire Wire Line
	1100 4475 1700 4475
Text Label 1025 4900 2    50   ~ 0
GND
Wire Wire Line
	1025 4900 850  4900
$Comp
L Converter_ACDC:RAC05-05SK PS1
U 1 1 5DB40514
P 2475 1100
F 0 "PS1" H 2475 1467 50  0000 C CNN
F 1 "RAC05-05SK" H 2475 1376 50  0000 C CNN
F 2 "Converter_ACDC:Converter_ACDC_RECOM_RAC05-xxSK_THT" H 2475 750 50  0001 C CNN
F 3 "https://www.recom-power.com/pdf/Powerline-AC-DC/RAC05-K.pdf" H 2375 1400 50  0001 C CNN
F 4 "RAC05-05SK" H 2475 1100 50  0001 C CNN "MPN"
	1    2475 1100
	1    0    0    -1  
$EndComp
Text Label 10200 1200 2    60   ~ 0
GND
Wire Wire Line
	10200 1200 10725 1200
Text GLabel 10725 1200 2    60   Input ~ 0
GND
Text GLabel 10725 1325 2    60   Input ~ 0
3V3
Wire Wire Line
	10725 1325 10200 1325
Text Label 10200 1325 2    60   ~ 0
3V3
Text GLabel 10725 1475 2    60   Input ~ 0
1V8
Wire Wire Line
	10725 1475 10200 1475
Text Label 10200 1475 2    60   ~ 0
1V8
$Sheet
S 3900 1950 800  275 
U 5DB7236A
F0 "Sheet5DB72369" 50
F1 "LDO_1V8.sch" 50
F2 "PWR_IN" I L 3900 2075 50 
F3 "PWR_OUT" O R 4700 2075 50 
$EndSheet
Text Label 3525 2075 0    50   ~ 0
3V9
Wire Wire Line
	3900 2075 3525 2075
Text Label 5050 2075 2    60   ~ 0
1V8
Wire Wire Line
	5050 2075 4700 2075
$EndSCHEMATC
